\relax 
\providecommand\hyper@newdestlabel[2]{}
\providecommand\HyperFirstAtBeginDocument{\AtBeginDocument}
\HyperFirstAtBeginDocument{\ifx\hyper@anchor\@undefined
\global\let\oldcontentsline\contentsline
\gdef\contentsline#1#2#3#4{\oldcontentsline{#1}{#2}{#3}}
\global\let\oldnewlabel\newlabel
\gdef\newlabel#1#2{\newlabelxx{#1}#2}
\gdef\newlabelxx#1#2#3#4#5#6{\oldnewlabel{#1}{{#2}{#3}}}
\AtEndDocument{\ifx\hyper@anchor\@undefined
\let\contentsline\oldcontentsline
\let\newlabel\oldnewlabel
\fi}
\fi}
\global\let\hyper@last\relax 
\gdef\HyperFirstAtBeginDocument#1{#1}
\providecommand\HyField@AuxAddToFields[1]{}
\providecommand\HyField@AuxAddToCoFields[2]{}
\providecommand\babel@aux[2]{}
\@nameuse{bbl@beforestart}
\catcode `"\active 
\providecommand \oddpage@label [2]{}
\babel@aux{dutch}{}
\@writefile{toc}{\contentsline {section}{\numberline {1}Achtergrond}{4}{section.1}\protected@file@percent }
\@writefile{toc}{\contentsline {section}{\numberline {2}Projectresultaat}{4}{section.2}\protected@file@percent }
\@writefile{toc}{\contentsline {subsection}{\numberline {2.1}Probleemstelling}{4}{subsection.2.1}\protected@file@percent }
\@writefile{toc}{\contentsline {subsection}{\numberline {2.2}Doelstelling}{4}{subsection.2.2}\protected@file@percent }
\@writefile{toc}{\contentsline {section}{\numberline {3}Projectactiviteiten}{5}{section.3}\protected@file@percent }
\@writefile{toc}{\contentsline {section}{\numberline {4}Projectgrenzen}{7}{section.4}\protected@file@percent }
\@writefile{toc}{\contentsline {section}{\numberline {5}Tussenresultaat}{7}{section.5}\protected@file@percent }
\@writefile{toc}{\contentsline {section}{\numberline {6}Kwaliteit}{8}{section.6}\protected@file@percent }
\@writefile{lof}{\contentsline {figure}{\numberline {1}{\ignorespaces V-model\relax }}{8}{figure.caption.3}\protected@file@percent }
\providecommand*\caption@xref[2]{\@setref\relax\@undefined{#1}}
\newlabel{fig:vmodel}{{1}{8}{V-model\relax }{figure.caption.3}{}}
\@writefile{toc}{\contentsline {section}{\numberline {7}Projectorganisatie}{10}{section.7}\protected@file@percent }
\@writefile{toc}{\contentsline {section}{\numberline {8}Plannig}{10}{section.8}\protected@file@percent }
\@writefile{toc}{\contentsline {section}{\numberline {9}Kosten \& Baten}{10}{section.9}\protected@file@percent }
\@writefile{toc}{\contentsline {section}{\numberline {10}Risico's}{10}{section.10}\protected@file@percent }
\@writefile{toc}{\contentsline {section}{\numberline {11}Bijlage: Planning}{11}{section.11}\protected@file@percent }
\newlabel{bijlage:planning}{{11}{11}{Bijlage: Planning}{section.11}{}}
\@writefile{toc}{\contentsline {section}{\numberline {12}Bijlage: Risico-analyse}{11}{section.12}\protected@file@percent }
\newlabel{bijlage:risico}{{12}{11}{Bijlage: Risico-analyse}{section.12}{}}
\gdef \@abspage@last{11}
