\BOOKMARK [1][-]{section.1}{\376\377\000I\000n\000l\000e\000i\000d\000i\000n\000g}{}% 1
\BOOKMARK [1][-]{section.2}{\376\377\000D\000e\000e\000l\000v\000r\000a\000a\000g\000\040\0001\000:\000\040\000W\000e\000l\000k\000e\000\040\000h\000a\000r\000d\000w\000a\000r\000e\000\040\000k\000a\000n\000\040\000e\000r\000\040\000g\000e\000b\000r\000u\000i\000k\000t\000\040\000w\000o\000r\000d\000e\000n\000\040\000i\000n\000\040\000d\000i\000t\000\040\000p\000r\000o\000j\000e\000c\000t\000?}{}% 2
\BOOKMARK [2][-]{subsection.2.1}{\376\377\000W\000a\000t\000\040\000i\000s\000\040\000F\000P\000G\000A\000?}{section.2}% 3
\BOOKMARK [3][-]{subsubsection.2.1.1}{\376\377\000V\000o\000o\000r\000d\000e\000l\000e\000n}{subsection.2.1}% 4
\BOOKMARK [3][-]{subsubsection.2.1.2}{\376\377\000N\000a\000d\000e\000l\000e\000n}{subsection.2.1}% 5
\BOOKMARK [2][-]{subsection.2.2}{\376\377\000W\000a\000t\000\040\000i\000s\000\040\000e\000e\000n\000\040\000M\000i\000c\000r\000o\000c\000o\000n\000t\000r\000o\000l\000l\000e\000r}{section.2}% 6
\BOOKMARK [3][-]{subsubsection.2.2.1}{\376\377\000H\000o\000e\000\040\000w\000e\000r\000k\000t\000\040\000e\000e\000n\000\040\000M\000i\000c\000r\000o\000c\000o\000n\000t\000r\000o\000l\000l\000e\000r\000?}{subsection.2.2}% 7
\BOOKMARK [3][-]{subsubsection.2.2.2}{\376\377\000K\000e\000r\000n\000e\000l\000e\000m\000e\000n\000t\000e\000n\000\040\000v\000a\000n\000\040\000d\000e\000\040\000M\000i\000c\000r\000o\000c\000o\000n\000t\000r\000o\000l\000l\000e\000r}{subsection.2.2}% 8
\BOOKMARK [2][-]{subsection.2.3}{\376\377\000C\000o\000n\000c\000l\000u\000s\000i\000e}{section.2}% 9
\BOOKMARK [1][-]{section.3}{\376\377\000D\000e\000e\000l\000v\000r\000a\000a\000g\000\040\0002\000:\000\040\000H\000o\000e\000\040\000k\000a\000n\000\040\000h\000e\000t\000\040\000s\000y\000s\000t\000e\000e\000m\000\040\000z\000o\000\040\000l\000a\000n\000g\000\040\000m\000o\000g\000e\000l\000i\000j\000k\000\040\000b\000l\000i\000j\000v\000e\000n\000\040\000w\000e\000r\000k\000e\000n\000?}{}% 10
\BOOKMARK [2][-]{subsection.3.1}{\376\377\000H\000o\000e\000v\000e\000e\000l\000\040\000d\000a\000t\000a\000\040\000w\000o\000r\000d\000e\000n\000\040\000e\000r\000\040\000o\000p\000g\000e\000s\000l\000a\000g\000e\000n\000?}{section.3}% 11
\BOOKMARK [2][-]{subsection.3.2}{\376\377\000S\000e\000r\000i\000\353\000l\000e\000\040\000v\000e\000r\000b\000i\000n\000d\000i\000n\000g}{section.3}% 12
\BOOKMARK [2][-]{subsection.3.3}{\376\377\000C\000o\000n\000c\000l\000u\000s\000i\000e}{section.3}% 13
\BOOKMARK [1][-]{section.4}{\376\377\000W\000a\000t\000\040\000i\000s\000\040\000h\000e\000t\000\040\000s\000t\000r\000o\000o\000m\000v\000e\000r\000b\000r\000u\000i\000k\000\040\000v\000a\000n\000\040\000h\000e\000t\000\040\000s\000y\000s\000t\000e\000e\000m\000?}{}% 14
\BOOKMARK [2][-]{subsection.4.1}{\376\377\000W\000a\000t\000\040\000i\000s\000\040\000h\000e\000t\000\040\000s\000t\000r\000o\000o\000m\000v\000e\000r\000b\000r\000u\000i\000k\000\040\000v\000a\000n\000\040\000a\000l\000l\000e\000\040\000s\000e\000n\000s\000o\000r\000e\000n\000?}{section.4}% 15
\BOOKMARK [2][-]{subsection.4.2}{\376\377\000W\000e\000l\000k\000e\000\040\000t\000y\000p\000e\000\040\000v\000o\000e\000d\000i\000n\000g\000\040\000i\000s\000\040\000h\000e\000t\000\040\000m\000e\000e\000s\000t\000\040\000e\000f\000f\000i\000c\000i\000\353\000n\000t\000?}{section.4}% 16
\BOOKMARK [3][-]{subsubsection.4.2.1}{\376\377\000L\000i\000n\000e\000a\000i\000r\000e\000\040\000v\000o\000l\000t\000a\000g\000e\000\040\000r\000e\000g\000u\000l\000a\000t\000o\000r}{subsection.4.2}% 17
\BOOKMARK [3][-]{subsubsection.4.2.2}{\376\377\000S\000w\000i\000t\000c\000h\000i\000n\000g\000\040\000v\000o\000l\000t\000a\000g\000e\000\040\000r\000e\000g\000u\000l\000a\000t\000o\000r}{subsection.4.2}% 18
\BOOKMARK [3][-]{subsubsection.4.2.3}{\376\377\000H\000y\000p\000o\000t\000h\000e\000t\000i\000s\000c\000h\000\040\000v\000a\000n\000\040\000i\000m\000p\000l\000e\000m\000e\000n\000t\000a\000t\000i\000e}{subsection.4.2}% 19
\BOOKMARK [2][-]{subsection.4.3}{\376\377\000C\000o\000n\000c\000l\000u\000s\000i\000e}{section.4}% 20
\BOOKMARK [1][-]{section.5}{\376\377\000H\000o\000o\000f\000d\000v\000r\000a\000a\000g\000\040\000c\000o\000n\000c\000l\000u\000s\000i\000e}{}% 21
\BOOKMARK [1][-]{section.6}{\376\377\000B\000r\000o\000n\000v\000e\000r\000m\000e\000l\000d\000i\000n\000g}{}% 22
\BOOKMARK [1][-]{section.7}{\376\377\000B\000i\000j\000l\000a\000g\000e\000\040\000B\000u\000c\000k\000\040\000c\000o\000n\000v\000e\000r\000t\000e\000r\000\040\000b\000e\000r\000e\000k\000e\000n\000i\000n\000g\000\040\000v\000a\000n\000\040\0007\000,\0002\000V\000\040\000n\000a\000a\000r\000\040\0005\000V}{}% 23
\BOOKMARK [1][-]{section.8}{\376\377\000B\000i\000j\000l\000a\000g\000e\000\040\000b\000u\000c\000k\000\040\000c\000o\000n\000v\000e\000r\000t\000e\000r\000\040\000b\000e\000r\000e\000k\000e\000n\000i\000n\000g\000\040\000v\000a\000n\000\040\0007\000,\0002\000V\000\040\000n\000a\000a\000r\000\040\0003\000,\0003\000V}{}% 24
\BOOKMARK [1][-]{section.9}{\376\377\000B\000i\000j\000l\000a\000g\000e\000\040\000b\000u\000c\000k\000\040\000c\000o\000n\000v\000e\000r\000t\000e\000r\000\040\000b\000e\000r\000e\000k\000e\000n\000i\000n\000g\000\040\000v\000a\000n\000\040\0004\000V\000\040\000n\000a\000a\000r\000\040\0003\000,\0003\000V}{}% 25
