\relax 
\providecommand\hyper@newdestlabel[2]{}
\providecommand\HyperFirstAtBeginDocument{\AtBeginDocument}
\HyperFirstAtBeginDocument{\ifx\hyper@anchor\@undefined
\global\let\oldcontentsline\contentsline
\gdef\contentsline#1#2#3#4{\oldcontentsline{#1}{#2}{#3}}
\global\let\oldnewlabel\newlabel
\gdef\newlabel#1#2{\newlabelxx{#1}#2}
\gdef\newlabelxx#1#2#3#4#5#6{\oldnewlabel{#1}{{#2}{#3}}}
\AtEndDocument{\ifx\hyper@anchor\@undefined
\let\contentsline\oldcontentsline
\let\newlabel\oldnewlabel
\fi}
\fi}
\global\let\hyper@last\relax 
\gdef\HyperFirstAtBeginDocument#1{#1}
\providecommand\HyField@AuxAddToFields[1]{}
\providecommand\HyField@AuxAddToCoFields[2]{}
\providecommand\babel@aux[2]{}
\@nameuse{bbl@beforestart}
\catcode `"\active 
\providecommand \oddpage@label [2]{}
\babel@aux{dutch}{}
\@writefile{toc}{\contentsline {section}{\numberline {1}Inleiding}{4}{section.1}\protected@file@percent }
\newlabel{onderzoek:hardware}{{1}{4}{Inleiding}{section.1}{}}
\@writefile{toc}{\contentsline {section}{\numberline {2}Deelvraag 1: Welke hardware kan er gebruikt worden in dit project?}{5}{section.2}\protected@file@percent }
\@writefile{toc}{\contentsline {subsection}{\numberline {2.1}Wat is FPGA?}{5}{subsection.2.1}\protected@file@percent }
\@writefile{toc}{\contentsline {subsubsection}{\numberline {2.1.1}Voordelen}{5}{subsubsection.2.1.1}\protected@file@percent }
\@writefile{toc}{\contentsline {subsubsection}{\numberline {2.1.2}Nadelen}{5}{subsubsection.2.1.2}\protected@file@percent }
\@writefile{toc}{\contentsline {subsection}{\numberline {2.2}Wat is een Microcontroller}{6}{subsection.2.2}\protected@file@percent }
\@writefile{toc}{\contentsline {subsubsection}{\numberline {2.2.1}Hoe werkt een Microcontroller?}{6}{subsubsection.2.2.1}\protected@file@percent }
\@writefile{toc}{\contentsline {subsubsection}{\numberline {2.2.2}Kernelementen van de Microcontroller}{6}{subsubsection.2.2.2}\protected@file@percent }
\@writefile{toc}{\contentsline {subsection}{\numberline {2.3}Conclusie}{7}{subsection.2.3}\protected@file@percent }
\@writefile{lot}{\contentsline {table}{\numberline {1}{\ignorespaces Tabel voor- en nadelen ten opzichte van FPGA en uC\relax }}{7}{table.caption.4}\protected@file@percent }
\providecommand*\caption@xref[2]{\@setref\relax\@undefined{#1}}
\newlabel{tab:procons}{{1}{7}{Tabel voor- en nadelen ten opzichte van FPGA en uC\relax }{table.caption.4}{}}
\@writefile{toc}{\contentsline {section}{\numberline {3}Deelvraag 2: Hoe kan het systeem zo lang mogelijk blijven werken?}{8}{section.3}\protected@file@percent }
\@writefile{toc}{\contentsline {subsection}{\numberline {3.1}Hoeveel data worden er opgeslagen?}{8}{subsection.3.1}\protected@file@percent }
\@writefile{lot}{\contentsline {table}{\numberline {2}{\ignorespaces Totale aantal bits van alle sensoren\relax }}{8}{table.caption.5}\protected@file@percent }
\newlabel{tab:bits}{{2}{8}{Totale aantal bits van alle sensoren\relax }{table.caption.5}{}}
\newlabel{form:3}{{1}{8}{Hoeveel data worden er opgeslagen?}{equation.3.1}{}}
\newlabel{form:4}{{2}{8}{Hoeveel data worden er opgeslagen?}{equation.3.2}{}}
\newlabel{form:1}{{3}{8}{Hoeveel data worden er opgeslagen?}{equation.3.3}{}}
\newlabel{form:2}{{4}{8}{Hoeveel data worden er opgeslagen?}{equation.3.4}{}}
\@writefile{toc}{\contentsline {subsection}{\numberline {3.2}Seriële verbinding}{8}{subsection.3.2}\protected@file@percent }
\newlabel{form:5}{{5}{9}{Seriële verbinding}{equation.3.5}{}}
\newlabel{form:6}{{6}{9}{Seriële verbinding}{equation.3.6}{}}
\newlabel{form:9}{{8}{9}{Seriële verbinding}{equation.3.8}{}}
\@writefile{toc}{\contentsline {subsection}{\numberline {3.3}Conclusie}{9}{subsection.3.3}\protected@file@percent }
\@writefile{toc}{\contentsline {section}{\numberline {4}Wat is het stroomverbruik van het systeem?}{9}{section.4}\protected@file@percent }
\@writefile{toc}{\contentsline {subsection}{\numberline {4.1}Wat is het stroomverbruik van alle sensoren?}{9}{subsection.4.1}\protected@file@percent }
\@writefile{lot}{\contentsline {table}{\numberline {3}{\ignorespaces Stroomverbruik per sensor in totaal\relax }}{9}{table.caption.6}\protected@file@percent }
\newlabel{tab:stroomverbruik}{{3}{9}{Stroomverbruik per sensor in totaal\relax }{table.caption.6}{}}
\@writefile{toc}{\contentsline {subsection}{\numberline {4.2}Welke type voeding is het meest efficiënt?}{10}{subsection.4.2}\protected@file@percent }
\@writefile{toc}{\contentsline {subsubsection}{\numberline {4.2.1}Lineaire voltage regulator}{10}{subsubsection.4.2.1}\protected@file@percent }
\@writefile{lof}{\contentsline {figure}{\numberline {1}{\ignorespaces De efficiëntie van een lineaire regulator [\ref  {bib:16}]\relax }}{10}{figure.caption.7}\protected@file@percent }
\newlabel{fig:lineair}{{1}{10}{De efficiëntie van een lineaire regulator [\ref {bib:16}]\relax }{figure.caption.7}{}}
\newlabel{form:7}{{9}{10}{Lineaire voltage regulator}{equation.4.9}{}}
\newlabel{form:8}{{10}{10}{Lineaire voltage regulator}{equation.4.10}{}}
\@writefile{toc}{\contentsline {subsubsection}{\numberline {4.2.2}Switching voltage regulator}{10}{subsubsection.4.2.2}\protected@file@percent }
\@writefile{toc}{\contentsline {subsubsection}{\numberline {4.2.3}Hypothetisch van implementatie}{10}{subsubsection.4.2.3}\protected@file@percent }
\@writefile{lof}{\contentsline {figure}{\numberline {2}{\ignorespaces De efficiëntie van een switching regulator [\ref  {bib:16}]\relax }}{11}{figure.caption.8}\protected@file@percent }
\newlabel{fig:switch}{{2}{11}{De efficiëntie van een switching regulator [\ref {bib:16}]\relax }{figure.caption.8}{}}
\newlabel{equ:line}{{11}{11}{Hypothetisch van implementatie}{equation.4.11}{}}
\newlabel{form:10}{{12}{11}{Hypothetisch van implementatie}{equation.4.12}{}}
\newlabel{form:11}{{13}{11}{Hypothetisch van implementatie}{equation.4.13}{}}
\@writefile{lof}{\contentsline {figure}{\numberline {3}{\ignorespaces LTspice simulatie step-down converter van 7,2 naar 5 V\relax }}{12}{figure.caption.9}\protected@file@percent }
\newlabel{fig:lt_7v2_5}{{3}{12}{LTspice simulatie step-down converter van 7,2 naar 5 V\relax }{figure.caption.9}{}}
\@writefile{lof}{\contentsline {figure}{\numberline {4}{\ignorespaces LTspice simulatie step-down converter van 7,2 V naar 3,3 V\relax }}{12}{figure.caption.10}\protected@file@percent }
\newlabel{fig:lt_7v2_3v3}{{4}{12}{LTspice simulatie step-down converter van 7,2 V naar 3,3 V\relax }{figure.caption.10}{}}
\@writefile{lof}{\contentsline {figure}{\numberline {5}{\ignorespaces LTspice simulatie step-down converter van 4 V naar 3,3 V\relax }}{13}{figure.caption.11}\protected@file@percent }
\newlabel{fig:lt_4_2_3v3}{{5}{13}{LTspice simulatie step-down converter van 4 V naar 3,3 V\relax }{figure.caption.11}{}}
\newlabel{form:11}{{14}{13}{Hypothetisch van implementatie}{equation.4.14}{}}
\@writefile{lof}{\contentsline {figure}{\numberline {6}{\ignorespaces LTspice simulatie step up converter van 3,3 V naar 5 V\relax }}{14}{figure.caption.12}\protected@file@percent }
\newlabel{fig:boost}{{6}{14}{LTspice simulatie step up converter van 3,3 V naar 5 V\relax }{figure.caption.12}{}}
\newlabel{form:12}{{15}{14}{Hypothetisch van implementatie}{equation.4.15}{}}
\@writefile{lot}{\contentsline {table}{\numberline {4}{\ignorespaces Verschillende rendement bij diverse simulatie waarbij input 7v2 ${\simeq }$ 4 V en output 5 V\relax }}{14}{table.caption.14}\protected@file@percent }
\newlabel{tab:buck_boost}{{4}{14}{Verschillende rendement bij diverse simulatie waarbij input 7v2 ${\simeq }$ 4 V en output 5 V\relax }{table.caption.14}{}}
\@writefile{lof}{\contentsline {figure}{\numberline {7}{\ignorespaces LTspice simulatie Buck-boost converter van 4 V naar 5V\relax }}{15}{figure.caption.13}\protected@file@percent }
\newlabel{fig:buck_boost_lt}{{7}{15}{LTspice simulatie Buck-boost converter van 4 V naar 5V\relax }{figure.caption.13}{}}
\@writefile{lot}{\contentsline {table}{\numberline {5}{\ignorespaces Verschillende rendement bij diverse simulatie waarbij de input 7v2 ${\simeq }$ 4 V en output 3,3 V\relax }}{15}{table.caption.15}\protected@file@percent }
\newlabel{tab:buck_boost_3v3}{{5}{15}{Verschillende rendement bij diverse simulatie waarbij de input 7v2 ${\simeq }$ 4 V en output 3,3 V\relax }{table.caption.15}{}}
\@writefile{toc}{\contentsline {subsection}{\numberline {4.3}Conclusie}{15}{subsection.4.3}\protected@file@percent }
\@writefile{lot}{\contentsline {table}{\numberline {6}{\ignorespaces Vergelijkingstabel tussen switching- en lineaire regulator [\ref  {bib:16}]\relax }}{15}{table.caption.16}\protected@file@percent }
\newlabel{tab:regulator}{{6}{15}{Vergelijkingstabel tussen switching- en lineaire regulator [\ref {bib:16}]\relax }{table.caption.16}{}}
\newlabel{form:13}{{16}{16}{Conclusie}{equation.4.16}{}}
\@writefile{toc}{\contentsline {section}{\numberline {5}Hoofdvraag conclusie}{16}{section.5}\protected@file@percent }
\bibcite{}{1}
\bibcite{}{2}
\bibcite{}{3}
\bibcite{}{4}
\bibcite{}{5}
\bibcite{}{6}
\bibcite{}{7}
\bibcite{}{8}
\bibcite{}{9}
\bibcite{}{10}
\bibcite{}{11}
\bibcite{}{12}
\bibcite{}{13}
\bibcite{}{14}
\bibcite{}{15}
\bibcite{}{16}
\bibcite{}{17}
\bibcite{}{18}
\@writefile{toc}{\contentsline {section}{\numberline {6}Bronvermelding}{17}{section.6}\protected@file@percent }
\newlabel{bib:1}{{1}{17}{\refname }{section*.17}{}}
\newlabel{bib:2}{{2}{17}{\refname }{section*.17}{}}
\newlabel{bib:3}{{3}{17}{\refname }{section*.17}{}}
\newlabel{bib:4}{{4}{17}{\refname }{section*.17}{}}
\newlabel{bib:5}{{5}{17}{\refname }{section*.17}{}}
\newlabel{bib:6}{{6}{17}{\refname }{section*.17}{}}
\newlabel{bib:7}{{7}{17}{\refname }{section*.17}{}}
\newlabel{bib:8}{{8}{17}{\refname }{section*.17}{}}
\newlabel{bib:9}{{9}{17}{\refname }{section*.17}{}}
\newlabel{bib:10}{{10}{17}{\refname }{section*.17}{}}
\newlabel{bib:11}{{11}{17}{\refname }{section*.17}{}}
\newlabel{bib:12}{{12}{17}{\refname }{section*.17}{}}
\newlabel{bib:13}{{13}{17}{\refname }{section*.17}{}}
\newlabel{bib:14}{{14}{17}{\refname }{section*.17}{}}
\newlabel{bib:15}{{15}{17}{\refname }{section*.17}{}}
\newlabel{bib:16}{{16}{17}{\refname }{section*.17}{}}
\newlabel{bib:17}{{17}{17}{\refname }{section*.17}{}}
\bibcite{}{19}
\bibcite{}{20}
\bibcite{}{21}
\bibcite{}{22}
\bibcite{}{23}
\bibcite{}{24}
\bibcite{}{25}
\newlabel{bib:18}{{18}{18}{\refname }{section*.17}{}}
\newlabel{bib:19}{{19}{18}{\refname }{section*.17}{}}
\newlabel{bib:20}{{20}{18}{\refname }{section*.17}{}}
\newlabel{bib:21}{{21}{18}{\refname }{section*.17}{}}
\newlabel{bib:22}{{22}{18}{\refname }{section*.17}{}}
\newlabel{bib:23}{{23}{18}{\refname }{section*.17}{}}
\newlabel{bib:24}{{24}{18}{\refname }{section*.17}{}}
\newlabel{bib:25}{{25}{18}{\refname }{section*.17}{}}
\@writefile{toc}{\contentsline {section}{\numberline {7}Bijlage Buck converter berekening van 7,2V naar 5V}{19}{section.7}\protected@file@percent }
\newlabel{bijlage:buck1}{{7}{19}{Bijlage Buck converter berekening van 7,2V naar 5V}{section.7}{}}
\@writefile{toc}{\contentsline {section}{\numberline {8}Bijlage buck converter berekening van 7,2V naar 3,3V}{21}{section.8}\protected@file@percent }
\newlabel{bijlage:buck2}{{8}{21}{Bijlage buck converter berekening van 7,2V naar 3,3V}{section.8}{}}
\@writefile{toc}{\contentsline {section}{\numberline {9}Bijlage buck converter berekening van 4V naar 3,3V}{22}{section.9}\protected@file@percent }
\newlabel{bijlage:buck3}{{9}{22}{Bijlage buck converter berekening van 4V naar 3,3V}{section.9}{}}
\gdef \@abspage@last{22}
