PWD c:\Users\User\Documents\afstudeeropdracht\Eindverslag\Eindverslag_v1\DefinitieFase\definitie_V2\Bijlage
INPUT C:\Users\User\AppData\Local\MiKTeX\miktex\data\le\pdftex\pdflatex.fmt
INPUT c:\Users\User\Documents\afstudeeropdracht\Eindverslag\Eindverslag_v1\DefinitieFase\definitie_V2\Bijlage\onderzoek_fpga_vs_uc.tex
OUTPUT onderzoek_fpga_vs_uc.log
INPUT C:\Users\User\AppData\Local\Programs\MiKTeX\tex\latex\base\article.cls
INPUT C:\Users\User\AppData\Local\Programs\MiKTeX\tex\latex\base\article.cls
INPUT C:\Users\User\AppData\Local\Programs\MiKTeX\tex\latex\base\article.cls
INPUT C:\Users\User\AppData\Local\Programs\MiKTeX\tex\latex\base\article.cls
INPUT C:\Users\User\AppData\Local\Programs\MiKTeX\tex\latex\base\article.cls
INPUT C:\Users\User\AppData\Local\Programs\MiKTeX\tex\latex\base\article.cls
INPUT C:\Users\User\AppData\Local\Programs\MiKTeX\tex\latex\base\article.cls
INPUT C:\Users\User\AppData\Local\Programs\MiKTeX\tex\latex\base\article.cls
INPUT C:\Users\User\AppData\Local\Programs\MiKTeX\tex\latex\base\article.cls
INPUT C:\Users\User\AppData\Local\Programs\MiKTeX\tex\latex\base\article.cls
INPUT C:\Users\User\AppData\Local\Programs\MiKTeX\tex\latex\base\article.cls
INPUT C:\Users\User\AppData\Local\Programs\MiKTeX\tex\latex\base\size10.clo
INPUT C:\Users\User\AppData\Local\Programs\MiKTeX\tex\latex\base\size10.clo
INPUT C:\Users\User\AppData\Local\Programs\MiKTeX\tex\latex\base\size10.clo
INPUT C:\Users\User\AppData\Local\Programs\MiKTeX\tex\latex\base\size10.clo
INPUT C:\Users\User\AppData\Local\Programs\MiKTeX\tex\latex\base\inputenc.sty
INPUT C:\Users\User\AppData\Local\Programs\MiKTeX\tex\latex\base\inputenc.sty
INPUT C:\Users\User\AppData\Local\Programs\MiKTeX\tex\latex\base\inputenc.sty
INPUT C:\Users\User\AppData\Local\Programs\MiKTeX\tex\latex\base\inputenc.sty
INPUT C:\Users\User\AppData\Local\Programs\MiKTeX\tex\latex\base\inputenc.sty
INPUT C:\Users\User\AppData\Local\Programs\MiKTeX\tex\latex\base\inputenc.sty
INPUT C:\Users\User\AppData\Local\Programs\MiKTeX\tex\latex\base\inputenc.sty
INPUT C:\Users\User\AppData\Local\Programs\MiKTeX\tex\latex\base\inputenc.sty
INPUT C:\Users\User\AppData\Local\Programs\MiKTeX\tex\latex\base\inputenc.sty
INPUT C:\Users\User\AppData\Local\Programs\MiKTeX\tex\latex\base\inputenc.sty
INPUT C:\Users\User\AppData\Local\Programs\MiKTeX\tex\latex\base\inputenc.sty
INPUT C:\Users\User\AppData\Local\Programs\MiKTeX\tex\latex\hyperref\hyperref.sty
INPUT C:\Users\User\AppData\Local\Programs\MiKTeX\tex\latex\hyperref\hyperref.sty
INPUT C:\Users\User\AppData\Local\Programs\MiKTeX\tex\latex\hyperref\hyperref.sty
INPUT C:\Users\User\AppData\Local\Programs\MiKTeX\tex\latex\hyperref\hyperref.sty
INPUT C:\Users\User\AppData\Local\Programs\MiKTeX\tex\latex\hyperref\hyperref.sty
INPUT C:\Users\User\AppData\Local\Programs\MiKTeX\tex\latex\hyperref\hyperref.sty
INPUT C:\Users\User\AppData\Local\Programs\MiKTeX\tex\latex\hyperref\hyperref.sty
INPUT C:\Users\User\AppData\Local\Programs\MiKTeX\tex\latex\hyperref\hyperref.sty
INPUT C:\Users\User\AppData\Local\Programs\MiKTeX\tex\latex\hyperref\hyperref.sty
INPUT C:\Users\User\AppData\Local\Programs\MiKTeX\tex\latex\hyperref\hyperref.sty
INPUT C:\Users\User\AppData\Local\Programs\MiKTeX\tex\latex\hyperref\hyperref.sty
INPUT C:\Users\User\AppData\Local\Programs\MiKTeX\tex\generic\ltxcmds\ltxcmds.sty
INPUT C:\Users\User\AppData\Local\Programs\MiKTeX\tex\generic\ltxcmds\ltxcmds.sty
INPUT C:\Users\User\AppData\Local\Programs\MiKTeX\tex\generic\ltxcmds\ltxcmds.sty
INPUT C:\Users\User\AppData\Local\Programs\MiKTeX\tex\generic\ltxcmds\ltxcmds.sty
INPUT C:\Users\User\AppData\Local\Programs\MiKTeX\tex\generic\ltxcmds\ltxcmds.sty
INPUT C:\Users\User\AppData\Local\Programs\MiKTeX\tex\generic\ltxcmds\ltxcmds.sty
INPUT C:\Users\User\AppData\Local\Programs\MiKTeX\tex\generic\ltxcmds\ltxcmds.sty
INPUT C:\Users\User\AppData\Local\Programs\MiKTeX\tex\generic\ltxcmds\ltxcmds.sty
INPUT C:\Users\User\AppData\Local\Programs\MiKTeX\tex\generic\ltxcmds\ltxcmds.sty
INPUT C:\Users\User\AppData\Local\Programs\MiKTeX\tex\generic\ltxcmds\ltxcmds.sty
INPUT C:\Users\User\AppData\Local\Programs\MiKTeX\tex\generic\ltxcmds\ltxcmds.sty
INPUT C:\Users\User\AppData\Local\Programs\MiKTeX\tex\generic\iftex\iftex.sty
INPUT C:\Users\User\AppData\Local\Programs\MiKTeX\tex\generic\iftex\iftex.sty
INPUT C:\Users\User\AppData\Local\Programs\MiKTeX\tex\generic\iftex\iftex.sty
INPUT C:\Users\User\AppData\Local\Programs\MiKTeX\tex\generic\iftex\iftex.sty
INPUT C:\Users\User\AppData\Local\Programs\MiKTeX\tex\generic\iftex\iftex.sty
INPUT C:\Users\User\AppData\Local\Programs\MiKTeX\tex\generic\iftex\iftex.sty
INPUT C:\Users\User\AppData\Local\Programs\MiKTeX\tex\generic\iftex\iftex.sty
INPUT C:\Users\User\AppData\Local\Programs\MiKTeX\tex\generic\iftex\iftex.sty
INPUT C:\Users\User\AppData\Local\Programs\MiKTeX\tex\generic\iftex\iftex.sty
INPUT C:\Users\User\AppData\Local\Programs\MiKTeX\tex\generic\iftex\iftex.sty
INPUT C:\Users\User\AppData\Local\Programs\MiKTeX\tex\generic\iftex\iftex.sty
INPUT C:\Users\User\AppData\Local\Programs\MiKTeX\tex\generic\pdftexcmds\pdftexcmds.sty
INPUT C:\Users\User\AppData\Local\Programs\MiKTeX\tex\generic\pdftexcmds\pdftexcmds.sty
INPUT C:\Users\User\AppData\Local\Programs\MiKTeX\tex\generic\pdftexcmds\pdftexcmds.sty
INPUT C:\Users\User\AppData\Local\Programs\MiKTeX\tex\generic\pdftexcmds\pdftexcmds.sty
INPUT C:\Users\User\AppData\Local\Programs\MiKTeX\tex\generic\pdftexcmds\pdftexcmds.sty
INPUT C:\Users\User\AppData\Local\Programs\MiKTeX\tex\generic\pdftexcmds\pdftexcmds.sty
INPUT C:\Users\User\AppData\Local\Programs\MiKTeX\tex\generic\pdftexcmds\pdftexcmds.sty
INPUT C:\Users\User\AppData\Local\Programs\MiKTeX\tex\generic\pdftexcmds\pdftexcmds.sty
INPUT C:\Users\User\AppData\Local\Programs\MiKTeX\tex\generic\pdftexcmds\pdftexcmds.sty
INPUT C:\Users\User\AppData\Local\Programs\MiKTeX\tex\generic\pdftexcmds\pdftexcmds.sty
INPUT C:\Users\User\AppData\Local\Programs\MiKTeX\tex\generic\pdftexcmds\pdftexcmds.sty
INPUT C:\Users\User\AppData\Local\Programs\MiKTeX\tex\generic\infwarerr\infwarerr.sty
INPUT C:\Users\User\AppData\Local\Programs\MiKTeX\tex\generic\infwarerr\infwarerr.sty
INPUT C:\Users\User\AppData\Local\Programs\MiKTeX\tex\generic\infwarerr\infwarerr.sty
INPUT C:\Users\User\AppData\Local\Programs\MiKTeX\tex\generic\infwarerr\infwarerr.sty
INPUT C:\Users\User\AppData\Local\Programs\MiKTeX\tex\generic\infwarerr\infwarerr.sty
INPUT C:\Users\User\AppData\Local\Programs\MiKTeX\tex\generic\infwarerr\infwarerr.sty
INPUT C:\Users\User\AppData\Local\Programs\MiKTeX\tex\generic\infwarerr\infwarerr.sty
INPUT C:\Users\User\AppData\Local\Programs\MiKTeX\tex\generic\infwarerr\infwarerr.sty
INPUT C:\Users\User\AppData\Local\Programs\MiKTeX\tex\generic\infwarerr\infwarerr.sty
INPUT C:\Users\User\AppData\Local\Programs\MiKTeX\tex\generic\infwarerr\infwarerr.sty
INPUT C:\Users\User\AppData\Local\Programs\MiKTeX\tex\generic\infwarerr\infwarerr.sty
INPUT C:\Users\User\AppData\Local\Programs\MiKTeX\tex\generic\iftex\iftex.sty
INPUT C:\Users\User\AppData\Local\Programs\MiKTeX\tex\generic\ltxcmds\ltxcmds.sty
INPUT C:\Users\User\AppData\Local\Programs\MiKTeX\tex\generic\infwarerr\infwarerr.sty
INPUT C:\Users\User\AppData\Local\Programs\MiKTeX\tex\latex\graphics\keyval.sty
INPUT C:\Users\User\AppData\Local\Programs\MiKTeX\tex\latex\graphics\keyval.sty
INPUT C:\Users\User\AppData\Local\Programs\MiKTeX\tex\latex\graphics\keyval.sty
INPUT C:\Users\User\AppData\Local\Programs\MiKTeX\tex\latex\graphics\keyval.sty
INPUT C:\Users\User\AppData\Local\Programs\MiKTeX\tex\latex\graphics\keyval.sty
INPUT C:\Users\User\AppData\Local\Programs\MiKTeX\tex\latex\graphics\keyval.sty
INPUT C:\Users\User\AppData\Local\Programs\MiKTeX\tex\latex\graphics\keyval.sty
INPUT C:\Users\User\AppData\Local\Programs\MiKTeX\tex\latex\graphics\keyval.sty
INPUT C:\Users\User\AppData\Local\Programs\MiKTeX\tex\latex\graphics\keyval.sty
INPUT C:\Users\User\AppData\Local\Programs\MiKTeX\tex\latex\graphics\keyval.sty
INPUT C:\Users\User\AppData\Local\Programs\MiKTeX\tex\latex\graphics\keyval.sty
INPUT C:\Users\User\AppData\Local\Programs\MiKTeX\tex\generic\kvsetkeys\kvsetkeys.sty
INPUT C:\Users\User\AppData\Local\Programs\MiKTeX\tex\generic\kvsetkeys\kvsetkeys.sty
INPUT C:\Users\User\AppData\Local\Programs\MiKTeX\tex\generic\kvsetkeys\kvsetkeys.sty
INPUT C:\Users\User\AppData\Local\Programs\MiKTeX\tex\generic\kvsetkeys\kvsetkeys.sty
INPUT C:\Users\User\AppData\Local\Programs\MiKTeX\tex\generic\kvsetkeys\kvsetkeys.sty
INPUT C:\Users\User\AppData\Local\Programs\MiKTeX\tex\generic\kvsetkeys\kvsetkeys.sty
INPUT C:\Users\User\AppData\Local\Programs\MiKTeX\tex\generic\kvsetkeys\kvsetkeys.sty
INPUT C:\Users\User\AppData\Local\Programs\MiKTeX\tex\generic\kvsetkeys\kvsetkeys.sty
INPUT C:\Users\User\AppData\Local\Programs\MiKTeX\tex\generic\kvsetkeys\kvsetkeys.sty
INPUT C:\Users\User\AppData\Local\Programs\MiKTeX\tex\generic\kvsetkeys\kvsetkeys.sty
INPUT C:\Users\User\AppData\Local\Programs\MiKTeX\tex\generic\kvsetkeys\kvsetkeys.sty
INPUT C:\Users\User\AppData\Local\Programs\MiKTeX\tex\generic\kvdefinekeys\kvdefinekeys.sty
INPUT C:\Users\User\AppData\Local\Programs\MiKTeX\tex\generic\kvdefinekeys\kvdefinekeys.sty
INPUT C:\Users\User\AppData\Local\Programs\MiKTeX\tex\generic\kvdefinekeys\kvdefinekeys.sty
INPUT C:\Users\User\AppData\Local\Programs\MiKTeX\tex\generic\kvdefinekeys\kvdefinekeys.sty
INPUT C:\Users\User\AppData\Local\Programs\MiKTeX\tex\generic\kvdefinekeys\kvdefinekeys.sty
INPUT C:\Users\User\AppData\Local\Programs\MiKTeX\tex\generic\kvdefinekeys\kvdefinekeys.sty
INPUT C:\Users\User\AppData\Local\Programs\MiKTeX\tex\generic\kvdefinekeys\kvdefinekeys.sty
INPUT C:\Users\User\AppData\Local\Programs\MiKTeX\tex\generic\kvdefinekeys\kvdefinekeys.sty
INPUT C:\Users\User\AppData\Local\Programs\MiKTeX\tex\generic\kvdefinekeys\kvdefinekeys.sty
INPUT C:\Users\User\AppData\Local\Programs\MiKTeX\tex\generic\kvdefinekeys\kvdefinekeys.sty
INPUT C:\Users\User\AppData\Local\Programs\MiKTeX\tex\generic\kvdefinekeys\kvdefinekeys.sty
INPUT C:\Users\User\AppData\Local\Programs\MiKTeX\tex\generic\pdfescape\pdfescape.sty
INPUT C:\Users\User\AppData\Local\Programs\MiKTeX\tex\generic\pdfescape\pdfescape.sty
INPUT C:\Users\User\AppData\Local\Programs\MiKTeX\tex\generic\pdfescape\pdfescape.sty
INPUT C:\Users\User\AppData\Local\Programs\MiKTeX\tex\generic\pdfescape\pdfescape.sty
INPUT C:\Users\User\AppData\Local\Programs\MiKTeX\tex\generic\pdfescape\pdfescape.sty
INPUT C:\Users\User\AppData\Local\Programs\MiKTeX\tex\generic\pdfescape\pdfescape.sty
INPUT C:\Users\User\AppData\Local\Programs\MiKTeX\tex\generic\pdfescape\pdfescape.sty
INPUT C:\Users\User\AppData\Local\Programs\MiKTeX\tex\generic\pdfescape\pdfescape.sty
INPUT C:\Users\User\AppData\Local\Programs\MiKTeX\tex\generic\pdfescape\pdfescape.sty
INPUT C:\Users\User\AppData\Local\Programs\MiKTeX\tex\generic\pdfescape\pdfescape.sty
INPUT C:\Users\User\AppData\Local\Programs\MiKTeX\tex\generic\pdfescape\pdfescape.sty
INPUT C:\Users\User\AppData\Local\Programs\MiKTeX\tex\generic\ltxcmds\ltxcmds.sty
INPUT C:\Users\User\AppData\Local\Programs\MiKTeX\tex\generic\pdftexcmds\pdftexcmds.sty
INPUT C:\Users\User\AppData\Local\Programs\MiKTeX\tex\latex\hycolor\hycolor.sty
INPUT C:\Users\User\AppData\Local\Programs\MiKTeX\tex\latex\hycolor\hycolor.sty
INPUT C:\Users\User\AppData\Local\Programs\MiKTeX\tex\latex\hycolor\hycolor.sty
INPUT C:\Users\User\AppData\Local\Programs\MiKTeX\tex\latex\hycolor\hycolor.sty
INPUT C:\Users\User\AppData\Local\Programs\MiKTeX\tex\latex\hycolor\hycolor.sty
INPUT C:\Users\User\AppData\Local\Programs\MiKTeX\tex\latex\hycolor\hycolor.sty
INPUT C:\Users\User\AppData\Local\Programs\MiKTeX\tex\latex\hycolor\hycolor.sty
INPUT C:\Users\User\AppData\Local\Programs\MiKTeX\tex\latex\hycolor\hycolor.sty
INPUT C:\Users\User\AppData\Local\Programs\MiKTeX\tex\latex\hycolor\hycolor.sty
INPUT C:\Users\User\AppData\Local\Programs\MiKTeX\tex\latex\hycolor\hycolor.sty
INPUT C:\Users\User\AppData\Local\Programs\MiKTeX\tex\latex\hycolor\hycolor.sty
INPUT C:\Users\User\AppData\Local\Programs\MiKTeX\tex\latex\letltxmacro\letltxmacro.sty
INPUT C:\Users\User\AppData\Local\Programs\MiKTeX\tex\latex\letltxmacro\letltxmacro.sty
INPUT C:\Users\User\AppData\Local\Programs\MiKTeX\tex\latex\letltxmacro\letltxmacro.sty
INPUT C:\Users\User\AppData\Local\Programs\MiKTeX\tex\latex\letltxmacro\letltxmacro.sty
INPUT C:\Users\User\AppData\Local\Programs\MiKTeX\tex\latex\letltxmacro\letltxmacro.sty
INPUT C:\Users\User\AppData\Local\Programs\MiKTeX\tex\latex\letltxmacro\letltxmacro.sty
INPUT C:\Users\User\AppData\Local\Programs\MiKTeX\tex\latex\letltxmacro\letltxmacro.sty
INPUT C:\Users\User\AppData\Local\Programs\MiKTeX\tex\latex\letltxmacro\letltxmacro.sty
INPUT C:\Users\User\AppData\Local\Programs\MiKTeX\tex\latex\letltxmacro\letltxmacro.sty
INPUT C:\Users\User\AppData\Local\Programs\MiKTeX\tex\latex\letltxmacro\letltxmacro.sty
INPUT C:\Users\User\AppData\Local\Programs\MiKTeX\tex\latex\letltxmacro\letltxmacro.sty
INPUT C:\Users\User\AppData\Local\Programs\MiKTeX\tex\latex\auxhook\auxhook.sty
INPUT C:\Users\User\AppData\Local\Programs\MiKTeX\tex\latex\auxhook\auxhook.sty
INPUT C:\Users\User\AppData\Local\Programs\MiKTeX\tex\latex\auxhook\auxhook.sty
INPUT C:\Users\User\AppData\Local\Programs\MiKTeX\tex\latex\auxhook\auxhook.sty
INPUT C:\Users\User\AppData\Local\Programs\MiKTeX\tex\latex\auxhook\auxhook.sty
INPUT C:\Users\User\AppData\Local\Programs\MiKTeX\tex\latex\auxhook\auxhook.sty
INPUT C:\Users\User\AppData\Local\Programs\MiKTeX\tex\latex\auxhook\auxhook.sty
INPUT C:\Users\User\AppData\Local\Programs\MiKTeX\tex\latex\auxhook\auxhook.sty
INPUT C:\Users\User\AppData\Local\Programs\MiKTeX\tex\latex\auxhook\auxhook.sty
INPUT C:\Users\User\AppData\Local\Programs\MiKTeX\tex\latex\auxhook\auxhook.sty
INPUT C:\Users\User\AppData\Local\Programs\MiKTeX\tex\latex\auxhook\auxhook.sty
INPUT C:\Users\User\AppData\Local\Programs\MiKTeX\tex\latex\kvoptions\kvoptions.sty
INPUT C:\Users\User\AppData\Local\Programs\MiKTeX\tex\latex\kvoptions\kvoptions.sty
INPUT C:\Users\User\AppData\Local\Programs\MiKTeX\tex\latex\kvoptions\kvoptions.sty
INPUT C:\Users\User\AppData\Local\Programs\MiKTeX\tex\latex\kvoptions\kvoptions.sty
INPUT C:\Users\User\AppData\Local\Programs\MiKTeX\tex\latex\kvoptions\kvoptions.sty
INPUT C:\Users\User\AppData\Local\Programs\MiKTeX\tex\latex\kvoptions\kvoptions.sty
INPUT C:\Users\User\AppData\Local\Programs\MiKTeX\tex\latex\kvoptions\kvoptions.sty
INPUT C:\Users\User\AppData\Local\Programs\MiKTeX\tex\latex\kvoptions\kvoptions.sty
INPUT C:\Users\User\AppData\Local\Programs\MiKTeX\tex\latex\kvoptions\kvoptions.sty
INPUT C:\Users\User\AppData\Local\Programs\MiKTeX\tex\latex\kvoptions\kvoptions.sty
INPUT C:\Users\User\AppData\Local\Programs\MiKTeX\tex\latex\kvoptions\kvoptions.sty
INPUT C:\Users\User\AppData\Local\Programs\MiKTeX\tex\generic\ltxcmds\ltxcmds.sty
INPUT C:\Users\User\AppData\Local\Programs\MiKTeX\tex\generic\kvsetkeys\kvsetkeys.sty
INPUT C:\Users\User\AppData\Local\Programs\MiKTeX\tex\latex\hyperref\pd1enc.def
INPUT C:\Users\User\AppData\Local\Programs\MiKTeX\tex\latex\hyperref\pd1enc.def
INPUT C:\Users\User\AppData\Local\Programs\MiKTeX\tex\latex\hyperref\pd1enc.def
INPUT C:\Users\User\AppData\Local\Programs\MiKTeX\tex\latex\hyperref\pd1enc.def
INPUT C:\Users\User\AppData\Local\Programs\MiKTeX\tex\latex\hyperref\hyperref-langpatches.def
INPUT C:\Users\User\AppData\Local\Programs\MiKTeX\tex\latex\hyperref\hyperref-langpatches.def
INPUT C:\Users\User\AppData\Local\Programs\MiKTeX\tex\latex\hyperref\hyperref-langpatches.def
INPUT C:\Users\User\AppData\Local\Programs\MiKTeX\tex\latex\hyperref\hyperref-langpatches.def
INPUT C:\Users\User\AppData\Local\Programs\MiKTeX\tex\generic\intcalc\intcalc.sty
INPUT C:\Users\User\AppData\Local\Programs\MiKTeX\tex\generic\intcalc\intcalc.sty
INPUT C:\Users\User\AppData\Local\Programs\MiKTeX\tex\generic\intcalc\intcalc.sty
INPUT C:\Users\User\AppData\Local\Programs\MiKTeX\tex\generic\intcalc\intcalc.sty
INPUT C:\Users\User\AppData\Local\Programs\MiKTeX\tex\generic\intcalc\intcalc.sty
INPUT C:\Users\User\AppData\Local\Programs\MiKTeX\tex\generic\intcalc\intcalc.sty
INPUT C:\Users\User\AppData\Local\Programs\MiKTeX\tex\generic\intcalc\intcalc.sty
INPUT C:\Users\User\AppData\Local\Programs\MiKTeX\tex\generic\intcalc\intcalc.sty
INPUT C:\Users\User\AppData\Local\Programs\MiKTeX\tex\generic\intcalc\intcalc.sty
INPUT C:\Users\User\AppData\Local\Programs\MiKTeX\tex\generic\intcalc\intcalc.sty
INPUT C:\Users\User\AppData\Local\Programs\MiKTeX\tex\generic\intcalc\intcalc.sty
INPUT C:\Users\User\AppData\Local\Programs\MiKTeX\tex\generic\etexcmds\etexcmds.sty
INPUT C:\Users\User\AppData\Local\Programs\MiKTeX\tex\generic\etexcmds\etexcmds.sty
INPUT C:\Users\User\AppData\Local\Programs\MiKTeX\tex\generic\etexcmds\etexcmds.sty
INPUT C:\Users\User\AppData\Local\Programs\MiKTeX\tex\generic\etexcmds\etexcmds.sty
INPUT C:\Users\User\AppData\Local\Programs\MiKTeX\tex\generic\etexcmds\etexcmds.sty
INPUT C:\Users\User\AppData\Local\Programs\MiKTeX\tex\generic\etexcmds\etexcmds.sty
INPUT C:\Users\User\AppData\Local\Programs\MiKTeX\tex\generic\etexcmds\etexcmds.sty
INPUT C:\Users\User\AppData\Local\Programs\MiKTeX\tex\generic\etexcmds\etexcmds.sty
INPUT C:\Users\User\AppData\Local\Programs\MiKTeX\tex\generic\etexcmds\etexcmds.sty
INPUT C:\Users\User\AppData\Local\Programs\MiKTeX\tex\generic\etexcmds\etexcmds.sty
INPUT C:\Users\User\AppData\Local\Programs\MiKTeX\tex\generic\etexcmds\etexcmds.sty
INPUT C:\Users\User\AppData\Local\Programs\MiKTeX\tex\generic\infwarerr\infwarerr.sty
INPUT C:\Users\User\AppData\Local\Programs\MiKTeX\tex\generic\iftex\iftex.sty
INPUT C:\Users\User\AppData\Local\Programs\MiKTeX\tex\latex\hyperref\puenc.def
INPUT C:\Users\User\AppData\Local\Programs\MiKTeX\tex\latex\hyperref\puenc.def
INPUT C:\Users\User\AppData\Local\Programs\MiKTeX\tex\latex\hyperref\puenc.def
INPUT C:\Users\User\AppData\Local\Programs\MiKTeX\tex\latex\hyperref\puenc.def
INPUT C:\Users\User\AppData\Local\Programs\MiKTeX\tex\latex\url\url.sty
INPUT C:\Users\User\AppData\Local\Programs\MiKTeX\tex\latex\url\url.sty
INPUT C:\Users\User\AppData\Local\Programs\MiKTeX\tex\latex\url\url.sty
INPUT C:\Users\User\AppData\Local\Programs\MiKTeX\tex\latex\url\url.sty
INPUT C:\Users\User\AppData\Local\Programs\MiKTeX\tex\latex\url\url.sty
INPUT C:\Users\User\AppData\Local\Programs\MiKTeX\tex\latex\url\url.sty
INPUT C:\Users\User\AppData\Local\Programs\MiKTeX\tex\latex\url\url.sty
INPUT C:\Users\User\AppData\Local\Programs\MiKTeX\tex\latex\url\url.sty
INPUT C:\Users\User\AppData\Local\Programs\MiKTeX\tex\latex\url\url.sty
INPUT C:\Users\User\AppData\Local\Programs\MiKTeX\tex\latex\url\url.sty
INPUT C:\Users\User\AppData\Local\Programs\MiKTeX\tex\latex\url\url.sty
INPUT C:\Users\User\AppData\Local\Programs\MiKTeX\tex\generic\bitset\bitset.sty
INPUT C:\Users\User\AppData\Local\Programs\MiKTeX\tex\generic\bitset\bitset.sty
INPUT C:\Users\User\AppData\Local\Programs\MiKTeX\tex\generic\bitset\bitset.sty
INPUT C:\Users\User\AppData\Local\Programs\MiKTeX\tex\generic\bitset\bitset.sty
INPUT C:\Users\User\AppData\Local\Programs\MiKTeX\tex\generic\bitset\bitset.sty
INPUT C:\Users\User\AppData\Local\Programs\MiKTeX\tex\generic\bitset\bitset.sty
INPUT C:\Users\User\AppData\Local\Programs\MiKTeX\tex\generic\bitset\bitset.sty
INPUT C:\Users\User\AppData\Local\Programs\MiKTeX\tex\generic\bitset\bitset.sty
INPUT C:\Users\User\AppData\Local\Programs\MiKTeX\tex\generic\bitset\bitset.sty
INPUT C:\Users\User\AppData\Local\Programs\MiKTeX\tex\generic\bitset\bitset.sty
INPUT C:\Users\User\AppData\Local\Programs\MiKTeX\tex\generic\bitset\bitset.sty
INPUT C:\Users\User\AppData\Local\Programs\MiKTeX\tex\generic\infwarerr\infwarerr.sty
INPUT C:\Users\User\AppData\Local\Programs\MiKTeX\tex\generic\intcalc\intcalc.sty
INPUT C:\Users\User\AppData\Local\Programs\MiKTeX\tex\generic\bigintcalc\bigintcalc.sty
INPUT C:\Users\User\AppData\Local\Programs\MiKTeX\tex\generic\bigintcalc\bigintcalc.sty
INPUT C:\Users\User\AppData\Local\Programs\MiKTeX\tex\generic\bigintcalc\bigintcalc.sty
INPUT C:\Users\User\AppData\Local\Programs\MiKTeX\tex\generic\bigintcalc\bigintcalc.sty
INPUT C:\Users\User\AppData\Local\Programs\MiKTeX\tex\generic\bigintcalc\bigintcalc.sty
INPUT C:\Users\User\AppData\Local\Programs\MiKTeX\tex\generic\bigintcalc\bigintcalc.sty
INPUT C:\Users\User\AppData\Local\Programs\MiKTeX\tex\generic\bigintcalc\bigintcalc.sty
INPUT C:\Users\User\AppData\Local\Programs\MiKTeX\tex\generic\bigintcalc\bigintcalc.sty
INPUT C:\Users\User\AppData\Local\Programs\MiKTeX\tex\generic\bigintcalc\bigintcalc.sty
INPUT C:\Users\User\AppData\Local\Programs\MiKTeX\tex\generic\bigintcalc\bigintcalc.sty
INPUT C:\Users\User\AppData\Local\Programs\MiKTeX\tex\generic\bigintcalc\bigintcalc.sty
INPUT C:\Users\User\AppData\Local\Programs\MiKTeX\tex\generic\pdftexcmds\pdftexcmds.sty
INPUT C:\Users\User\AppData\Local\Programs\MiKTeX\tex\generic\atbegshi\atbegshi.sty
INPUT C:\Users\User\AppData\Local\Programs\MiKTeX\tex\generic\atbegshi\atbegshi.sty
INPUT C:\Users\User\AppData\Local\Programs\MiKTeX\tex\generic\atbegshi\atbegshi.sty
INPUT C:\Users\User\AppData\Local\Programs\MiKTeX\tex\latex\base\atbegshi-ltx.sty
INPUT C:\Users\User\AppData\Local\Programs\MiKTeX\tex\generic\atbegshi\atbegshi.sty
INPUT C:\Users\User\AppData\Local\Programs\MiKTeX\tex\generic\atbegshi\atbegshi.sty
INPUT C:\Users\User\AppData\Local\Programs\MiKTeX\tex\latex\base\atbegshi-ltx.sty
INPUT C:\Users\User\AppData\Local\Programs\MiKTeX\tex\generic\atbegshi\atbegshi.sty
INPUT C:\Users\User\AppData\Local\Programs\MiKTeX\tex\latex\base\atbegshi-ltx.sty
INPUT C:\Users\User\AppData\Local\Programs\MiKTeX\tex\latex\base\atbegshi-ltx.sty
INPUT C:\Users\User\AppData\Local\Programs\MiKTeX\tex\generic\atbegshi\atbegshi.sty
INPUT C:\Users\User\AppData\Local\Programs\MiKTeX\tex\generic\atbegshi\atbegshi.sty
INPUT C:\Users\User\AppData\Local\Programs\MiKTeX\tex\latex\base\atbegshi-ltx.sty
INPUT C:\Users\User\AppData\Local\Programs\MiKTeX\tex\latex\base\atbegshi-ltx.sty
INPUT C:\Users\User\AppData\Local\Programs\MiKTeX\tex\generic\atbegshi\atbegshi.sty
INPUT C:\Users\User\AppData\Local\Programs\MiKTeX\tex\latex\base\atbegshi-ltx.sty
INPUT C:\Users\User\AppData\Local\Programs\MiKTeX\tex\latex\hyperref\hpdftex.def
INPUT C:\Users\User\AppData\Local\Programs\MiKTeX\tex\latex\hyperref\hpdftex.def
INPUT C:\Users\User\AppData\Local\Programs\MiKTeX\tex\latex\hyperref\hpdftex.def
INPUT C:\Users\User\AppData\Local\Programs\MiKTeX\tex\latex\hyperref\hpdftex.def
INPUT C:\Users\User\AppData\Local\Programs\MiKTeX\tex\latex\atveryend\atveryend.sty
INPUT C:\Users\User\AppData\Local\Programs\MiKTeX\tex\latex\atveryend\atveryend.sty
INPUT C:\Users\User\AppData\Local\Programs\MiKTeX\tex\latex\atveryend\atveryend.sty
INPUT C:\Users\User\AppData\Local\Programs\MiKTeX\tex\latex\base\atveryend-ltx.sty
INPUT C:\Users\User\AppData\Local\Programs\MiKTeX\tex\latex\atveryend\atveryend.sty
INPUT C:\Users\User\AppData\Local\Programs\MiKTeX\tex\latex\atveryend\atveryend.sty
INPUT C:\Users\User\AppData\Local\Programs\MiKTeX\tex\latex\base\atveryend-ltx.sty
INPUT C:\Users\User\AppData\Local\Programs\MiKTeX\tex\latex\atveryend\atveryend.sty
INPUT C:\Users\User\AppData\Local\Programs\MiKTeX\tex\latex\base\atveryend-ltx.sty
INPUT C:\Users\User\AppData\Local\Programs\MiKTeX\tex\latex\base\atveryend-ltx.sty
INPUT C:\Users\User\AppData\Local\Programs\MiKTeX\tex\latex\atveryend\atveryend.sty
INPUT C:\Users\User\AppData\Local\Programs\MiKTeX\tex\latex\atveryend\atveryend.sty
INPUT C:\Users\User\AppData\Local\Programs\MiKTeX\tex\latex\base\atveryend-ltx.sty
INPUT C:\Users\User\AppData\Local\Programs\MiKTeX\tex\latex\base\atveryend-ltx.sty
INPUT C:\Users\User\AppData\Local\Programs\MiKTeX\tex\latex\atveryend\atveryend.sty
INPUT C:\Users\User\AppData\Local\Programs\MiKTeX\tex\latex\base\atveryend-ltx.sty
INPUT C:\Users\User\AppData\Local\Programs\MiKTeX\tex\latex\rerunfilecheck\rerunfilecheck.sty
INPUT C:\Users\User\AppData\Local\Programs\MiKTeX\tex\latex\rerunfilecheck\rerunfilecheck.sty
INPUT C:\Users\User\AppData\Local\Programs\MiKTeX\tex\latex\rerunfilecheck\rerunfilecheck.sty
INPUT C:\Users\User\AppData\Local\Programs\MiKTeX\tex\latex\rerunfilecheck\rerunfilecheck.sty
INPUT C:\Users\User\AppData\Local\Programs\MiKTeX\tex\latex\rerunfilecheck\rerunfilecheck.sty
INPUT C:\Users\User\AppData\Local\Programs\MiKTeX\tex\latex\rerunfilecheck\rerunfilecheck.sty
INPUT C:\Users\User\AppData\Local\Programs\MiKTeX\tex\latex\rerunfilecheck\rerunfilecheck.sty
INPUT C:\Users\User\AppData\Local\Programs\MiKTeX\tex\latex\rerunfilecheck\rerunfilecheck.sty
INPUT C:\Users\User\AppData\Local\Programs\MiKTeX\tex\latex\rerunfilecheck\rerunfilecheck.sty
INPUT C:\Users\User\AppData\Local\Programs\MiKTeX\tex\latex\rerunfilecheck\rerunfilecheck.sty
INPUT C:\Users\User\AppData\Local\Programs\MiKTeX\tex\latex\rerunfilecheck\rerunfilecheck.sty
INPUT C:\Users\User\AppData\Local\Programs\MiKTeX\tex\latex\kvoptions\kvoptions.sty
INPUT C:\Users\User\AppData\Local\Programs\MiKTeX\tex\generic\infwarerr\infwarerr.sty
INPUT C:\Users\User\AppData\Local\Programs\MiKTeX\tex\generic\pdftexcmds\pdftexcmds.sty
INPUT C:\Users\User\AppData\Local\Programs\MiKTeX\tex\latex\atveryend\atveryend.sty
INPUT C:\Users\User\AppData\Local\Programs\MiKTeX\tex\generic\uniquecounter\uniquecounter.sty
INPUT C:\Users\User\AppData\Local\Programs\MiKTeX\tex\generic\uniquecounter\uniquecounter.sty
INPUT C:\Users\User\AppData\Local\Programs\MiKTeX\tex\generic\uniquecounter\uniquecounter.sty
INPUT C:\Users\User\AppData\Local\Programs\MiKTeX\tex\generic\uniquecounter\uniquecounter.sty
INPUT C:\Users\User\AppData\Local\Programs\MiKTeX\tex\generic\uniquecounter\uniquecounter.sty
INPUT C:\Users\User\AppData\Local\Programs\MiKTeX\tex\generic\uniquecounter\uniquecounter.sty
INPUT C:\Users\User\AppData\Local\Programs\MiKTeX\tex\generic\uniquecounter\uniquecounter.sty
INPUT C:\Users\User\AppData\Local\Programs\MiKTeX\tex\generic\uniquecounter\uniquecounter.sty
INPUT C:\Users\User\AppData\Local\Programs\MiKTeX\tex\generic\uniquecounter\uniquecounter.sty
INPUT C:\Users\User\AppData\Local\Programs\MiKTeX\tex\generic\uniquecounter\uniquecounter.sty
INPUT C:\Users\User\AppData\Local\Programs\MiKTeX\tex\generic\uniquecounter\uniquecounter.sty
INPUT C:\Users\User\AppData\Local\Programs\MiKTeX\tex\generic\bigintcalc\bigintcalc.sty
INPUT C:\Users\User\AppData\Local\Programs\MiKTeX\tex\generic\infwarerr\infwarerr.sty
INPUT C:\Users\User\AppData\Local\Programs\MiKTeX\tex\generic\babel\babel.sty
INPUT C:\Users\User\AppData\Local\Programs\MiKTeX\tex\generic\babel\babel.sty
INPUT C:\Users\User\AppData\Local\Programs\MiKTeX\tex\generic\babel\babel.sty
INPUT C:\Users\User\AppData\Local\Programs\MiKTeX\tex\generic\babel\babel.sty
INPUT C:\Users\User\AppData\Local\Programs\MiKTeX\tex\generic\babel\babel.sty
INPUT C:\Users\User\AppData\Local\Programs\MiKTeX\tex\generic\babel\babel.sty
INPUT C:\Users\User\AppData\Local\Programs\MiKTeX\tex\generic\babel\babel.sty
INPUT C:\Users\User\AppData\Local\Programs\MiKTeX\tex\generic\babel\babel.sty
INPUT C:\Users\User\AppData\Local\Programs\MiKTeX\tex\generic\babel\babel.sty
INPUT C:\Users\User\AppData\Local\Programs\MiKTeX\tex\generic\babel\babel.sty
INPUT C:\Users\User\AppData\Local\Programs\MiKTeX\tex\generic\babel\babel.sty
INPUT C:\Users\User\AppData\Local\Programs\MiKTeX\tex\generic\babel\babel.def
INPUT C:\Users\User\AppData\Local\Programs\MiKTeX\tex\generic\babel\txtbabel.def
INPUT C:\Users\User\AppData\Local\Programs\MiKTeX\tex\latex\arabi\bblopts.cfg
INPUT C:\Users\User\AppData\Local\Programs\MiKTeX\tex\latex\arabi\bblopts.cfg
INPUT C:\Users\User\AppData\Local\Programs\MiKTeX\tex\latex\arabi\bblopts.cfg
INPUT C:\Users\User\AppData\Local\Programs\MiKTeX\tex\latex\arabi\bblopts.cfg
INPUT C:\Users\User\AppData\Local\Programs\MiKTeX\tex\latex\babel-dutch\dutch.ldf
INPUT C:\Users\User\AppData\Local\Programs\MiKTeX\tex\latex\babel-dutch\dutch.ldf
INPUT C:\Users\User\AppData\Local\Programs\MiKTeX\tex\latex\babel-dutch\dutch.ldf
INPUT C:\Users\User\AppData\Local\Programs\MiKTeX\tex\latex\babel-dutch\dutch.ldf
INPUT C:\Users\User\AppData\Local\Programs\MiKTeX\tex\latex\url\url.sty
INPUT C:\Users\User\AppData\Local\Programs\MiKTeX\tex\latex\floatrow\floatrow.sty
INPUT C:\Users\User\AppData\Local\Programs\MiKTeX\tex\latex\floatrow\floatrow.sty
INPUT C:\Users\User\AppData\Local\Programs\MiKTeX\tex\latex\floatrow\floatrow.sty
INPUT C:\Users\User\AppData\Local\Programs\MiKTeX\tex\latex\floatrow\floatrow.sty
INPUT C:\Users\User\AppData\Local\Programs\MiKTeX\tex\latex\floatrow\floatrow.sty
INPUT C:\Users\User\AppData\Local\Programs\MiKTeX\tex\latex\floatrow\floatrow.sty
INPUT C:\Users\User\AppData\Local\Programs\MiKTeX\tex\latex\floatrow\floatrow.sty
INPUT C:\Users\User\AppData\Local\Programs\MiKTeX\tex\latex\floatrow\floatrow.sty
INPUT C:\Users\User\AppData\Local\Programs\MiKTeX\tex\latex\floatrow\floatrow.sty
INPUT C:\Users\User\AppData\Local\Programs\MiKTeX\tex\latex\floatrow\floatrow.sty
INPUT C:\Users\User\AppData\Local\Programs\MiKTeX\tex\latex\floatrow\floatrow.sty
INPUT C:\Users\User\AppData\Local\Programs\MiKTeX\tex\latex\graphics\keyval.sty
INPUT C:\Users\User\AppData\Local\Programs\MiKTeX\tex\latex\caption\caption3.sty
INPUT C:\Users\User\AppData\Local\Programs\MiKTeX\tex\latex\caption\caption3.sty
INPUT C:\Users\User\AppData\Local\Programs\MiKTeX\tex\latex\caption\caption3.sty
INPUT C:\Users\User\AppData\Local\Programs\MiKTeX\tex\latex\caption\caption3.sty
INPUT C:\Users\User\AppData\Local\Programs\MiKTeX\tex\latex\caption\caption3.sty
INPUT C:\Users\User\AppData\Local\Programs\MiKTeX\tex\latex\caption\caption3.sty
INPUT C:\Users\User\AppData\Local\Programs\MiKTeX\tex\latex\caption\caption3.sty
INPUT C:\Users\User\AppData\Local\Programs\MiKTeX\tex\latex\caption\caption3.sty
INPUT C:\Users\User\AppData\Local\Programs\MiKTeX\tex\latex\caption\caption3.sty
INPUT C:\Users\User\AppData\Local\Programs\MiKTeX\tex\latex\caption\caption3.sty
INPUT C:\Users\User\AppData\Local\Programs\MiKTeX\tex\latex\caption\caption3.sty
INPUT C:\Users\User\AppData\Local\Programs\MiKTeX\tex\latex\graphics\keyval.sty
INPUT C:\Users\User\AppData\Local\Programs\MiKTeX\tex\latex\graphics\rotating.sty
INPUT C:\Users\User\AppData\Local\Programs\MiKTeX\tex\latex\graphics\rotating.sty
INPUT C:\Users\User\AppData\Local\Programs\MiKTeX\tex\latex\graphics\graphicx.sty
INPUT C:\Users\User\AppData\Local\Programs\MiKTeX\tex\latex\graphics\graphicx.sty
INPUT C:\Users\User\AppData\Local\Programs\MiKTeX\tex\latex\graphics\graphicx.sty
INPUT C:\Users\User\AppData\Local\Programs\MiKTeX\tex\latex\graphics\graphicx.sty
INPUT C:\Users\User\AppData\Local\Programs\MiKTeX\tex\latex\graphics\graphicx.sty
INPUT C:\Users\User\AppData\Local\Programs\MiKTeX\tex\latex\graphics\graphicx.sty
INPUT C:\Users\User\AppData\Local\Programs\MiKTeX\tex\latex\graphics\graphicx.sty
INPUT C:\Users\User\AppData\Local\Programs\MiKTeX\tex\latex\graphics\graphicx.sty
INPUT C:\Users\User\AppData\Local\Programs\MiKTeX\tex\latex\graphics\graphicx.sty
INPUT C:\Users\User\AppData\Local\Programs\MiKTeX\tex\latex\graphics\graphicx.sty
INPUT C:\Users\User\AppData\Local\Programs\MiKTeX\tex\latex\graphics\graphicx.sty
INPUT C:\Users\User\AppData\Local\Programs\MiKTeX\tex\latex\graphics\keyval.sty
INPUT C:\Users\User\AppData\Local\Programs\MiKTeX\tex\latex\graphics\graphics.sty
INPUT C:\Users\User\AppData\Local\Programs\MiKTeX\tex\latex\graphics\graphics.sty
INPUT C:\Users\User\AppData\Local\Programs\MiKTeX\tex\latex\graphics\graphics.sty
INPUT C:\Users\User\AppData\Local\Programs\MiKTeX\tex\latex\graphics\graphics.sty
INPUT C:\Users\User\AppData\Local\Programs\MiKTeX\tex\latex\graphics\graphics.sty
INPUT C:\Users\User\AppData\Local\Programs\MiKTeX\tex\latex\graphics\graphics.sty
INPUT C:\Users\User\AppData\Local\Programs\MiKTeX\tex\latex\graphics\graphics.sty
INPUT C:\Users\User\AppData\Local\Programs\MiKTeX\tex\latex\graphics\graphics.sty
INPUT C:\Users\User\AppData\Local\Programs\MiKTeX\tex\latex\graphics\graphics.sty
INPUT C:\Users\User\AppData\Local\Programs\MiKTeX\tex\latex\graphics\graphics.sty
INPUT C:\Users\User\AppData\Local\Programs\MiKTeX\tex\latex\graphics\graphics.sty
INPUT C:\Users\User\AppData\Local\Programs\MiKTeX\tex\latex\graphics\trig.sty
INPUT C:\Users\User\AppData\Local\Programs\MiKTeX\tex\latex\graphics\trig.sty
INPUT C:\Users\User\AppData\Local\Programs\MiKTeX\tex\latex\graphics\trig.sty
INPUT C:\Users\User\AppData\Local\Programs\MiKTeX\tex\latex\graphics\trig.sty
INPUT C:\Users\User\AppData\Local\Programs\MiKTeX\tex\latex\graphics\trig.sty
INPUT C:\Users\User\AppData\Local\Programs\MiKTeX\tex\latex\graphics\trig.sty
INPUT C:\Users\User\AppData\Local\Programs\MiKTeX\tex\latex\graphics\trig.sty
INPUT C:\Users\User\AppData\Local\Programs\MiKTeX\tex\latex\graphics\trig.sty
INPUT C:\Users\User\AppData\Local\Programs\MiKTeX\tex\latex\graphics\trig.sty
INPUT C:\Users\User\AppData\Local\Programs\MiKTeX\tex\latex\graphics\trig.sty
INPUT C:\Users\User\AppData\Local\Programs\MiKTeX\tex\latex\graphics\trig.sty
INPUT C:\Users\User\AppData\Local\Programs\MiKTeX\tex\latex\graphics-cfg\graphics.cfg
INPUT C:\Users\User\AppData\Local\Programs\MiKTeX\tex\latex\graphics-cfg\graphics.cfg
INPUT C:\Users\User\AppData\Local\Programs\MiKTeX\tex\latex\graphics-cfg\graphics.cfg
INPUT C:\Users\User\AppData\Local\Programs\MiKTeX\tex\latex\graphics-cfg\graphics.cfg
INPUT C:\Users\User\AppData\Local\Programs\MiKTeX\tex\latex\graphics-def\pdftex.def
INPUT C:\Users\User\AppData\Local\Programs\MiKTeX\tex\latex\graphics-def\pdftex.def
INPUT C:\Users\User\AppData\Local\Programs\MiKTeX\tex\latex\graphics-def\pdftex.def
INPUT C:\Users\User\AppData\Local\Programs\MiKTeX\tex\latex\graphics-def\pdftex.def
INPUT C:\Users\User\AppData\Local\Programs\MiKTeX\tex\latex\float\float.sty
INPUT C:\Users\User\AppData\Local\Programs\MiKTeX\tex\latex\tools\tabularx.sty
INPUT C:\Users\User\AppData\Local\Programs\MiKTeX\tex\latex\tools\tabularx.sty
INPUT C:\Users\User\AppData\Local\Programs\MiKTeX\tex\latex\tools\tabularx.sty
INPUT C:\Users\User\AppData\Local\Programs\MiKTeX\tex\latex\tools\tabularx.sty
INPUT C:\Users\User\AppData\Local\Programs\MiKTeX\tex\latex\tools\tabularx.sty
INPUT C:\Users\User\AppData\Local\Programs\MiKTeX\tex\latex\tools\tabularx.sty
INPUT C:\Users\User\AppData\Local\Programs\MiKTeX\tex\latex\tools\tabularx.sty
INPUT C:\Users\User\AppData\Local\Programs\MiKTeX\tex\latex\tools\tabularx.sty
INPUT C:\Users\User\AppData\Local\Programs\MiKTeX\tex\latex\tools\tabularx.sty
INPUT C:\Users\User\AppData\Local\Programs\MiKTeX\tex\latex\tools\tabularx.sty
INPUT C:\Users\User\AppData\Local\Programs\MiKTeX\tex\latex\tools\tabularx.sty
INPUT C:\Users\User\AppData\Local\Programs\MiKTeX\tex\latex\tools\array.sty
INPUT C:\Users\User\AppData\Local\Programs\MiKTeX\tex\latex\tools\array.sty
INPUT C:\Users\User\AppData\Local\Programs\MiKTeX\tex\latex\tools\array.sty
INPUT C:\Users\User\AppData\Local\Programs\MiKTeX\tex\latex\tools\array.sty
INPUT C:\Users\User\AppData\Local\Programs\MiKTeX\tex\latex\tools\array.sty
INPUT C:\Users\User\AppData\Local\Programs\MiKTeX\tex\latex\tools\array.sty
INPUT C:\Users\User\AppData\Local\Programs\MiKTeX\tex\latex\tools\array.sty
INPUT C:\Users\User\AppData\Local\Programs\MiKTeX\tex\latex\tools\array.sty
INPUT C:\Users\User\AppData\Local\Programs\MiKTeX\tex\latex\tools\array.sty
INPUT C:\Users\User\AppData\Local\Programs\MiKTeX\tex\latex\tools\array.sty
INPUT C:\Users\User\AppData\Local\Programs\MiKTeX\tex\latex\tools\array.sty
INPUT C:\Users\User\AppData\Local\Programs\MiKTeX\tex\latex\adjustbox\adjustbox.sty
INPUT C:\Users\User\AppData\Local\Programs\MiKTeX\tex\latex\adjustbox\adjustbox.sty
INPUT C:\Users\User\AppData\Local\Programs\MiKTeX\tex\latex\adjustbox\adjustbox.sty
INPUT C:\Users\User\AppData\Local\Programs\MiKTeX\tex\latex\adjustbox\adjustbox.sty
INPUT C:\Users\User\AppData\Local\Programs\MiKTeX\tex\latex\adjustbox\adjustbox.sty
INPUT C:\Users\User\AppData\Local\Programs\MiKTeX\tex\latex\adjustbox\adjustbox.sty
INPUT C:\Users\User\AppData\Local\Programs\MiKTeX\tex\latex\adjustbox\adjustbox.sty
INPUT C:\Users\User\AppData\Local\Programs\MiKTeX\tex\latex\adjustbox\adjustbox.sty
INPUT C:\Users\User\AppData\Local\Programs\MiKTeX\tex\latex\adjustbox\adjustbox.sty
INPUT C:\Users\User\AppData\Local\Programs\MiKTeX\tex\latex\adjustbox\adjustbox.sty
INPUT C:\Users\User\AppData\Local\Programs\MiKTeX\tex\latex\adjustbox\adjustbox.sty
INPUT C:\Users\User\AppData\Local\Programs\MiKTeX\tex\latex\xkeyval\xkeyval.sty
INPUT C:\Users\User\AppData\Local\Programs\MiKTeX\tex\latex\xkeyval\xkeyval.sty
INPUT C:\Users\User\AppData\Local\Programs\MiKTeX\tex\latex\xkeyval\xkeyval.sty
INPUT C:\Users\User\AppData\Local\Programs\MiKTeX\tex\latex\xkeyval\xkeyval.sty
INPUT C:\Users\User\AppData\Local\Programs\MiKTeX\tex\latex\xkeyval\xkeyval.sty
INPUT C:\Users\User\AppData\Local\Programs\MiKTeX\tex\latex\xkeyval\xkeyval.sty
INPUT C:\Users\User\AppData\Local\Programs\MiKTeX\tex\latex\xkeyval\xkeyval.sty
INPUT C:\Users\User\AppData\Local\Programs\MiKTeX\tex\latex\xkeyval\xkeyval.sty
INPUT C:\Users\User\AppData\Local\Programs\MiKTeX\tex\latex\xkeyval\xkeyval.sty
INPUT C:\Users\User\AppData\Local\Programs\MiKTeX\tex\latex\xkeyval\xkeyval.sty
INPUT C:\Users\User\AppData\Local\Programs\MiKTeX\tex\latex\xkeyval\xkeyval.sty
INPUT C:\Users\User\AppData\Local\Programs\MiKTeX\tex\generic\xkeyval\xkeyval.tex
INPUT C:\Users\User\AppData\Local\Programs\MiKTeX\tex\generic\xkeyval\xkvutils.tex
INPUT C:\Users\User\AppData\Local\Programs\MiKTeX\tex\latex\adjustbox\adjcalc.sty
INPUT C:\Users\User\AppData\Local\Programs\MiKTeX\tex\latex\adjustbox\adjcalc.sty
INPUT C:\Users\User\AppData\Local\Programs\MiKTeX\tex\latex\adjustbox\adjcalc.sty
INPUT C:\Users\User\AppData\Local\Programs\MiKTeX\tex\latex\adjustbox\adjcalc.sty
INPUT C:\Users\User\AppData\Local\Programs\MiKTeX\tex\latex\adjustbox\adjcalc.sty
INPUT C:\Users\User\AppData\Local\Programs\MiKTeX\tex\latex\adjustbox\adjcalc.sty
INPUT C:\Users\User\AppData\Local\Programs\MiKTeX\tex\latex\adjustbox\adjcalc.sty
INPUT C:\Users\User\AppData\Local\Programs\MiKTeX\tex\latex\adjustbox\adjcalc.sty
INPUT C:\Users\User\AppData\Local\Programs\MiKTeX\tex\latex\adjustbox\adjcalc.sty
INPUT C:\Users\User\AppData\Local\Programs\MiKTeX\tex\latex\adjustbox\adjcalc.sty
INPUT C:\Users\User\AppData\Local\Programs\MiKTeX\tex\latex\adjustbox\adjcalc.sty
INPUT C:\Users\User\AppData\Local\Programs\MiKTeX\tex\latex\xkeyval\xkeyval.sty
INPUT C:\Users\User\AppData\Local\Programs\MiKTeX\tex\latex\adjustbox\trimclip.sty
INPUT C:\Users\User\AppData\Local\Programs\MiKTeX\tex\latex\adjustbox\trimclip.sty
INPUT C:\Users\User\AppData\Local\Programs\MiKTeX\tex\latex\adjustbox\trimclip.sty
INPUT C:\Users\User\AppData\Local\Programs\MiKTeX\tex\latex\adjustbox\trimclip.sty
INPUT C:\Users\User\AppData\Local\Programs\MiKTeX\tex\latex\adjustbox\trimclip.sty
INPUT C:\Users\User\AppData\Local\Programs\MiKTeX\tex\latex\adjustbox\trimclip.sty
INPUT C:\Users\User\AppData\Local\Programs\MiKTeX\tex\latex\adjustbox\trimclip.sty
INPUT C:\Users\User\AppData\Local\Programs\MiKTeX\tex\latex\adjustbox\trimclip.sty
INPUT C:\Users\User\AppData\Local\Programs\MiKTeX\tex\latex\adjustbox\trimclip.sty
INPUT C:\Users\User\AppData\Local\Programs\MiKTeX\tex\latex\adjustbox\trimclip.sty
INPUT C:\Users\User\AppData\Local\Programs\MiKTeX\tex\latex\adjustbox\trimclip.sty
INPUT C:\Users\User\AppData\Local\Programs\MiKTeX\tex\latex\graphics\graphicx.sty
INPUT C:\Users\User\AppData\Local\Programs\MiKTeX\tex\latex\collectbox\collectbox.sty
INPUT C:\Users\User\AppData\Local\Programs\MiKTeX\tex\latex\collectbox\collectbox.sty
INPUT C:\Users\User\AppData\Local\Programs\MiKTeX\tex\latex\collectbox\collectbox.sty
INPUT C:\Users\User\AppData\Local\Programs\MiKTeX\tex\latex\collectbox\collectbox.sty
INPUT C:\Users\User\AppData\Local\Programs\MiKTeX\tex\latex\collectbox\collectbox.sty
INPUT C:\Users\User\AppData\Local\Programs\MiKTeX\tex\latex\collectbox\collectbox.sty
INPUT C:\Users\User\AppData\Local\Programs\MiKTeX\tex\latex\collectbox\collectbox.sty
INPUT C:\Users\User\AppData\Local\Programs\MiKTeX\tex\latex\collectbox\collectbox.sty
INPUT C:\Users\User\AppData\Local\Programs\MiKTeX\tex\latex\collectbox\collectbox.sty
INPUT C:\Users\User\AppData\Local\Programs\MiKTeX\tex\latex\collectbox\collectbox.sty
INPUT C:\Users\User\AppData\Local\Programs\MiKTeX\tex\latex\collectbox\collectbox.sty
INPUT C:\Users\User\AppData\Local\Programs\MiKTeX\tex\latex\adjustbox\adjcalc.sty
INPUT C:\Users\User\AppData\Local\Programs\MiKTeX\tex\latex\adjustbox\tc-pdftex.def
INPUT C:\Users\User\AppData\Local\Programs\MiKTeX\tex\latex\adjustbox\tc-pdftex.def
INPUT C:\Users\User\AppData\Local\Programs\MiKTeX\tex\latex\adjustbox\tc-pdftex.def
INPUT C:\Users\User\AppData\Local\Programs\MiKTeX\tex\latex\adjustbox\tc-pdftex.def
INPUT C:\Users\User\AppData\Local\Programs\MiKTeX\tex\latex\graphics\graphicx.sty
INPUT C:\Users\User\AppData\Local\Programs\MiKTeX\tex\latex\collectbox\collectbox.sty
INPUT C:\Users\User\AppData\Local\Programs\MiKTeX\tex\latex\ifoddpage\ifoddpage.sty
INPUT C:\Users\User\AppData\Local\Programs\MiKTeX\tex\latex\ifoddpage\ifoddpage.sty
INPUT C:\Users\User\AppData\Local\Programs\MiKTeX\tex\latex\ifoddpage\ifoddpage.sty
INPUT C:\Users\User\AppData\Local\Programs\MiKTeX\tex\latex\ifoddpage\ifoddpage.sty
INPUT C:\Users\User\AppData\Local\Programs\MiKTeX\tex\latex\ifoddpage\ifoddpage.sty
INPUT C:\Users\User\AppData\Local\Programs\MiKTeX\tex\latex\ifoddpage\ifoddpage.sty
INPUT C:\Users\User\AppData\Local\Programs\MiKTeX\tex\latex\ifoddpage\ifoddpage.sty
INPUT C:\Users\User\AppData\Local\Programs\MiKTeX\tex\latex\ifoddpage\ifoddpage.sty
INPUT C:\Users\User\AppData\Local\Programs\MiKTeX\tex\latex\ifoddpage\ifoddpage.sty
INPUT C:\Users\User\AppData\Local\Programs\MiKTeX\tex\latex\ifoddpage\ifoddpage.sty
INPUT C:\Users\User\AppData\Local\Programs\MiKTeX\tex\latex\ifoddpage\ifoddpage.sty
INPUT C:\Users\User\AppData\Local\Programs\MiKTeX\tex\latex\ifoddpage\ifoddpage.sty
INPUT C:\Users\User\AppData\Local\Programs\MiKTeX\tex\latex\ifoddpage\ifoddpage.sty
INPUT C:\Users\User\AppData\Local\Programs\MiKTeX\tex\latex\varwidth\varwidth.sty
INPUT C:\Users\User\AppData\Local\Programs\MiKTeX\tex\latex\varwidth\varwidth.sty
INPUT C:\Users\User\AppData\Local\Programs\MiKTeX\tex\latex\varwidth\varwidth.sty
INPUT C:\Users\User\AppData\Local\Programs\MiKTeX\tex\latex\varwidth\varwidth.sty
INPUT C:\Users\User\AppData\Local\Programs\MiKTeX\tex\latex\varwidth\varwidth.sty
INPUT C:\Users\User\AppData\Local\Programs\MiKTeX\tex\latex\varwidth\varwidth.sty
INPUT C:\Users\User\AppData\Local\Programs\MiKTeX\tex\latex\varwidth\varwidth.sty
INPUT C:\Users\User\AppData\Local\Programs\MiKTeX\tex\latex\varwidth\varwidth.sty
INPUT C:\Users\User\AppData\Local\Programs\MiKTeX\tex\latex\varwidth\varwidth.sty
INPUT C:\Users\User\AppData\Local\Programs\MiKTeX\tex\latex\varwidth\varwidth.sty
INPUT C:\Users\User\AppData\Local\Programs\MiKTeX\tex\latex\varwidth\varwidth.sty
INPUT C:\Users\User\AppData\Local\Programs\MiKTeX\tex\latex\varwidth\varwidth.sty
INPUT C:\Users\User\AppData\Local\Programs\MiKTeX\tex\latex\varwidth\varwidth.sty
INPUT C:\Users\User\AppData\Local\Programs\MiKTeX\tex\latex\subfig\subfig.sty
INPUT C:\Users\User\AppData\Local\Programs\MiKTeX\tex\latex\subfig\subfig.sty
INPUT C:\Users\User\AppData\Local\Programs\MiKTeX\tex\latex\subfig\subfig.sty
INPUT C:\Users\User\AppData\Local\Programs\MiKTeX\tex\latex\subfig\subfig.sty
INPUT C:\Users\User\AppData\Local\Programs\MiKTeX\tex\latex\subfig\subfig.sty
INPUT C:\Users\User\AppData\Local\Programs\MiKTeX\tex\latex\subfig\subfig.sty
INPUT C:\Users\User\AppData\Local\Programs\MiKTeX\tex\latex\subfig\subfig.sty
INPUT C:\Users\User\AppData\Local\Programs\MiKTeX\tex\latex\subfig\subfig.sty
INPUT C:\Users\User\AppData\Local\Programs\MiKTeX\tex\latex\subfig\subfig.sty
INPUT C:\Users\User\AppData\Local\Programs\MiKTeX\tex\latex\subfig\subfig.sty
INPUT C:\Users\User\AppData\Local\Programs\MiKTeX\tex\latex\subfig\subfig.sty
INPUT C:\Users\User\AppData\Local\Programs\MiKTeX\tex\latex\graphics\keyval.sty
INPUT C:\Users\User\AppData\Local\Programs\MiKTeX\tex\latex\caption\caption.sty
INPUT C:\Users\User\AppData\Local\Programs\MiKTeX\tex\latex\caption\caption.sty
INPUT C:\Users\User\AppData\Local\Programs\MiKTeX\tex\latex\caption\caption.sty
INPUT C:\Users\User\AppData\Local\Programs\MiKTeX\tex\latex\caption\caption.sty
INPUT C:\Users\User\AppData\Local\Programs\MiKTeX\tex\latex\caption\caption.sty
INPUT C:\Users\User\AppData\Local\Programs\MiKTeX\tex\latex\caption\caption.sty
INPUT C:\Users\User\AppData\Local\Programs\MiKTeX\tex\latex\caption\caption.sty
INPUT C:\Users\User\AppData\Local\Programs\MiKTeX\tex\latex\caption\caption.sty
INPUT C:\Users\User\AppData\Local\Programs\MiKTeX\tex\latex\caption\caption.sty
INPUT C:\Users\User\AppData\Local\Programs\MiKTeX\tex\latex\caption\caption.sty
INPUT C:\Users\User\AppData\Local\Programs\MiKTeX\tex\latex\caption\caption.sty
INPUT C:\Users\User\AppData\Local\Programs\MiKTeX\tex\latex\caption\caption3.sty
INPUT C:\Users\User\AppData\Local\Programs\MiKTeX\tex\latex\caption\caption.sty
INPUT C:\Users\User\AppData\Local\Programs\MiKTeX\tex\latex\geometry\geometry.sty
INPUT C:\Users\User\AppData\Local\Programs\MiKTeX\tex\latex\geometry\geometry.sty
INPUT C:\Users\User\AppData\Local\Programs\MiKTeX\tex\latex\geometry\geometry.sty
INPUT C:\Users\User\AppData\Local\Programs\MiKTeX\tex\latex\geometry\geometry.sty
INPUT C:\Users\User\AppData\Local\Programs\MiKTeX\tex\latex\geometry\geometry.sty
INPUT C:\Users\User\AppData\Local\Programs\MiKTeX\tex\latex\geometry\geometry.sty
INPUT C:\Users\User\AppData\Local\Programs\MiKTeX\tex\latex\geometry\geometry.sty
INPUT C:\Users\User\AppData\Local\Programs\MiKTeX\tex\latex\geometry\geometry.sty
INPUT C:\Users\User\AppData\Local\Programs\MiKTeX\tex\latex\geometry\geometry.sty
INPUT C:\Users\User\AppData\Local\Programs\MiKTeX\tex\latex\geometry\geometry.sty
INPUT C:\Users\User\AppData\Local\Programs\MiKTeX\tex\latex\geometry\geometry.sty
INPUT C:\Users\User\AppData\Local\Programs\MiKTeX\tex\latex\graphics\keyval.sty
INPUT C:\Users\User\AppData\Local\Programs\MiKTeX\tex\generic\iftex\ifvtex.sty
INPUT C:\Users\User\AppData\Local\Programs\MiKTeX\tex\generic\iftex\ifvtex.sty
INPUT C:\Users\User\AppData\Local\Programs\MiKTeX\tex\generic\iftex\ifvtex.sty
INPUT C:\Users\User\AppData\Local\Programs\MiKTeX\tex\generic\iftex\ifvtex.sty
INPUT C:\Users\User\AppData\Local\Programs\MiKTeX\tex\generic\iftex\ifvtex.sty
INPUT C:\Users\User\AppData\Local\Programs\MiKTeX\tex\generic\iftex\ifvtex.sty
INPUT C:\Users\User\AppData\Local\Programs\MiKTeX\tex\generic\iftex\ifvtex.sty
INPUT C:\Users\User\AppData\Local\Programs\MiKTeX\tex\generic\iftex\ifvtex.sty
INPUT C:\Users\User\AppData\Local\Programs\MiKTeX\tex\generic\iftex\ifvtex.sty
INPUT C:\Users\User\AppData\Local\Programs\MiKTeX\tex\generic\iftex\ifvtex.sty
INPUT C:\Users\User\AppData\Local\Programs\MiKTeX\tex\generic\iftex\ifvtex.sty
INPUT C:\Users\User\AppData\Local\Programs\MiKTeX\tex\generic\iftex\iftex.sty
INPUT C:\Users\User\AppData\Local\Programs\MiKTeX\tex\latex\geometry\geometry.cfg
INPUT C:\Users\User\AppData\Local\Programs\MiKTeX\tex\latex\geometry\geometry.cfg
INPUT C:\Users\User\AppData\Local\Programs\MiKTeX\tex\latex\geometry\geometry.cfg
INPUT C:\Users\User\AppData\Local\Programs\MiKTeX\tex\latex\geometry\geometry.cfg
INPUT C:\Users\User\AppData\Local\Programs\MiKTeX\tex\latex\xcolor\xcolor.sty
INPUT C:\Users\User\AppData\Local\Programs\MiKTeX\tex\latex\xcolor\xcolor.sty
INPUT C:\Users\User\AppData\Local\Programs\MiKTeX\tex\latex\xcolor\xcolor.sty
INPUT C:\Users\User\AppData\Local\Programs\MiKTeX\tex\latex\xcolor\xcolor.sty
INPUT C:\Users\User\AppData\Local\Programs\MiKTeX\tex\latex\xcolor\xcolor.sty
INPUT C:\Users\User\AppData\Local\Programs\MiKTeX\tex\latex\xcolor\xcolor.sty
INPUT C:\Users\User\AppData\Local\Programs\MiKTeX\tex\latex\xcolor\xcolor.sty
INPUT C:\Users\User\AppData\Local\Programs\MiKTeX\tex\latex\xcolor\xcolor.sty
INPUT C:\Users\User\AppData\Local\Programs\MiKTeX\tex\latex\xcolor\xcolor.sty
INPUT C:\Users\User\AppData\Local\Programs\MiKTeX\tex\latex\xcolor\xcolor.sty
INPUT C:\Users\User\AppData\Local\Programs\MiKTeX\tex\latex\xcolor\xcolor.sty
INPUT C:\Users\User\AppData\Local\Programs\MiKTeX\tex\latex\graphics-cfg\color.cfg
INPUT C:\Users\User\AppData\Local\Programs\MiKTeX\tex\latex\graphics-cfg\color.cfg
INPUT C:\Users\User\AppData\Local\Programs\MiKTeX\tex\latex\graphics-cfg\color.cfg
INPUT C:\Users\User\AppData\Local\Programs\MiKTeX\tex\latex\graphics-cfg\color.cfg
INPUT C:\Users\User\AppData\Local\Programs\MiKTeX\tex\latex\pdfpages\pdfpages.sty
INPUT C:\Users\User\AppData\Local\Programs\MiKTeX\tex\latex\pdfpages\pdfpages.sty
INPUT C:\Users\User\AppData\Local\Programs\MiKTeX\tex\latex\pdfpages\pdfpages.sty
INPUT C:\Users\User\AppData\Local\Programs\MiKTeX\tex\latex\pdfpages\pdfpages.sty
INPUT C:\Users\User\AppData\Local\Programs\MiKTeX\tex\latex\pdfpages\pdfpages.sty
INPUT C:\Users\User\AppData\Local\Programs\MiKTeX\tex\latex\pdfpages\pdfpages.sty
INPUT C:\Users\User\AppData\Local\Programs\MiKTeX\tex\latex\pdfpages\pdfpages.sty
INPUT C:\Users\User\AppData\Local\Programs\MiKTeX\tex\latex\pdfpages\pdfpages.sty
INPUT C:\Users\User\AppData\Local\Programs\MiKTeX\tex\latex\pdfpages\pdfpages.sty
INPUT C:\Users\User\AppData\Local\Programs\MiKTeX\tex\latex\pdfpages\pdfpages.sty
INPUT C:\Users\User\AppData\Local\Programs\MiKTeX\tex\latex\pdfpages\pdfpages.sty
INPUT C:\Users\User\AppData\Local\Programs\MiKTeX\tex\latex\base\ifthen.sty
INPUT C:\Users\User\AppData\Local\Programs\MiKTeX\tex\latex\base\ifthen.sty
INPUT C:\Users\User\AppData\Local\Programs\MiKTeX\tex\latex\base\ifthen.sty
INPUT C:\Users\User\AppData\Local\Programs\MiKTeX\tex\latex\base\ifthen.sty
INPUT C:\Users\User\AppData\Local\Programs\MiKTeX\tex\latex\base\ifthen.sty
INPUT C:\Users\User\AppData\Local\Programs\MiKTeX\tex\latex\base\ifthen.sty
INPUT C:\Users\User\AppData\Local\Programs\MiKTeX\tex\latex\base\ifthen.sty
INPUT C:\Users\User\AppData\Local\Programs\MiKTeX\tex\latex\base\ifthen.sty
INPUT C:\Users\User\AppData\Local\Programs\MiKTeX\tex\latex\base\ifthen.sty
INPUT C:\Users\User\AppData\Local\Programs\MiKTeX\tex\latex\base\ifthen.sty
INPUT C:\Users\User\AppData\Local\Programs\MiKTeX\tex\latex\base\ifthen.sty
INPUT C:\Users\User\AppData\Local\Programs\MiKTeX\tex\latex\tools\calc.sty
INPUT C:\Users\User\AppData\Local\Programs\MiKTeX\tex\latex\tools\calc.sty
INPUT C:\Users\User\AppData\Local\Programs\MiKTeX\tex\latex\tools\calc.sty
INPUT C:\Users\User\AppData\Local\Programs\MiKTeX\tex\latex\tools\calc.sty
INPUT C:\Users\User\AppData\Local\Programs\MiKTeX\tex\latex\tools\calc.sty
INPUT C:\Users\User\AppData\Local\Programs\MiKTeX\tex\latex\tools\calc.sty
INPUT C:\Users\User\AppData\Local\Programs\MiKTeX\tex\latex\tools\calc.sty
INPUT C:\Users\User\AppData\Local\Programs\MiKTeX\tex\latex\tools\calc.sty
INPUT C:\Users\User\AppData\Local\Programs\MiKTeX\tex\latex\tools\calc.sty
INPUT C:\Users\User\AppData\Local\Programs\MiKTeX\tex\latex\tools\calc.sty
INPUT C:\Users\User\AppData\Local\Programs\MiKTeX\tex\latex\tools\calc.sty
INPUT C:\Users\User\AppData\Local\Programs\MiKTeX\tex\latex\eso-pic\eso-pic.sty
INPUT C:\Users\User\AppData\Local\Programs\MiKTeX\tex\latex\eso-pic\eso-pic.sty
INPUT C:\Users\User\AppData\Local\Programs\MiKTeX\tex\latex\eso-pic\eso-pic.sty
INPUT C:\Users\User\AppData\Local\Programs\MiKTeX\tex\latex\eso-pic\eso-pic.sty
INPUT C:\Users\User\AppData\Local\Programs\MiKTeX\tex\latex\eso-pic\eso-pic.sty
INPUT C:\Users\User\AppData\Local\Programs\MiKTeX\tex\latex\eso-pic\eso-pic.sty
INPUT C:\Users\User\AppData\Local\Programs\MiKTeX\tex\latex\eso-pic\eso-pic.sty
INPUT C:\Users\User\AppData\Local\Programs\MiKTeX\tex\latex\eso-pic\eso-pic.sty
INPUT C:\Users\User\AppData\Local\Programs\MiKTeX\tex\latex\eso-pic\eso-pic.sty
INPUT C:\Users\User\AppData\Local\Programs\MiKTeX\tex\latex\eso-pic\eso-pic.sty
INPUT C:\Users\User\AppData\Local\Programs\MiKTeX\tex\latex\eso-pic\eso-pic.sty
INPUT C:\Users\User\AppData\Local\Programs\MiKTeX\tex\latex\graphics\keyval.sty
INPUT C:\Users\User\AppData\Local\Programs\MiKTeX\tex\latex\graphics\graphicx.sty
INPUT C:\Users\User\AppData\Local\Programs\MiKTeX\tex\latex\pdfpages\pppdftex.def
INPUT C:\Users\User\AppData\Local\Programs\MiKTeX\tex\latex\pdfpages\pppdftex.def
INPUT C:\Users\User\AppData\Local\Programs\MiKTeX\tex\latex\pdfpages\pppdftex.def
INPUT C:\Users\User\AppData\Local\Programs\MiKTeX\tex\latex\pdfpages\pppdftex.def
INPUT C:\Users\User\AppData\Local\Programs\MiKTeX\tex\latex\comment\comment.sty
INPUT C:\Users\User\AppData\Local\Programs\MiKTeX\tex\latex\comment\comment.sty
INPUT C:\Users\User\AppData\Local\Programs\MiKTeX\tex\latex\comment\comment.sty
INPUT C:\Users\User\AppData\Local\Programs\MiKTeX\tex\latex\comment\comment.sty
INPUT C:\Users\User\AppData\Local\Programs\MiKTeX\tex\latex\comment\comment.sty
INPUT C:\Users\User\AppData\Local\Programs\MiKTeX\tex\latex\comment\comment.sty
INPUT C:\Users\User\AppData\Local\Programs\MiKTeX\tex\latex\comment\comment.sty
INPUT C:\Users\User\AppData\Local\Programs\MiKTeX\tex\latex\comment\comment.sty
INPUT C:\Users\User\AppData\Local\Programs\MiKTeX\tex\latex\comment\comment.sty
INPUT C:\Users\User\AppData\Local\Programs\MiKTeX\tex\latex\comment\comment.sty
INPUT C:\Users\User\AppData\Local\Programs\MiKTeX\tex\latex\comment\comment.sty
INPUT C:\Users\User\AppData\Local\Programs\MiKTeX\tex\latex\l3backend\l3backend-pdftex.def
INPUT C:\Users\User\AppData\Local\Programs\MiKTeX\tex\latex\l3backend\l3backend-pdftex.def
INPUT C:\Users\User\AppData\Local\Programs\MiKTeX\tex\latex\l3backend\l3backend-pdftex.def
INPUT C:\Users\User\AppData\Local\Programs\MiKTeX\tex\latex\l3backend\l3backend-pdftex.def
INPUT C:\Users\User\AppData\Local\Programs\MiKTeX\tex\latex\l3backend\l3backend-pdftex.def
INPUT C:\Users\User\AppData\Local\Programs\MiKTeX\tex\latex\l3backend\l3backend-pdftex.def
INPUT C:\Users\User\AppData\Local\Programs\MiKTeX\tex\latex\l3backend\l3backend-pdftex.def
INPUT C:\Users\User\AppData\Local\Programs\MiKTeX\tex\latex\l3backend\l3backend-pdftex.def
INPUT C:\Users\User\AppData\Local\Programs\MiKTeX\tex\latex\l3backend\l3backend-pdftex.def
INPUT C:\Users\User\AppData\Local\Programs\MiKTeX\tex\latex\l3backend\l3backend-pdftex.def
INPUT C:\Users\User\AppData\Local\Programs\MiKTeX\tex\latex\l3backend\l3backend-pdftex.def
INPUT .\onderzoek_fpga_vs_uc.aux
INPUT onderzoek_fpga_vs_uc.aux
INPUT onderzoek_fpga_vs_uc.aux
OUTPUT onderzoek_fpga_vs_uc.aux
INPUT C:\Users\User\AppData\Local\Programs\MiKTeX\tex\latex\hyperref\nameref.sty
INPUT C:\Users\User\AppData\Local\Programs\MiKTeX\tex\latex\hyperref\nameref.sty
INPUT C:\Users\User\AppData\Local\Programs\MiKTeX\tex\latex\hyperref\nameref.sty
INPUT C:\Users\User\AppData\Local\Programs\MiKTeX\tex\latex\hyperref\nameref.sty
INPUT C:\Users\User\AppData\Local\Programs\MiKTeX\tex\latex\hyperref\nameref.sty
INPUT C:\Users\User\AppData\Local\Programs\MiKTeX\tex\latex\hyperref\nameref.sty
INPUT C:\Users\User\AppData\Local\Programs\MiKTeX\tex\latex\hyperref\nameref.sty
INPUT C:\Users\User\AppData\Local\Programs\MiKTeX\tex\latex\hyperref\nameref.sty
INPUT C:\Users\User\AppData\Local\Programs\MiKTeX\tex\latex\hyperref\nameref.sty
INPUT C:\Users\User\AppData\Local\Programs\MiKTeX\tex\latex\hyperref\nameref.sty
INPUT C:\Users\User\AppData\Local\Programs\MiKTeX\tex\latex\hyperref\nameref.sty
INPUT C:\Users\User\AppData\Local\Programs\MiKTeX\tex\latex\refcount\refcount.sty
INPUT C:\Users\User\AppData\Local\Programs\MiKTeX\tex\latex\refcount\refcount.sty
INPUT C:\Users\User\AppData\Local\Programs\MiKTeX\tex\latex\refcount\refcount.sty
INPUT C:\Users\User\AppData\Local\Programs\MiKTeX\tex\latex\refcount\refcount.sty
INPUT C:\Users\User\AppData\Local\Programs\MiKTeX\tex\latex\refcount\refcount.sty
INPUT C:\Users\User\AppData\Local\Programs\MiKTeX\tex\latex\refcount\refcount.sty
INPUT C:\Users\User\AppData\Local\Programs\MiKTeX\tex\latex\refcount\refcount.sty
INPUT C:\Users\User\AppData\Local\Programs\MiKTeX\tex\latex\refcount\refcount.sty
INPUT C:\Users\User\AppData\Local\Programs\MiKTeX\tex\latex\refcount\refcount.sty
INPUT C:\Users\User\AppData\Local\Programs\MiKTeX\tex\latex\refcount\refcount.sty
INPUT C:\Users\User\AppData\Local\Programs\MiKTeX\tex\latex\refcount\refcount.sty
INPUT C:\Users\User\AppData\Local\Programs\MiKTeX\tex\generic\ltxcmds\ltxcmds.sty
INPUT C:\Users\User\AppData\Local\Programs\MiKTeX\tex\generic\infwarerr\infwarerr.sty
INPUT C:\Users\User\AppData\Local\Programs\MiKTeX\tex\generic\gettitlestring\gettitlestring.sty
INPUT C:\Users\User\AppData\Local\Programs\MiKTeX\tex\generic\gettitlestring\gettitlestring.sty
INPUT C:\Users\User\AppData\Local\Programs\MiKTeX\tex\generic\gettitlestring\gettitlestring.sty
INPUT C:\Users\User\AppData\Local\Programs\MiKTeX\tex\generic\gettitlestring\gettitlestring.sty
INPUT C:\Users\User\AppData\Local\Programs\MiKTeX\tex\generic\gettitlestring\gettitlestring.sty
INPUT C:\Users\User\AppData\Local\Programs\MiKTeX\tex\generic\gettitlestring\gettitlestring.sty
INPUT C:\Users\User\AppData\Local\Programs\MiKTeX\tex\generic\gettitlestring\gettitlestring.sty
INPUT C:\Users\User\AppData\Local\Programs\MiKTeX\tex\generic\gettitlestring\gettitlestring.sty
INPUT C:\Users\User\AppData\Local\Programs\MiKTeX\tex\generic\gettitlestring\gettitlestring.sty
INPUT C:\Users\User\AppData\Local\Programs\MiKTeX\tex\generic\gettitlestring\gettitlestring.sty
INPUT C:\Users\User\AppData\Local\Programs\MiKTeX\tex\generic\gettitlestring\gettitlestring.sty
INPUT C:\Users\User\AppData\Local\Programs\MiKTeX\tex\latex\kvoptions\kvoptions.sty
INPUT C:\Users\User\AppData\Local\Programs\MiKTeX\tex\generic\ltxcmds\ltxcmds.sty
INPUT .\onderzoek_fpga_vs_uc.out
INPUT onderzoek_fpga_vs_uc.out
INPUT .\onderzoek_fpga_vs_uc.out
INPUT onderzoek_fpga_vs_uc.out
INPUT .\onderzoek_fpga_vs_uc.out
INPUT onderzoek_fpga_vs_uc.out
INPUT .\onderzoek_fpga_vs_uc.out
INPUT onderzoek_fpga_vs_uc.out
OUTPUT onderzoek_fpga_vs_uc.pdf
INPUT .\onderzoek_fpga_vs_uc.out
INPUT .\onderzoek_fpga_vs_uc.out
OUTPUT onderzoek_fpga_vs_uc.out
INPUT C:\Users\User\AppData\Local\Programs\MiKTeX\tex\latex\graphics\color.sty
INPUT C:\Users\User\AppData\Local\Programs\MiKTeX\tex\latex\graphics\color.sty
INPUT C:\Users\User\AppData\Local\Programs\MiKTeX\tex\latex\graphics\color.sty
INPUT C:\Users\User\AppData\Local\Programs\MiKTeX\tex\latex\floatrow\fr-subfig.sty
INPUT C:\Users\User\AppData\Local\Programs\MiKTeX\tex\latex\floatrow\fr-subfig.sty
INPUT C:\Users\User\AppData\Local\Programs\MiKTeX\tex\latex\floatrow\fr-subfig.sty
INPUT C:\Users\User\AppData\Local\Programs\MiKTeX\tex\latex\floatrow\fr-subfig.sty
INPUT C:\Users\User\AppData\Local\Programs\MiKTeX\tex\latex\floatrow\fr-subfig.sty
INPUT C:\Users\User\AppData\Local\Programs\MiKTeX\tex\latex\floatrow\fr-subfig.sty
INPUT C:\Users\User\AppData\Local\Programs\MiKTeX\tex\latex\floatrow\fr-subfig.sty
INPUT C:\Users\User\AppData\Local\Programs\MiKTeX\tex\latex\floatrow\fr-subfig.sty
INPUT C:\Users\User\AppData\Local\Programs\MiKTeX\tex\latex\floatrow\fr-subfig.sty
INPUT C:\Users\User\AppData\Local\Programs\MiKTeX\tex\latex\floatrow\fr-subfig.sty
INPUT C:\Users\User\AppData\Local\Programs\MiKTeX\tex\latex\floatrow\fr-subfig.sty
INPUT C:\Users\User\AppData\Local\Programs\MiKTeX\tex\context\base\mkii\supp-pdf.mkii
INPUT C:\Users\User\AppData\Local\Programs\MiKTeX\tex\context\base\mkii\supp-pdf.mkii
INPUT C:\Users\User\AppData\Local\Programs\MiKTeX\tex\context\base\mkii\supp-pdf.mkii
INPUT C:\Users\User\AppData\Local\Programs\MiKTeX\tex\context\base\mkii\supp-pdf.mkii
INPUT C:\Users\User\AppData\Local\Programs\MiKTeX\tex\latex\epstopdf-pkg\epstopdf-base.sty
INPUT C:\Users\User\AppData\Local\Programs\MiKTeX\tex\latex\epstopdf-pkg\epstopdf-base.sty
INPUT C:\Users\User\AppData\Local\Programs\MiKTeX\tex\latex\epstopdf-pkg\epstopdf-base.sty
INPUT C:\Users\User\AppData\Local\Programs\MiKTeX\tex\latex\epstopdf-pkg\epstopdf-base.sty
INPUT C:\Users\User\AppData\Local\Programs\MiKTeX\tex\latex\epstopdf-pkg\epstopdf-base.sty
INPUT C:\Users\User\AppData\Local\Programs\MiKTeX\tex\latex\epstopdf-pkg\epstopdf-base.sty
INPUT C:\Users\User\AppData\Local\Programs\MiKTeX\tex\latex\epstopdf-pkg\epstopdf-base.sty
INPUT C:\Users\User\AppData\Local\Programs\MiKTeX\tex\latex\epstopdf-pkg\epstopdf-base.sty
INPUT C:\Users\User\AppData\Local\Programs\MiKTeX\tex\latex\epstopdf-pkg\epstopdf-base.sty
INPUT C:\Users\User\AppData\Local\Programs\MiKTeX\tex\latex\epstopdf-pkg\epstopdf-base.sty
INPUT C:\Users\User\AppData\Local\Programs\MiKTeX\tex\latex\epstopdf-pkg\epstopdf-base.sty
INPUT C:\Users\User\AppData\Local\Programs\MiKTeX\tex\latex\00miktex\epstopdf-sys.cfg
INPUT C:\Users\User\AppData\Local\Programs\MiKTeX\tex\latex\00miktex\epstopdf-sys.cfg
INPUT C:\Users\User\AppData\Local\Programs\MiKTeX\tex\latex\00miktex\epstopdf-sys.cfg
INPUT C:\Users\User\AppData\Local\Programs\MiKTeX\tex\latex\00miktex\epstopdf-sys.cfg
INPUT C:\Users\User\AppData\Local\Programs\MiKTeX\tex\latex\pdflscape\pdflscape.sty
INPUT C:\Users\User\AppData\Local\Programs\MiKTeX\tex\latex\pdflscape\pdflscape.sty
INPUT C:\Users\User\AppData\Local\Programs\MiKTeX\tex\latex\pdflscape\pdflscape.sty
INPUT C:\Users\User\AppData\Local\Programs\MiKTeX\tex\latex\pdflscape\pdflscape.sty
INPUT C:\Users\User\AppData\Local\Programs\MiKTeX\tex\latex\pdflscape\pdflscape.sty
INPUT C:\Users\User\AppData\Local\Programs\MiKTeX\tex\latex\pdflscape\pdflscape.sty
INPUT C:\Users\User\AppData\Local\Programs\MiKTeX\tex\latex\pdflscape\pdflscape.sty
INPUT C:\Users\User\AppData\Local\Programs\MiKTeX\tex\latex\pdflscape\pdflscape.sty
INPUT C:\Users\User\AppData\Local\Programs\MiKTeX\tex\latex\pdflscape\pdflscape.sty
INPUT C:\Users\User\AppData\Local\Programs\MiKTeX\tex\latex\pdflscape\pdflscape.sty
INPUT C:\Users\User\AppData\Local\Programs\MiKTeX\tex\latex\pdflscape\pdflscape.sty
INPUT C:\Users\User\AppData\Local\Programs\MiKTeX\tex\generic\iftex\iftex.sty
INPUT C:\Users\User\AppData\Local\Programs\MiKTeX\tex\latex\graphics\lscape.sty
INPUT C:\Users\User\AppData\Local\Programs\MiKTeX\tex\latex\graphics\lscape.sty
INPUT C:\Users\User\AppData\Local\Programs\MiKTeX\tex\latex\graphics\lscape.sty
INPUT C:\Users\User\AppData\Local\Programs\MiKTeX\tex\latex\graphics\lscape.sty
INPUT C:\Users\User\AppData\Local\Programs\MiKTeX\tex\latex\graphics\lscape.sty
INPUT C:\Users\User\AppData\Local\Programs\MiKTeX\tex\latex\graphics\lscape.sty
INPUT C:\Users\User\AppData\Local\Programs\MiKTeX\tex\latex\graphics\lscape.sty
INPUT C:\Users\User\AppData\Local\Programs\MiKTeX\tex\latex\graphics\lscape.sty
INPUT C:\Users\User\AppData\Local\Programs\MiKTeX\tex\latex\graphics\lscape.sty
INPUT C:\Users\User\AppData\Local\Programs\MiKTeX\tex\latex\graphics\lscape.sty
INPUT C:\Users\User\AppData\Local\Programs\MiKTeX\tex\latex\graphics\lscape.sty
INPUT C:\Users\User\AppData\Local\Programs\MiKTeX\tex\latex\graphics\graphics.sty
INPUT C:\Users\User\AppData\Local\Programs\MiKTeX\fonts\tfm\public\cm\cmr17.tfm
INPUT C:\Users\User\AppData\Local\Programs\MiKTeX\fonts\tfm\public\cm\cmr12.tfm
INPUT C:\Users\User\AppData\Local\Programs\MiKTeX\fonts\tfm\public\cm\cmr8.tfm
INPUT C:\Users\User\AppData\Local\Programs\MiKTeX\fonts\tfm\public\cm\cmr6.tfm
INPUT C:\Users\User\AppData\Local\Programs\MiKTeX\fonts\tfm\public\cm\cmmi12.tfm
INPUT C:\Users\User\AppData\Local\Programs\MiKTeX\fonts\tfm\public\cm\cmmi8.tfm
INPUT C:\Users\User\AppData\Local\Programs\MiKTeX\fonts\tfm\public\cm\cmmi6.tfm
INPUT C:\Users\User\AppData\Local\Programs\MiKTeX\fonts\tfm\public\cm\cmsy10.tfm
INPUT C:\Users\User\AppData\Local\Programs\MiKTeX\fonts\tfm\public\cm\cmsy8.tfm
INPUT C:\Users\User\AppData\Local\Programs\MiKTeX\fonts\tfm\public\cm\cmsy6.tfm
INPUT .\Afbeelding\FPGA-or-MCU.jpg
INPUT .\Afbeelding\FPGA-or-MCU.jpg
INPUT Afbeelding\FPGA-or-MCU.jpg
INPUT .\Afbeelding\FPGA-or-MCU.jpg
INPUT .\Afbeelding\FPGA-or-MCU.jpg
INPUT .\Afbeelding\FPGA-or-MCU.jpg
INPUT .\Afbeelding\FPGA-or-MCU.jpg
INPUT C:\Users\User\AppData\Local\MiKTeX\pdftex\config\pdftex.map
INPUT C:\Users\User\AppData\Local\Programs\MiKTeX\fonts\tfm\public\cm\cmbx10.tfm
INPUT C:\Users\User\AppData\Local\Programs\MiKTeX\fonts\tfm\public\cm\cmr12.tfm
INPUT C:\Users\User\AppData\Local\Programs\MiKTeX\fonts\tfm\public\cm\cmbx12.tfm
INPUT .\onderzoek_fpga_vs_uc.toc
INPUT onderzoek_fpga_vs_uc.toc
INPUT onderzoek_fpga_vs_uc.toc
OUTPUT onderzoek_fpga_vs_uc.toc
INPUT C:\Users\User\AppData\Local\Programs\MiKTeX\fonts\tfm\public\cm\cmbx12.tfm
INPUT C:\Users\User\AppData\Local\Programs\MiKTeX\fonts\tfm\jknappen\ec\tcrm1000.tfm
INPUT .\Afbeelding\lineaire.png
INPUT .\Afbeelding\lineaire.png
INPUT Afbeelding\lineaire.png
INPUT .\Afbeelding\lineaire.png
INPUT .\Afbeelding\lineaire.png
INPUT .\Afbeelding\lineaire.png
INPUT .\Afbeelding\lineaire.png
INPUT .\Afbeelding\switching.png
INPUT .\Afbeelding\switching.png
INPUT Afbeelding\switching.png
INPUT .\Afbeelding\switching.png
INPUT .\Afbeelding\switching.png
INPUT .\Afbeelding\switching.png
INPUT .\Afbeelding\switching.png
INPUT .\Afbeelding\buck_lt_7v2_2_5.png
INPUT .\Afbeelding\buck_lt_7v2_2_5.png
INPUT Afbeelding\buck_lt_7v2_2_5.png
INPUT .\Afbeelding\buck_lt_7v2_2_5.png
INPUT .\Afbeelding\buck_lt_7v2_2_5.png
INPUT .\Afbeelding\buck_lt_7v2_2_5.png
INPUT .\Afbeelding\buck_lt_7v2_2_5.png
INPUT .\Afbeelding\buck_lt_7v2_2_3v3.png
INPUT .\Afbeelding\buck_lt_7v2_2_3v3.png
INPUT Afbeelding\buck_lt_7v2_2_3v3.png
INPUT .\Afbeelding\buck_lt_7v2_2_3v3.png
INPUT .\Afbeelding\buck_lt_7v2_2_3v3.png
INPUT .\Afbeelding\buck_lt_7v2_2_3v3.png
INPUT .\Afbeelding\buck_lt_7v2_2_3v3.png
INPUT .\Afbeelding\buck_lt_4_2_3v3.png
INPUT .\Afbeelding\buck_lt_4_2_3v3.png
INPUT Afbeelding\buck_lt_4_2_3v3.png
INPUT .\Afbeelding\buck_lt_4_2_3v3.png
INPUT .\Afbeelding\buck_lt_4_2_3v3.png
INPUT .\Afbeelding\buck_lt_4_2_3v3.png
INPUT .\Afbeelding\buck_lt_4_2_3v3.png
INPUT .\Afbeelding\boost.png
INPUT .\Afbeelding\boost.png
INPUT Afbeelding\boost.png
INPUT .\Afbeelding\boost.png
INPUT .\Afbeelding\boost.png
INPUT .\Afbeelding\boost.png
INPUT .\Afbeelding\boost.png
INPUT .\Afbeelding\buck_boost.png
INPUT .\Afbeelding\buck_boost.png
INPUT Afbeelding\buck_boost.png
INPUT .\Afbeelding\buck_boost.png
INPUT .\Afbeelding\buck_boost.png
INPUT .\Afbeelding\buck_boost.png
INPUT .\Afbeelding\buck_boost.png
INPUT C:\Users\User\AppData\Local\Programs\MiKTeX\fonts\tfm\public\cm\cmti10.tfm
INPUT C:\Users\User\AppData\Local\Programs\MiKTeX\fonts\tfm\public\cm\cmtt10.tfm
INPUT C:\Users\User\AppData\Local\Programs\MiKTeX\fonts\tfm\public\cm\cmr17.tfm
INPUT C:\Users\User\AppData\Local\Programs\MiKTeX\fonts\tfm\public\cm\cmbx12.tfm
INPUT .\Afbeelding\buck_1.pdf
INPUT .\Afbeelding\buck_1.pdf
INPUT Afbeelding\buck_1.pdf
INPUT .\Afbeelding\buck_1.pdf
INPUT .\Afbeelding\buck_1.pdf
INPUT .\Afbeelding\buck_1.pdf
INPUT .\Afbeelding\buck_2.png
INPUT .\Afbeelding\buck_2.png
INPUT Afbeelding\buck_2.png
INPUT .\Afbeelding\buck_2.png
INPUT .\Afbeelding\buck_2.png
INPUT .\Afbeelding\buck_2.png
INPUT .\Afbeelding\buck_2.png
INPUT .\Afbeelding\buck_3.png
INPUT .\Afbeelding\buck_3.png
INPUT Afbeelding\buck_3.png
INPUT .\Afbeelding\buck_3.png
INPUT .\Afbeelding\buck_3.png
INPUT .\Afbeelding\buck_3.png
INPUT .\Afbeelding\buck_3.png
INPUT .\Afbeelding\buck_4.jpg
INPUT .\Afbeelding\buck_4.jpg
INPUT Afbeelding\buck_4.jpg
INPUT .\Afbeelding\buck_4.jpg
INPUT .\Afbeelding\buck_4.jpg
INPUT .\Afbeelding\buck_4.jpg
INPUT .\Afbeelding\buck_4.jpg
INPUT onderzoek_fpga_vs_uc.aux
INPUT .\onderzoek_fpga_vs_uc.out
INPUT .\onderzoek_fpga_vs_uc.out
INPUT C:\Users\User\AppData\Local\MiKTeX\fonts\pk\ljfour\jknappen\ec\dpi600\tcrm1000.pk
INPUT C:\Users\User\AppData\Local\MiKTeX\fonts\pk\ljfour\jknappen\ec\dpi600\tcrm1000.pk
INPUT C:\Users\User\AppData\Local\Programs\MiKTeX\fonts\type1\public\amsfonts\cm\cmbx10.pfb
INPUT C:\Users\User\AppData\Local\Programs\MiKTeX\fonts\type1\public\amsfonts\cm\cmbx10.pfb
INPUT C:\Users\User\AppData\Local\Programs\MiKTeX\fonts\type1\public\amsfonts\cm\cmbx12.pfb
INPUT C:\Users\User\AppData\Local\Programs\MiKTeX\fonts\type1\public\amsfonts\cm\cmbx12.pfb
INPUT C:\Users\User\AppData\Local\Programs\MiKTeX\fonts\type1\public\amsfonts\cm\cmmi10.pfb
INPUT C:\Users\User\AppData\Local\Programs\MiKTeX\fonts\type1\public\amsfonts\cm\cmmi10.pfb
INPUT C:\Users\User\AppData\Local\Programs\MiKTeX\fonts\type1\public\amsfonts\cm\cmr10.pfb
INPUT C:\Users\User\AppData\Local\Programs\MiKTeX\fonts\type1\public\amsfonts\cm\cmr10.pfb
INPUT C:\Users\User\AppData\Local\Programs\MiKTeX\fonts\type1\public\amsfonts\cm\cmr12.pfb
INPUT C:\Users\User\AppData\Local\Programs\MiKTeX\fonts\type1\public\amsfonts\cm\cmr12.pfb
INPUT C:\Users\User\AppData\Local\Programs\MiKTeX\fonts\type1\public\amsfonts\cm\cmr17.pfb
INPUT C:\Users\User\AppData\Local\Programs\MiKTeX\fonts\type1\public\amsfonts\cm\cmr17.pfb
INPUT C:\Users\User\AppData\Local\Programs\MiKTeX\fonts\type1\public\amsfonts\cm\cmsy10.pfb
INPUT C:\Users\User\AppData\Local\Programs\MiKTeX\fonts\type1\public\amsfonts\cm\cmsy10.pfb
INPUT C:\Users\User\AppData\Local\Programs\MiKTeX\fonts\type1\public\amsfonts\cm\cmti10.pfb
INPUT C:\Users\User\AppData\Local\Programs\MiKTeX\fonts\type1\public\amsfonts\cm\cmti10.pfb
INPUT C:\Users\User\AppData\Local\Programs\MiKTeX\fonts\type1\public\amsfonts\cm\cmtt10.pfb
INPUT C:\Users\User\AppData\Local\Programs\MiKTeX\fonts\type1\public\amsfonts\cm\cmtt10.pfb
