\BOOKMARK [1][-]{section.1}{\376\377\000A\000c\000h\000t\000e\000r\000g\000r\000o\000n\000d}{}% 1
\BOOKMARK [1][-]{section.2}{\376\377\000P\000r\000o\000j\000e\000c\000t\000r\000e\000s\000u\000l\000t\000a\000a\000t}{}% 2
\BOOKMARK [2][-]{subsection.2.1}{\376\377\000P\000r\000o\000b\000l\000e\000e\000m\000s\000t\000e\000l\000l\000i\000n\000g}{section.2}% 3
\BOOKMARK [2][-]{subsection.2.2}{\376\377\000D\000o\000e\000l\000s\000t\000e\000l\000l\000i\000n\000g}{section.2}% 4
\BOOKMARK [1][-]{section.3}{\376\377\000P\000r\000o\000j\000e\000c\000t\000a\000c\000t\000i\000v\000i\000t\000e\000i\000t\000e\000n}{}% 5
\BOOKMARK [1][-]{section.4}{\376\377\000P\000r\000o\000j\000e\000c\000t\000g\000r\000e\000n\000z\000e\000n}{}% 6
\BOOKMARK [1][-]{section.5}{\376\377\000T\000u\000s\000s\000e\000n\000r\000e\000s\000u\000l\000t\000a\000a\000t}{}% 7
\BOOKMARK [1][-]{section.6}{\376\377\000K\000w\000a\000l\000i\000t\000e\000i\000t}{}% 8
\BOOKMARK [1][-]{section.7}{\376\377\000P\000r\000o\000j\000e\000c\000t\000o\000r\000g\000a\000n\000i\000s\000a\000t\000i\000e}{}% 9
\BOOKMARK [1][-]{section.8}{\376\377\000P\000l\000a\000n\000n\000i\000g}{}% 10
\BOOKMARK [1][-]{section.9}{\376\377\000K\000o\000s\000t\000e\000n\000\040\000\046\000\040\000B\000a\000t\000e\000n}{}% 11
\BOOKMARK [1][-]{section.10}{\376\377\000R\000i\000s\000i\000c\000o\000'\000s}{}% 12
\BOOKMARK [1][-]{section.11}{\376\377\000B\000i\000j\000l\000a\000g\000e\000:\000\040\000P\000l\000a\000n\000n\000i\000n\000g}{}% 13
\BOOKMARK [1][-]{section.12}{\376\377\000B\000i\000j\000l\000a\000g\000e\000:\000\040\000R\000i\000s\000i\000c\000o\000-\000a\000n\000a\000l\000y\000s\000e}{}% 14
