\babel@toc {dutch}{}\relax 
\contentsline {section}{\numberline {1}Achtergrond}{4}{section.1}%
\contentsline {section}{\numberline {2}Projectresultaat}{4}{section.2}%
\contentsline {subsection}{\numberline {2.1}Probleemstelling}{4}{subsection.2.1}%
\contentsline {subsection}{\numberline {2.2}Doelstelling}{4}{subsection.2.2}%
\contentsline {section}{\numberline {3}Projectactiviteiten}{5}{section.3}%
\contentsline {section}{\numberline {4}Projectgrenzen}{7}{section.4}%
\contentsline {section}{\numberline {5}Tussenresultaat}{7}{section.5}%
\contentsline {section}{\numberline {6}Kwaliteit}{8}{section.6}%
\contentsline {section}{\numberline {7}Projectorganisatie}{9}{section.7}%
\contentsline {section}{\numberline {8}Plannig}{10}{section.8}%
\contentsline {section}{\numberline {9}Kosten \& Baten}{10}{section.9}%
\contentsline {section}{\numberline {10}Risico's}{10}{section.10}%
\contentsline {section}{\numberline {11}Bijlage: Planning}{11}{section.11}%
\contentsline {section}{\numberline {12}Bijlage: Risico-analyse}{11}{section.12}%
