# Fdb version 3
["pdflatex"] 1644325768 "//pifs/algemeen/STAGE/STAGE NATHAN THIANCHAI/Natthan_Caliper_Tool_BitBucket/afstudeeropdracht/Eindverslag/Eindverslag_v1/DefinitieFase/definitie_V3/Bijlage/onderzoek_fpga_vs_uc.tex" "onderzoek_fpga_vs_uc.pdf" "onderzoek_fpga_vs_uc" 1644325811
  "//pifs/algemeen/STAGE/STAGE NATHAN THIANCHAI/Natthan_Caliper_Tool_BitBucket/afstudeeropdracht/Eindverslag/Eindverslag_v1/DefinitieFase/definitie_V3/Bijlage/onderzoek_fpga_vs_uc.tex" 1644325759 59906 f1bd36da8724658561986eb8b8088173 ""
  "Afbeelding/FPGA-or-MCU.jpg" 1636965538 124416 d6d24f3e8347a0ad793f42ce3eb70c79 ""
  "Afbeelding/boost.png" 1637666259 32334 62f8f3509bcbc9549f156805d1149663 ""
  "Afbeelding/buck_1.pdf" 1636965539 754264 4a5014560ee728a872828cb4f8321e41 ""
  "Afbeelding/buck_2.png" 1636965539 731625 bfb8ce82ce27d33a41b3372195025276 ""
  "Afbeelding/buck_3.png" 1636965539 766995 10b4b364d6358ec24a1b3a4b8dd2ff5e ""
  "Afbeelding/buck_4.jpg" 1636965539 1270909 892167fbd7bdf73cf3e8301ea9a3e506 ""
  "Afbeelding/buck_boost.png" 1637663151 64089 6c89478905c3356cac4fddbe00ed65de ""
  "Afbeelding/buck_endan_boost.png" 1637665868 41115 b765497da0ca2ae72c4cd0c91e935c7c ""
  "Afbeelding/buck_lt_4_2_3v3.png" 1637665911 34399 904ef7c4de3620a55f7b4555045aee9b ""
  "Afbeelding/buck_lt_7v2_2_3v3.png" 1637665943 34711 9a979692f9adffac281558de950ea2a5 ""
  "Afbeelding/buck_lt_7v2_2_5.png" 1637665972 34677 843766963be6858ea316ad6db535d21e ""
  "Afbeelding/lineaire.png" 1636965539 74624 514263cc93e6c60f0b364357ab979d5a ""
  "Afbeelding/mindmap.drawio.png" 1637050244 2250252 4cac1e630a37e1bb094394480f33f16c ""
  "Afbeelding/switching.png" 1636965539 77264 3a4f9a634f8580c8512352637bcb2508 ""
  "C:/Users/Nicky Koenen/AppData/Local/MiKTeX/fonts/pk/ljfour/jknappen/ec/dpi600/tcrm1000.pk" 1635779852 11548 d7128d6a47752f14872ce359d056d06b ""
  "C:/Users/Nicky Koenen/AppData/Local/MiKTeX/miktex/data/le/pdftex/pdflatex.fmt" 1635497547 9729722 b788aa819164842fae191a9f9e101d47 ""
  "C:/Users/Nicky Koenen/AppData/Local/MiKTeX/pdftex/config/pdftex.map" 1640083350 80909 eab91d9745dd2edfd62a31d53cd5fe15 ""
  "C:/Users/Nicky Koenen/AppData/Local/Programs/MiKTeX/fonts/tfm/jknappen/ec/tcrm1000.tfm" 993058908 1436 c7f957a372ef2fbe93c0982f96625e12 ""
  "C:/Users/Nicky Koenen/AppData/Local/Programs/MiKTeX/fonts/tfm/public/cm/cmbx10.tfm" 1136765053 1328 c834bbb027764024c09d3d2bf908b5f0 ""
  "C:/Users/Nicky Koenen/AppData/Local/Programs/MiKTeX/fonts/tfm/public/cm/cmbx12.tfm" 1136765053 1324 c910af8c371558dc20f2d7822f66fe64 ""
  "C:/Users/Nicky Koenen/AppData/Local/Programs/MiKTeX/fonts/tfm/public/cm/cmmi12.tfm" 1136765053 1524 4414a8315f39513458b80dfc63bff03a ""
  "C:/Users/Nicky Koenen/AppData/Local/Programs/MiKTeX/fonts/tfm/public/cm/cmmi6.tfm" 1136765053 1512 f21f83efb36853c0b70002322c1ab3ad ""
  "C:/Users/Nicky Koenen/AppData/Local/Programs/MiKTeX/fonts/tfm/public/cm/cmmi8.tfm" 1136765053 1520 eccf95517727cb11801f4f1aee3a21b4 ""
  "C:/Users/Nicky Koenen/AppData/Local/Programs/MiKTeX/fonts/tfm/public/cm/cmr12.tfm" 1136765053 1288 655e228510b4c2a1abe905c368440826 ""
  "C:/Users/Nicky Koenen/AppData/Local/Programs/MiKTeX/fonts/tfm/public/cm/cmr17.tfm" 1136765053 1292 296a67155bdbfc32aa9c636f21e91433 ""
  "C:/Users/Nicky Koenen/AppData/Local/Programs/MiKTeX/fonts/tfm/public/cm/cmr6.tfm" 1136765053 1300 b62933e007d01cfd073f79b963c01526 ""
  "C:/Users/Nicky Koenen/AppData/Local/Programs/MiKTeX/fonts/tfm/public/cm/cmr8.tfm" 1136765053 1292 21c1c5bfeaebccffdb478fd231a0997d ""
  "C:/Users/Nicky Koenen/AppData/Local/Programs/MiKTeX/fonts/tfm/public/cm/cmsy10.tfm" 1136765053 1124 6c73e740cf17375f03eec0ee63599741 ""
  "C:/Users/Nicky Koenen/AppData/Local/Programs/MiKTeX/fonts/tfm/public/cm/cmsy6.tfm" 1136765053 1116 933a60c408fc0a863a92debe84b2d294 ""
  "C:/Users/Nicky Koenen/AppData/Local/Programs/MiKTeX/fonts/tfm/public/cm/cmsy8.tfm" 1136765053 1120 8b7d695260f3cff42e636090a8002094 ""
  "C:/Users/Nicky Koenen/AppData/Local/Programs/MiKTeX/fonts/tfm/public/cm/cmti10.tfm" 1136765053 1480 aa8e34af0eb6a2941b776984cf1dfdc4 ""
  "C:/Users/Nicky Koenen/AppData/Local/Programs/MiKTeX/fonts/tfm/public/cm/cmtt10.tfm" 1136765053 768 1321e9409b4137d6fb428ac9dc956269 ""
  "C:/Users/Nicky Koenen/AppData/Local/Programs/MiKTeX/fonts/type1/public/amsfonts/cm/cmbx10.pfb" 1247593066 34811 78b52f49e893bcba91bd7581cdc144c0 ""
  "C:/Users/Nicky Koenen/AppData/Local/Programs/MiKTeX/fonts/type1/public/amsfonts/cm/cmbx12.pfb" 1247593066 32080 340ef9bf63678554ee606688e7b5339d ""
  "C:/Users/Nicky Koenen/AppData/Local/Programs/MiKTeX/fonts/type1/public/amsfonts/cm/cmmi10.pfb" 1247593067 36299 5f9df58c2139e7edcf37c8fca4bd384d ""
  "C:/Users/Nicky Koenen/AppData/Local/Programs/MiKTeX/fonts/type1/public/amsfonts/cm/cmmi7.pfb" 1247593067 36281 c355509802a035cadc5f15869451dcee ""
  "C:/Users/Nicky Koenen/AppData/Local/Programs/MiKTeX/fonts/type1/public/amsfonts/cm/cmr10.pfb" 1247593067 35752 024fb6c41858982481f6968b5fc26508 ""
  "C:/Users/Nicky Koenen/AppData/Local/Programs/MiKTeX/fonts/type1/public/amsfonts/cm/cmr12.pfb" 1247593067 32722 d7379af29a190c3f453aba36302ff5a9 ""
  "C:/Users/Nicky Koenen/AppData/Local/Programs/MiKTeX/fonts/type1/public/amsfonts/cm/cmr17.pfb" 1247593066 32362 bc3f3eec7ab7d65fe700963d4017d32c ""
  "C:/Users/Nicky Koenen/AppData/Local/Programs/MiKTeX/fonts/type1/public/amsfonts/cm/cmr7.pfb" 1247593067 32762 7fee39e011c23b3589931effd97b9702 ""
  "C:/Users/Nicky Koenen/AppData/Local/Programs/MiKTeX/fonts/type1/public/amsfonts/cm/cmsy10.pfb" 1247593067 32569 5e5ddc8df908dea60932f3c484a54c0d ""
  "C:/Users/Nicky Koenen/AppData/Local/Programs/MiKTeX/fonts/type1/public/amsfonts/cm/cmti10.pfb" 1247593067 37944 359e864bd06cde3b1cf57bb20757fb06 ""
  "C:/Users/Nicky Koenen/AppData/Local/Programs/MiKTeX/fonts/type1/public/amsfonts/cm/cmtt10.pfb" 1247593067 31099 342ef5a582aacbd3346f3cf4579679fa ""
  "C:/Users/Nicky Koenen/AppData/Local/Programs/MiKTeX/tex/context/base/mkii/supp-pdf.mkii" 1580390158 71627 94eb9990bed73c364d7f53f960cc8c5b ""
  "C:/Users/Nicky Koenen/AppData/Local/Programs/MiKTeX/tex/generic/atbegshi/atbegshi.sty" 1575571100 24708 5584a51a7101caf7e6bbf1fc27d8f7b1 ""
  "C:/Users/Nicky Koenen/AppData/Local/Programs/MiKTeX/tex/generic/babel/babel.sty" 1634653529 146892 a86ea34d700e7e808b2577dcfd7592cc ""
  "C:/Users/Nicky Koenen/AppData/Local/Programs/MiKTeX/tex/generic/babel/txtbabel.def" 1634653529 5233 a89961f969f72563cb59411e9dc4ae8e ""
  "C:/Users/Nicky Koenen/AppData/Local/Programs/MiKTeX/tex/generic/bigintcalc/bigintcalc.sty" 1576433602 40635 c40361e206be584d448876bba8a64a3b ""
  "C:/Users/Nicky Koenen/AppData/Local/Programs/MiKTeX/tex/generic/bitset/bitset.sty" 1575926576 33961 6b5c75130e435b2bfdb9f480a09a39f9 ""
  "C:/Users/Nicky Koenen/AppData/Local/Programs/MiKTeX/tex/generic/etexcmds/etexcmds.sty" 1576433638 7734 b98cbb34c81f667027c1e3ebdbfce34b ""
  "C:/Users/Nicky Koenen/AppData/Local/Programs/MiKTeX/tex/generic/gettitlestring/gettitlestring.sty" 1576433666 8371 9d55b8bd010bc717624922fb3477d92e ""
  "C:/Users/Nicky Koenen/AppData/Local/Programs/MiKTeX/tex/generic/iftex/iftex.sty" 1583523400 6501 4011d89d9621e0b0901138815ba5ff29 ""
  "C:/Users/Nicky Koenen/AppData/Local/Programs/MiKTeX/tex/generic/iftex/ifvtex.sty" 1583523400 1057 525c2192b5febbd8c1f662c9468335bb ""
  "C:/Users/Nicky Koenen/AppData/Local/Programs/MiKTeX/tex/generic/infwarerr/infwarerr.sty" 1575399508 8356 7bbb2c2373aa810be568c29e333da8ed ""
  "C:/Users/Nicky Koenen/AppData/Local/Programs/MiKTeX/tex/generic/intcalc/intcalc.sty" 1576433764 31769 002a487f55041f8e805cfbf6385ffd97 ""
  "C:/Users/Nicky Koenen/AppData/Local/Programs/MiKTeX/tex/generic/kvdefinekeys/kvdefinekeys.sty" 1576763304 5412 d5a2436094cd7be85769db90f29250a6 ""
  "C:/Users/Nicky Koenen/AppData/Local/Programs/MiKTeX/tex/generic/kvsetkeys/kvsetkeys.sty" 1576433820 13807 952b0226d4efca026f0e19dd266dcc22 ""
  "C:/Users/Nicky Koenen/AppData/Local/Programs/MiKTeX/tex/generic/ltxcmds/ltxcmds.sty" 1601732009 18568 4409f8f50cd365c68e684407e5350b1b ""
  "C:/Users/Nicky Koenen/AppData/Local/Programs/MiKTeX/tex/generic/pdfescape/pdfescape.sty" 1575926700 19007 15924f7228aca6c6d184b115f4baa231 ""
  "C:/Users/Nicky Koenen/AppData/Local/Programs/MiKTeX/tex/generic/pdftexcmds/pdftexcmds.sty" 1623001677 20089 80423eac55aa175305d35b49e04fe23b ""
  "C:/Users/Nicky Koenen/AppData/Local/Programs/MiKTeX/tex/generic/uniquecounter/uniquecounter.sty" 1576434012 7008 f92eaa0a3872ed622bbf538217cd2ab7 ""
  "C:/Users/Nicky Koenen/AppData/Local/Programs/MiKTeX/tex/generic/xkeyval/xkeyval.tex" 1623002090 19231 3cbf682090baecad8e17a66b7a271ed1 ""
  "C:/Users/Nicky Koenen/AppData/Local/Programs/MiKTeX/tex/generic/xkeyval/xkvutils.tex" 1623002090 7677 cf3e6aa6a8d444f55327f61df80bfa0c ""
  "C:/Users/Nicky Koenen/AppData/Local/Programs/MiKTeX/tex/latex/00miktex/epstopdf-sys.cfg" 1616067285 584 2a1075dd71571459f59146da9f7502ad ""
  "C:/Users/Nicky Koenen/AppData/Local/Programs/MiKTeX/tex/latex/adjustbox/adjcalc.sty" 1598810320 5770 e823b3adfbc2ea70e453a21ea6e2ee12 ""
  "C:/Users/Nicky Koenen/AppData/Local/Programs/MiKTeX/tex/latex/adjustbox/adjustbox.sty" 1598810320 58934 8e897e69259d91e3f48a398c5d3ba08f ""
  "C:/Users/Nicky Koenen/AppData/Local/Programs/MiKTeX/tex/latex/adjustbox/tc-pdftex.def" 1598810320 4190 8581b1ee97fe4a61e6907d7106f85141 ""
  "C:/Users/Nicky Koenen/AppData/Local/Programs/MiKTeX/tex/latex/adjustbox/trimclip.sty" 1598810320 7512 a32c09a7494ab7f6b44688804f84e5d6 ""
  "C:/Users/Nicky Koenen/AppData/Local/Programs/MiKTeX/tex/latex/arabi/bblopts.cfg" 1139961600 902 c30e5c373bc58bde21f8f63a3091626f ""
  "C:/Users/Nicky Koenen/AppData/Local/Programs/MiKTeX/tex/latex/atveryend/atveryend.sty" 1576101110 19336 ce7ae9438967282886b3b036cfad1e4d ""
  "C:/Users/Nicky Koenen/AppData/Local/Programs/MiKTeX/tex/latex/auxhook/auxhook.sty" 1576538732 3935 57aa3c3e203a5c2effb4d2bd2efbc323 ""
  "C:/Users/Nicky Koenen/AppData/Local/Programs/MiKTeX/tex/latex/babel-dutch/dutch.ldf" 1630936741 6785 9a88117cf3b054cf3e3476265f93dce2 ""
  "C:/Users/Nicky Koenen/AppData/Local/Programs/MiKTeX/tex/latex/base/article.cls" 1623738100 20144 0fe9067680219956678b52f12bdce8ee ""
  "C:/Users/Nicky Koenen/AppData/Local/Programs/MiKTeX/tex/latex/base/atbegshi-ltx.sty" 1623738100 3034 7076a43c47446700860d2aebb65ebed5 ""
  "C:/Users/Nicky Koenen/AppData/Local/Programs/MiKTeX/tex/latex/base/atveryend-ltx.sty" 1623738100 2459 f9456a3cd988c2865f64e327cdb6f7a0 ""
  "C:/Users/Nicky Koenen/AppData/Local/Programs/MiKTeX/tex/latex/base/ifthen.sty" 1623738100 5157 f308c7c04889e16c588e78aa42599fae ""
  "C:/Users/Nicky Koenen/AppData/Local/Programs/MiKTeX/tex/latex/base/inputenc.sty" 1623738100 5049 969aec05d5f39c43f8005910498fcf90 ""
  "C:/Users/Nicky Koenen/AppData/Local/Programs/MiKTeX/tex/latex/base/size10.clo" 1623738100 8448 05e1c6a8fc5db344ed9d7aeb299acbce ""
  "C:/Users/Nicky Koenen/AppData/Local/Programs/MiKTeX/tex/latex/caption/caption.sty" 1603740596 51746 e89c4da670ba533e6ab38e045ce6d1d9 ""
  "C:/Users/Nicky Koenen/AppData/Local/Programs/MiKTeX/tex/latex/caption/caption3.sty" 1603740596 67929 d50ae850e1d9604065e8337a75a41029 ""
  "C:/Users/Nicky Koenen/AppData/Local/Programs/MiKTeX/tex/latex/collectbox/collectbox.sty" 1337612087 9116 495d44b5a3e7be0c46c5d1f053f457f0 ""
  "C:/Users/Nicky Koenen/AppData/Local/Programs/MiKTeX/tex/latex/comment/comment.sty" 1468687682 10197 204f75d5d8d88aa345a8c402e879e63b ""
  "C:/Users/Nicky Koenen/AppData/Local/Programs/MiKTeX/tex/latex/epstopdf-pkg/epstopdf-base.sty" 1622999586 13886 d1306dcf79a944f6988e688c1785f9ce ""
  "C:/Users/Nicky Koenen/AppData/Local/Programs/MiKTeX/tex/latex/eso-pic/eso-pic.sty" 1607182970 11772 8d0db0794e6aeb45348f60bbe3a3e093 ""
  "C:/Users/Nicky Koenen/AppData/Local/Programs/MiKTeX/tex/latex/float/float.sty" 1469020353 6916 16d2656a1984957e674b149555f1ea1d ""
  "C:/Users/Nicky Koenen/AppData/Local/Programs/MiKTeX/tex/latex/floatrow/floatrow.sty" 1249376448 61485 31ae5968a4a3fc2e332dd6a87f8e924b ""
  "C:/Users/Nicky Koenen/AppData/Local/Programs/MiKTeX/tex/latex/floatrow/fr-subfig.sty" 1249376448 8272 a013c30438046f8c886036b8961dfa63 ""
  "C:/Users/Nicky Koenen/AppData/Local/Programs/MiKTeX/tex/latex/geometry/geometry.cfg" 1578053545 1104 7ac475a4e3466b0b43e138e9356bda83 ""
  "C:/Users/Nicky Koenen/AppData/Local/Programs/MiKTeX/tex/latex/geometry/geometry.sty" 1578053545 42759 9cf6c5257b1bc7af01a58859749dd37a ""
  "C:/Users/Nicky Koenen/AppData/Local/Programs/MiKTeX/tex/latex/graphics-cfg/color.cfg" 1465890692 1213 620bba36b25224fa9b7e1ccb4ecb76fd ""
  "C:/Users/Nicky Koenen/AppData/Local/Programs/MiKTeX/tex/latex/graphics-cfg/graphics.cfg" 1465890692 1224 978390e9c2234eab29404bc21b268d1e ""
  "C:/Users/Nicky Koenen/AppData/Local/Programs/MiKTeX/tex/latex/graphics-def/pdftex.def" 1622558694 19103 48d29b6e2a64cb717117ef65f107b404 ""
  "C:/Users/Nicky Koenen/AppData/Local/Programs/MiKTeX/tex/latex/graphics/color.sty" 1622999725 7153 17c23e5e586ebbdf5d269e7867e53cef ""
  "C:/Users/Nicky Koenen/AppData/Local/Programs/MiKTeX/tex/latex/graphics/graphics.sty" 1622999725 18399 7e40f80366dffb22c0e7b70517db5cb4 ""
  "C:/Users/Nicky Koenen/AppData/Local/Programs/MiKTeX/tex/latex/graphics/graphicx.sty" 1622999725 7972 81ea1752666dc7c1e93f0b4c10665ca1 ""
  "C:/Users/Nicky Koenen/AppData/Local/Programs/MiKTeX/tex/latex/graphics/keyval.sty" 1622999725 2671 4de6781a30211fe0ea4c672e4a2a8166 ""
  "C:/Users/Nicky Koenen/AppData/Local/Programs/MiKTeX/tex/latex/graphics/lscape.sty" 1622999725 1808 e22d55a4f66156801447813626bd4159 ""
  "C:/Users/Nicky Koenen/AppData/Local/Programs/MiKTeX/tex/latex/graphics/rotating.sty" 1622999725 7060 456d34a7dddb810e7885ac5d0fc74391 ""
  "C:/Users/Nicky Koenen/AppData/Local/Programs/MiKTeX/tex/latex/graphics/trig.sty" 1622999725 4007 3bccccf8f35e1bc1ef0f7c55ceeb7713 ""
  "C:/Users/Nicky Koenen/AppData/Local/Programs/MiKTeX/tex/latex/hycolor/hycolor.sty" 1580380792 18571 4c28a13fc3d975e6e81c9bea1d697276 ""
  "C:/Users/Nicky Koenen/AppData/Local/Programs/MiKTeX/tex/latex/hyperref/hpdftex.def" 1623054242 49890 0bb76a5b745d92e86aed6f3f93e334f0 ""
  "C:/Users/Nicky Koenen/AppData/Local/Programs/MiKTeX/tex/latex/hyperref/hyperref-langpatches.def" 1623054242 1777 940b1aa83773bc035eb882e8d6842769 ""
  "C:/Users/Nicky Koenen/AppData/Local/Programs/MiKTeX/tex/latex/hyperref/hyperref.sty" 1623054242 230915 97a8817f13de4e61bbc3592cb2caa995 ""
  "C:/Users/Nicky Koenen/AppData/Local/Programs/MiKTeX/tex/latex/hyperref/nameref.sty" 1623054242 13242 133e617c5eebffdd05e421624022b267 ""
  "C:/Users/Nicky Koenen/AppData/Local/Programs/MiKTeX/tex/latex/hyperref/pd1enc.def" 1623054242 14132 c9404e8e78123ef0d1007c34d1d6da51 ""
  "C:/Users/Nicky Koenen/AppData/Local/Programs/MiKTeX/tex/latex/hyperref/puenc.def" 1623054242 117004 86586f287ddfad919a0a4bd68934277a ""
  "C:/Users/Nicky Koenen/AppData/Local/Programs/MiKTeX/tex/latex/ifoddpage/ifoddpage.sty" 1461432684 2148 0426cd8bb94163c1e23726d0c15e2c21 ""
  "C:/Users/Nicky Koenen/AppData/Local/Programs/MiKTeX/tex/latex/kvoptions/kvoptions.sty" 1602224496 22521 d2fceb764a442a2001d257ef11db7618 ""
  "C:/Users/Nicky Koenen/AppData/Local/Programs/MiKTeX/tex/latex/l3backend/l3backend-pdftex.def" 1634573416 29971 6c47712bf4bc87d15b2ca318615f75a3 ""
  "C:/Users/Nicky Koenen/AppData/Local/Programs/MiKTeX/tex/latex/letltxmacro/letltxmacro.sty" 1575399536 5766 13a9e8766c47f30327caf893ece86ac8 ""
  "C:/Users/Nicky Koenen/AppData/Local/Programs/MiKTeX/tex/latex/pdflscape/pdflscape.sty" 1575571226 6575 25396d208d8f2b9395d06ef315d5886c ""
  "C:/Users/Nicky Koenen/AppData/Local/Programs/MiKTeX/tex/latex/pdfpages/pdfpages.sty" 1615069272 54497 58ccf247b8e81d55ca6f10c5082d335f ""
  "C:/Users/Nicky Koenen/AppData/Local/Programs/MiKTeX/tex/latex/pdfpages/pppdftex.def" 1615069272 6591 7d4f68a47a8f9dceeb2327354264a7a7 ""
  "C:/Users/Nicky Koenen/AppData/Local/Programs/MiKTeX/tex/latex/refcount/refcount.sty" 1576433952 9878 9e94e8fa600d95f9c7731bb21dfb67a4 ""
  "C:/Users/Nicky Koenen/AppData/Local/Programs/MiKTeX/tex/latex/rerunfilecheck/rerunfilecheck.sty" 1575571282 9715 b051d5b493d9fe5f4bc251462d039e5f ""
  "C:/Users/Nicky Koenen/AppData/Local/Programs/MiKTeX/tex/latex/subfig/subfig.sty" 1121277410 22049 9ef165ca6df8815c92e693146a376c92 ""
  "C:/Users/Nicky Koenen/AppData/Local/Programs/MiKTeX/tex/latex/tools/array.sty" 1622546726 12689 a1a7b2795918756dcb9c9cbfacc4d9c7 ""
  "C:/Users/Nicky Koenen/AppData/Local/Programs/MiKTeX/tex/latex/tools/calc.sty" 1622546726 10214 00ce62e730d0cfe22b35e8f1c84949c7 ""
  "C:/Users/Nicky Koenen/AppData/Local/Programs/MiKTeX/tex/latex/tools/tabularx.sty" 1622546726 7147 5ac8a9ef36411064b1a501137af0fa54 ""
  "C:/Users/Nicky Koenen/AppData/Local/Programs/MiKTeX/tex/latex/url/url.sty" 1388490452 12796 8edb7d69a20b857904dd0ea757c14ec9 ""
  "C:/Users/Nicky Koenen/AppData/Local/Programs/MiKTeX/tex/latex/varwidth/varwidth.sty" 1238465940 10894 d359a13923460b2a73d4312d613554c8 ""
  "C:/Users/Nicky Koenen/AppData/Local/Programs/MiKTeX/tex/latex/xcolor/xcolor.sty" 1623002060 55589 34128738f682d033422ca125f82e5d62 ""
  "C:/Users/Nicky Koenen/AppData/Local/Programs/MiKTeX/tex/latex/xkeyval/xkeyval.sty" 1623002090 4902 efb3d66683a2da2a232f71e3a571a899 ""
  "onderzoek_fpga_vs_uc.aux" 1644325775 12334 7856a2fff72b0eeb1c87d8befe7d612a "pdflatex"
  "onderzoek_fpga_vs_uc.out" 1644325775 6282 3aedf86655d66cf5ce1804ebfedd16ff "pdflatex"
  "onderzoek_fpga_vs_uc.tex" 1644325759 59906 f1bd36da8724658561986eb8b8088173 ""
  "onderzoek_fpga_vs_uc.toc" 1644325775 2790 0acc0f72c56ae47dc3226477fcabc3a2 "pdflatex"
  (generated)
  "onderzoek_fpga_vs_uc.out"
  "onderzoek_fpga_vs_uc.aux"
  "onderzoek_fpga_vs_uc.pdf"
  "onderzoek_fpga_vs_uc.log"
  "onderzoek_fpga_vs_uc.toc"
