\relax 
\providecommand\hyper@newdestlabel[2]{}
\providecommand\HyperFirstAtBeginDocument{\AtBeginDocument}
\HyperFirstAtBeginDocument{\ifx\hyper@anchor\@undefined
\global\let\oldcontentsline\contentsline
\gdef\contentsline#1#2#3#4{\oldcontentsline{#1}{#2}{#3}}
\global\let\oldnewlabel\newlabel
\gdef\newlabel#1#2{\newlabelxx{#1}#2}
\gdef\newlabelxx#1#2#3#4#5#6{\oldnewlabel{#1}{{#2}{#3}}}
\AtEndDocument{\ifx\hyper@anchor\@undefined
\let\contentsline\oldcontentsline
\let\newlabel\oldnewlabel
\fi}
\fi}
\global\let\hyper@last\relax 
\gdef\HyperFirstAtBeginDocument#1{#1}
\providecommand\HyField@AuxAddToFields[1]{}
\providecommand\HyField@AuxAddToCoFields[2]{}
\providecommand\babel@aux[2]{}
\@nameuse{bbl@beforestart}
\catcode `"\active 
\providecommand \oddpage@label [2]{}
\babel@aux{dutch}{}
\@writefile{toc}{\contentsline {section}{\numberline {1}Inleiding}{4}{section.1}\protected@file@percent }
\newlabel{onderzoek:hardware}{{1}{4}{Inleiding}{section.1}{}}
\@writefile{lof}{\contentsline {figure}{\numberline {1}{\ignorespaces Mindmap bij het opstellen van de hoofdvraag\relax }}{4}{figure.caption.4}\protected@file@percent }
\providecommand*\caption@xref[2]{\@setref\relax\@undefined{#1}}
\newlabel{fig:mindmap}{{1}{4}{Mindmap bij het opstellen van de hoofdvraag\relax }{figure.caption.4}{}}
\@writefile{toc}{\contentsline {section}{\numberline {2}Deelvraag 1: Welke hardware kan er gebruikt worden in dit project?}{5}{section.2}\protected@file@percent }
\@writefile{toc}{\contentsline {subsection}{\numberline {2.1}Wat is FPGA?}{5}{subsection.2.1}\protected@file@percent }
\@writefile{toc}{\contentsline {subsubsection}{\numberline {2.1.1}Voordelen}{5}{subsubsection.2.1.1}\protected@file@percent }
\@writefile{toc}{\contentsline {subsubsection}{\numberline {2.1.2}Nadelen}{5}{subsubsection.2.1.2}\protected@file@percent }
\@writefile{toc}{\contentsline {subsection}{\numberline {2.2}Wat is een Microcontroller}{6}{subsection.2.2}\protected@file@percent }
\@writefile{toc}{\contentsline {subsubsection}{\numberline {2.2.1}Hoe werkt een Microcontroller?}{6}{subsubsection.2.2.1}\protected@file@percent }
\@writefile{toc}{\contentsline {subsubsection}{\numberline {2.2.2}Kernelementen van de Microcontroller}{6}{subsubsection.2.2.2}\protected@file@percent }
\@writefile{toc}{\contentsline {subsection}{\numberline {2.3}Conclusie}{7}{subsection.2.3}\protected@file@percent }
\@writefile{lot}{\contentsline {table}{\numberline {1}{\ignorespaces Tabel voor- en nadelen ten opzichte van FPGA en uC\relax }}{7}{table.caption.5}\protected@file@percent }
\newlabel{tab:procons}{{1}{7}{Tabel voor- en nadelen ten opzichte van FPGA en uC\relax }{table.caption.5}{}}
\@writefile{toc}{\contentsline {section}{\numberline {3}Deelvraag 2: Hoe wordt data gedownload binnen 60 minuten?}{8}{section.3}\protected@file@percent }
\@writefile{toc}{\contentsline {subsection}{\numberline {3.1}Hoeveel data worden er opgeslagen?}{8}{subsection.3.1}\protected@file@percent }
\@writefile{lot}{\contentsline {table}{\numberline {2}{\ignorespaces Totale aantal bits van alle sensoren\relax }}{8}{table.caption.6}\protected@file@percent }
\newlabel{tab:bits}{{2}{8}{Totale aantal bits van alle sensoren\relax }{table.caption.6}{}}
\newlabel{form:3}{{1}{8}{Hoeveel data worden er opgeslagen?}{equation.3.1}{}}
\newlabel{form:4}{{2}{8}{Hoeveel data worden er opgeslagen?}{equation.3.2}{}}
\newlabel{form:1}{{3}{8}{Hoeveel data worden er opgeslagen?}{equation.3.3}{}}
\newlabel{form:2}{{4}{8}{Hoeveel data worden er opgeslagen?}{equation.3.4}{}}
\@writefile{toc}{\contentsline {subsection}{\numberline {3.2}Interface mogelijkheden}{8}{subsection.3.2}\protected@file@percent }
\newlabel{form:5}{{5}{9}{Interface mogelijkheden}{equation.3.5}{}}
\newlabel{form:6}{{6}{9}{Interface mogelijkheden}{equation.3.6}{}}
\newlabel{form:9}{{8}{9}{Interface mogelijkheden}{equation.3.8}{}}
\@writefile{toc}{\contentsline {subsection}{\numberline {3.3}Conclusie}{9}{subsection.3.3}\protected@file@percent }
\@writefile{toc}{\contentsline {section}{\numberline {4}Deelvraag 3: Hoe kan het systeem zo lang mogelijk blijven werken?}{10}{section.4}\protected@file@percent }
\@writefile{toc}{\contentsline {subsection}{\numberline {4.1}Wat is het stroomverbruik van alle sensoren?}{10}{subsection.4.1}\protected@file@percent }
\@writefile{lot}{\contentsline {table}{\numberline {3}{\ignorespaces Stroomverbruik per sensor in totaal\relax }}{10}{table.caption.7}\protected@file@percent }
\newlabel{tab:stroomverbruik}{{3}{10}{Stroomverbruik per sensor in totaal\relax }{table.caption.7}{}}
\@writefile{toc}{\contentsline {subsection}{\numberline {4.2}Welke type voeding is het meest efficiënt?}{10}{subsection.4.2}\protected@file@percent }
\@writefile{toc}{\contentsline {subsubsection}{\numberline {4.2.1}Lineaire voltage regulator}{10}{subsubsection.4.2.1}\protected@file@percent }
\@writefile{lof}{\contentsline {figure}{\numberline {2}{\ignorespaces De efficiëntie van een lineaire regulator [\ref  {bib:16}]\relax }}{10}{figure.caption.8}\protected@file@percent }
\newlabel{fig:lineair}{{2}{10}{De efficiëntie van een lineaire regulator [\ref {bib:16}]\relax }{figure.caption.8}{}}
\newlabel{form:7}{{9}{11}{Lineaire voltage regulator}{equation.4.9}{}}
\newlabel{form:8}{{10}{11}{Lineaire voltage regulator}{equation.4.10}{}}
\newlabel{form:13}{{11}{11}{Lineaire voltage regulator}{equation.4.11}{}}
\@writefile{toc}{\contentsline {subsubsection}{\numberline {4.2.2}Switching voltage regulator}{11}{subsubsection.4.2.2}\protected@file@percent }
\@writefile{lof}{\contentsline {figure}{\numberline {3}{\ignorespaces De efficiëntie van een switching regulator [\ref  {bib:16}]\relax }}{11}{figure.caption.9}\protected@file@percent }
\newlabel{fig:switch}{{3}{11}{De efficiëntie van een switching regulator [\ref {bib:16}]\relax }{figure.caption.9}{}}
\@writefile{toc}{\contentsline {subsubsection}{\numberline {4.2.3}Hypothetisch van implementatie}{11}{subsubsection.4.2.3}\protected@file@percent }
\@writefile{toc}{\contentsline {subsection}{\numberline {4.3}Conclusie}{13}{subsection.4.3}\protected@file@percent }
\@writefile{toc}{\contentsline {section}{\numberline {5}Hoofdvraag conclusie}{14}{section.5}\protected@file@percent }
\bibcite{}{1}
\bibcite{}{2}
\bibcite{}{3}
\bibcite{}{4}
\bibcite{}{5}
\bibcite{}{6}
\bibcite{}{7}
\bibcite{}{8}
\bibcite{}{9}
\bibcite{}{10}
\bibcite{}{11}
\bibcite{}{12}
\bibcite{}{13}
\bibcite{}{14}
\bibcite{}{15}
\bibcite{}{16}
\bibcite{}{17}
\bibcite{}{18}
\@writefile{toc}{\contentsline {section}{\numberline {6}Bronvermelding}{15}{section.6}\protected@file@percent }
\newlabel{bib:1}{{1}{15}{\refname }{section*.10}{}}
\newlabel{bib:2}{{2}{15}{\refname }{section*.10}{}}
\newlabel{bib:3}{{3}{15}{\refname }{section*.10}{}}
\newlabel{bib:4}{{4}{15}{\refname }{section*.10}{}}
\newlabel{bib:5}{{5}{15}{\refname }{section*.10}{}}
\newlabel{bib:6}{{6}{15}{\refname }{section*.10}{}}
\newlabel{bib:7}{{7}{15}{\refname }{section*.10}{}}
\newlabel{bib:8}{{8}{15}{\refname }{section*.10}{}}
\newlabel{bib:9}{{9}{15}{\refname }{section*.10}{}}
\newlabel{bib:10}{{10}{15}{\refname }{section*.10}{}}
\newlabel{bib:11}{{11}{15}{\refname }{section*.10}{}}
\newlabel{bib:12}{{12}{15}{\refname }{section*.10}{}}
\newlabel{bib:13}{{13}{15}{\refname }{section*.10}{}}
\newlabel{bib:14}{{14}{15}{\refname }{section*.10}{}}
\newlabel{bib:15}{{15}{15}{\refname }{section*.10}{}}
\newlabel{bib:16}{{16}{15}{\refname }{section*.10}{}}
\newlabel{bib:17}{{17}{15}{\refname }{section*.10}{}}
\bibcite{}{19}
\bibcite{}{20}
\bibcite{}{21}
\bibcite{}{22}
\bibcite{}{23}
\bibcite{}{24}
\bibcite{}{25}
\bibcite{}{26}
\bibcite{}{27}
\bibcite{}{28}
\bibcite{}{29}
\bibcite{}{30}
\newlabel{bib:18}{{18}{16}{\refname }{section*.10}{}}
\newlabel{bib:19}{{19}{16}{\refname }{section*.10}{}}
\newlabel{bib:20}{{20}{16}{\refname }{section*.10}{}}
\newlabel{bib:21}{{21}{16}{\refname }{section*.10}{}}
\newlabel{bib:22}{{22}{16}{\refname }{section*.10}{}}
\newlabel{bib:23}{{23}{16}{\refname }{section*.10}{}}
\newlabel{bib:24}{{24}{16}{\refname }{section*.10}{}}
\newlabel{bib:25}{{25}{16}{\refname }{section*.10}{}}
\newlabel{bib:26}{{26}{16}{\refname }{section*.10}{}}
\newlabel{bib:27}{{27}{16}{\refname }{section*.10}{}}
\newlabel{bib:28}{{28}{16}{\refname }{section*.10}{}}
\newlabel{bib:29}{{29}{16}{\refname }{section*.10}{}}
\newlabel{bib:30}{{30}{16}{\refname }{section*.10}{}}
\@writefile{toc}{\contentsline {section}{\numberline {A}Bijlage Buck converter simulatie}{17}{appendix.A}\protected@file@percent }
\newlabel{form:10}{{15}{17}{Bijlage Buck converter simulatie}{equation.A.15}{}}
\newlabel{form:11}{{16}{17}{Bijlage Buck converter simulatie}{equation.A.16}{}}
\@writefile{lof}{\contentsline {figure}{\numberline {4}{\ignorespaces LTspice simulatie step-down converter van 7,2 naar 5 V\relax }}{17}{figure.caption.11}\protected@file@percent }
\newlabel{fig:lt_7v2_5}{{4}{17}{LTspice simulatie step-down converter van 7,2 naar 5 V\relax }{figure.caption.11}{}}
\@writefile{lof}{\contentsline {figure}{\numberline {5}{\ignorespaces LTspice simulatie step-down converter van 7,2 V naar 3,3 V\relax }}{18}{figure.caption.12}\protected@file@percent }
\newlabel{fig:lt_7v2_3v3}{{5}{18}{LTspice simulatie step-down converter van 7,2 V naar 3,3 V\relax }{figure.caption.12}{}}
\@writefile{lof}{\contentsline {figure}{\numberline {6}{\ignorespaces LTspice simulatie step-down converter van 4 V naar 3,3 V\relax }}{18}{figure.caption.13}\protected@file@percent }
\newlabel{fig:lt_4_2_3v3}{{6}{18}{LTspice simulatie step-down converter van 4 V naar 3,3 V\relax }{figure.caption.13}{}}
\@writefile{toc}{\contentsline {section}{\numberline {B}Bijlage Boost converter simulatie}{19}{appendix.B}\protected@file@percent }
\newlabel{form:11}{{17}{19}{Bijlage Boost converter simulatie}{equation.B.17}{}}
\@writefile{lof}{\contentsline {figure}{\numberline {7}{\ignorespaces LTspice simulatie step up converter van 3,3 V naar 5 V\relax }}{20}{figure.caption.14}\protected@file@percent }
\newlabel{fig:boost}{{7}{20}{LTspice simulatie step up converter van 3,3 V naar 5 V\relax }{figure.caption.14}{}}
\@writefile{toc}{\contentsline {section}{\numberline {C}Eerst Buck en dan Boost simulatie}{21}{appendix.C}\protected@file@percent }
\@writefile{lof}{\contentsline {figure}{\numberline {8}{\ignorespaces Buck en Boost converter gecombineerd simulatie methode 1\relax }}{21}{figure.caption.15}\protected@file@percent }
\newlabel{fig:buck_endan_boost}{{8}{21}{Buck en Boost converter gecombineerd simulatie methode 1\relax }{figure.caption.15}{}}
\@writefile{lot}{\contentsline {table}{\numberline {4}{\ignorespaces Resultaten van twee methodes gesimuleerd op LTspice\relax }}{21}{table.caption.16}\protected@file@percent }
\newlabel{tab:methode}{{4}{21}{Resultaten van twee methodes gesimuleerd op LTspice\relax }{table.caption.16}{}}
\@writefile{toc}{\contentsline {section}{\numberline {D}Buck-Boost converter simulatie}{22}{appendix.D}\protected@file@percent }
\@writefile{lot}{\contentsline {table}{\numberline {5}{\ignorespaces Rendement waarbij input varieert tussen 7,2 ${\simeq }$ 4 V\relax }}{23}{table.caption.17}\protected@file@percent }
\newlabel{tab:buck_boost}{{5}{23}{Rendement waarbij input varieert tussen 7,2 ${\simeq }$ 4 V\relax }{table.caption.17}{}}
\@writefile{lof}{\contentsline {figure}{\numberline {9}{\ignorespaces Buck-Boost converter in LTspice, waarbij Vin = 4 V en Vout = 5 V\relax }}{23}{figure.caption.18}\protected@file@percent }
\newlabel{fig:buck_boost}{{9}{23}{Buck-Boost converter in LTspice, waarbij Vin = 4 V en Vout = 5 V\relax }{figure.caption.18}{}}
\@writefile{toc}{\contentsline {section}{\numberline {E}Bijlage Buck converter berekening van 7,2V naar 5V}{24}{appendix.E}\protected@file@percent }
\newlabel{bijlage:buck1}{{E}{24}{Bijlage Buck converter berekening van 7,2V naar 5V}{appendix.E}{}}
\@writefile{toc}{\contentsline {section}{\numberline {F}Bijlage Buck converter berekening van 7,2V naar 3,3V}{26}{appendix.F}\protected@file@percent }
\newlabel{bijlage:buck2}{{F}{26}{Bijlage Buck converter berekening van 7,2V naar 3,3V}{appendix.F}{}}
\@writefile{toc}{\contentsline {section}{\numberline {G}Bijlage Buck converter berekening van 4V naar 3,3V}{27}{appendix.G}\protected@file@percent }
\newlabel{bijlage:buck3}{{G}{27}{Bijlage Buck converter berekening van 4V naar 3,3V}{appendix.G}{}}
\gdef \@abspage@last{27}
