main.c:82:6:reverse	32	static
main.c:98:5:intToStr	32	static
main.c:117:6:ftoa	48	static
main.c:146:5:main	8	static
main.c:214:6:SystemClock_Config	72	static
main.c:253:13:MX_TIM2_Init	56	static
main.c:302:13:MX_USART1_UART_Init	8	static
main.c:335:13:MX_GPIO_Init	32	static
main.c:359:6:Error_Handler	4	static
