\relax 
\providecommand\hyper@newdestlabel[2]{}
\providecommand\HyperFirstAtBeginDocument{\AtBeginDocument}
\HyperFirstAtBeginDocument{\ifx\hyper@anchor\@undefined
\global\let\oldcontentsline\contentsline
\gdef\contentsline#1#2#3#4{\oldcontentsline{#1}{#2}{#3}}
\global\let\oldnewlabel\newlabel
\gdef\newlabel#1#2{\newlabelxx{#1}#2}
\gdef\newlabelxx#1#2#3#4#5#6{\oldnewlabel{#1}{{#2}{#3}}}
\AtEndDocument{\ifx\hyper@anchor\@undefined
\let\contentsline\oldcontentsline
\let\newlabel\oldnewlabel
\fi}
\fi}
\global\let\hyper@last\relax 
\gdef\HyperFirstAtBeginDocument#1{#1}
\providecommand\HyField@AuxAddToFields[1]{}
\providecommand\HyField@AuxAddToCoFields[2]{}
\providecommand\babel@aux[2]{}
\@nameuse{bbl@beforestart}
\catcode `"\active 
\providecommand \oddpage@label [2]{}
\babel@aux{dutch}{}
\@writefile{toc}{\contentsline {section}{\numberline {1}Progamma van Eisen}{3}{section.1}\protected@file@percent }
\@writefile{toc}{\contentsline {subsection}{\numberline {1.1}Algemene beschrijving}{3}{subsection.1.1}\protected@file@percent }
\@writefile{toc}{\contentsline {subsection}{\numberline {1.2}Systeemcontext}{4}{subsection.1.2}\protected@file@percent }
\newlabel{paraf:systeem}{{1.2}{4}{Systeemcontext}{subsection.1.2}{}}
\@writefile{lof}{\contentsline {figure}{\numberline {1}{\ignorespaces Data Context Diagram van het systeem\relax }}{4}{figure.caption.1}\protected@file@percent }
\providecommand*\caption@xref[2]{\@setref\relax\@undefined{#1}}
\newlabel{fig:dcd}{{1}{4}{Data Context Diagram van het systeem\relax }{figure.caption.1}{}}
\@writefile{toc}{\contentsline {subsection}{\numberline {1.3}Systeemfuncties}{4}{subsection.1.3}\protected@file@percent }
\@writefile{toc}{\contentsline {subsubsection}{\numberline {1.3.1}Data Flow Diagram 0: Beheer Caliper Tool}{6}{subsubsection.1.3.1}\protected@file@percent }
\@writefile{lof}{\contentsline {figure}{\numberline {2}{\ignorespaces Hoofdfuncties van het systeem\relax }}{6}{figure.caption.2}\protected@file@percent }
\newlabel{fig:dfd0}{{2}{6}{Hoofdfuncties van het systeem\relax }{figure.caption.2}{}}
\@writefile{toc}{\contentsline {subsubsection}{\numberline {1.3.2}Data Flow Diagram 1: Verwerkt data}{7}{subsubsection.1.3.2}\protected@file@percent }
\@writefile{lot}{\contentsline {table}{\numberline {1}{\ignorespaces Data flow tabel\relax }}{7}{table.caption.3}\protected@file@percent }
\newlabel{tab:dfd1}{{1}{7}{Data flow tabel\relax }{table.caption.3}{}}
\@writefile{lof}{\contentsline {figure}{\numberline {3}{\ignorespaces Hoofdfunctie 1 in het DFD\relax }}{7}{figure.caption.4}\protected@file@percent }
\newlabel{fig:dfd1}{{3}{7}{Hoofdfunctie 1 in het DFD\relax }{figure.caption.4}{}}
\@writefile{lof}{\contentsline {figure}{\numberline {4}{\ignorespaces DFD 1.1 ingezoomd in het proces 1. Verwerkt data\relax }}{8}{figure.caption.6}\protected@file@percent }
\newlabel{fig:dfd1.1}{{4}{8}{DFD 1.1 ingezoomd in het proces 1. Verwerkt data\relax }{figure.caption.6}{}}
\@writefile{toc}{\contentsline {subsubsection}{\numberline {1.3.3}Data Flow Diagram 2: Beheer pijpleiding informatie}{9}{subsubsection.1.3.3}\protected@file@percent }
\@writefile{lot}{\contentsline {table}{\numberline {2}{\ignorespaces Data flow tabel\relax }}{9}{table.caption.7}\protected@file@percent }
\newlabel{tab:dfd2}{{2}{9}{Data flow tabel\relax }{table.caption.7}{}}
\@writefile{lof}{\contentsline {figure}{\numberline {5}{\ignorespaces Hoofdfunctie 2 in het DFD\relax }}{9}{figure.caption.8}\protected@file@percent }
\newlabel{fig:dfd2}{{5}{9}{Hoofdfunctie 2 in het DFD\relax }{figure.caption.8}{}}
\@writefile{toc}{\contentsline {subsubsection}{\numberline {1.3.4}Data Flow Diagram 3: Beheer medium informatie}{11}{subsubsection.1.3.4}\protected@file@percent }
\@writefile{lot}{\contentsline {table}{\numberline {3}{\ignorespaces Data flow in tabel\relax }}{11}{table.caption.9}\protected@file@percent }
\newlabel{tab:dfd3}{{3}{11}{Data flow in tabel\relax }{table.caption.9}{}}
\@writefile{lof}{\contentsline {figure}{\numberline {6}{\ignorespaces Hoofdfunctie 3 in het DFD\relax }}{11}{figure.caption.10}\protected@file@percent }
\newlabel{fig:dfd3}{{6}{11}{Hoofdfunctie 3 in het DFD\relax }{figure.caption.10}{}}
\@writefile{toc}{\contentsline {subsection}{\numberline {1.4}Niet-functionele klanteisen}{12}{subsection.1.4}\protected@file@percent }
\@writefile{toc}{\contentsline {subsection}{\numberline {1.5}Eisenoverzicht}{13}{subsection.1.5}\protected@file@percent }
\@writefile{lot}{\contentsline {table}{\numberline {4}{\ignorespaces Eisen overzicht m.b.t. functies en MoSCow\relax }}{13}{table.caption.11}\protected@file@percent }
\newlabel{tab:eisenoverzicht}{{4}{13}{Eisen overzicht m.b.t. functies en MoSCow\relax }{table.caption.11}{}}
\@writefile{toc}{\contentsline {section}{\numberline {2}Acceptatietest}{13}{section.2}\protected@file@percent }
\@writefile{toc}{\contentsline {subsection}{\numberline {2.1}Testomgevingen}{14}{subsection.2.1}\protected@file@percent }
\@writefile{toc}{\contentsline {subsubsection}{\numberline {2.1.1}Testomgeving 1}{14}{subsubsection.2.1.1}\protected@file@percent }
\@writefile{toc}{\contentsline {subsubsection}{\numberline {2.1.2}Testomgeving 2}{14}{subsubsection.2.1.2}\protected@file@percent }
\@writefile{toc}{\contentsline {subsection}{\numberline {2.2}Acceptatietest omschrijving}{14}{subsection.2.2}\protected@file@percent }
\@writefile{toc}{\contentsline {subsubsection}{\numberline {2.2.1}Acceptatietest 1: x}{15}{subsubsection.2.2.1}\protected@file@percent }
\@writefile{toc}{\contentsline {section}{\numberline {3}Traceerbaarheid klanteisen Requirement traceability}{15}{section.3}\protected@file@percent }
\gdef \@abspage@last{15}
