\relax 
\providecommand\hyper@newdestlabel[2]{}
\providecommand\HyperFirstAtBeginDocument{\AtBeginDocument}
\HyperFirstAtBeginDocument{\ifx\hyper@anchor\@undefined
\global\let\oldcontentsline\contentsline
\gdef\contentsline#1#2#3#4{\oldcontentsline{#1}{#2}{#3}}
\global\let\oldnewlabel\newlabel
\gdef\newlabel#1#2{\newlabelxx{#1}#2}
\gdef\newlabelxx#1#2#3#4#5#6{\oldnewlabel{#1}{{#2}{#3}}}
\AtEndDocument{\ifx\hyper@anchor\@undefined
\let\contentsline\oldcontentsline
\let\newlabel\oldnewlabel
\fi}
\fi}
\global\let\hyper@last\relax 
\gdef\HyperFirstAtBeginDocument#1{#1}
\providecommand\HyField@AuxAddToFields[1]{}
\providecommand\HyField@AuxAddToCoFields[2]{}
\providecommand\babel@aux[2]{}
\@nameuse{bbl@beforestart}
\catcode `"\active 
\providecommand \oddpage@label [2]{}
\babel@aux{dutch}{}
\@writefile{toc}{\contentsline {section}{\numberline {1}Inleiding}{4}{section.1}\protected@file@percent }
\@writefile{toc}{\contentsline {section}{\numberline {2}Deelvraag 1: Welke hardware kan er gebruikt worden in dit project?}{5}{section.2}\protected@file@percent }
\@writefile{toc}{\contentsline {subsection}{\numberline {2.1}Wat is FPGA?}{5}{subsection.2.1}\protected@file@percent }
\@writefile{toc}{\contentsline {subsubsection}{\numberline {2.1.1}Voordelen}{5}{subsubsection.2.1.1}\protected@file@percent }
\@writefile{toc}{\contentsline {subsubsection}{\numberline {2.1.2}Nadelen}{5}{subsubsection.2.1.2}\protected@file@percent }
\@writefile{toc}{\contentsline {subsection}{\numberline {2.2}Wat is een Microcontroller}{6}{subsection.2.2}\protected@file@percent }
\@writefile{toc}{\contentsline {subsubsection}{\numberline {2.2.1}Hoe werkt een Microcontroller?}{6}{subsubsection.2.2.1}\protected@file@percent }
\@writefile{toc}{\contentsline {subsubsection}{\numberline {2.2.2}Kernelementen van de Microcontroller}{6}{subsubsection.2.2.2}\protected@file@percent }
\@writefile{toc}{\contentsline {subsection}{\numberline {2.3}Conclusie}{7}{subsection.2.3}\protected@file@percent }
\@writefile{lot}{\contentsline {table}{\numberline {1}{\ignorespaces Tabel voor- en nadelen ten opzichte van FPGA en uC\relax }}{7}{table.caption.4}\protected@file@percent }
\providecommand*\caption@xref[2]{\@setref\relax\@undefined{#1}}
\newlabel{tab:procons}{{1}{7}{Tabel voor- en nadelen ten opzichte van FPGA en uC\relax }{table.caption.4}{}}
\@writefile{toc}{\contentsline {section}{\numberline {3}Deelvraag 2: Hoe worden de ontvangen data opgeslagen en gedownload?}{7}{section.3}\protected@file@percent }
\@writefile{toc}{\contentsline {subsection}{\numberline {3.1}Hoeveel data worden er opgeslagen?}{7}{subsection.3.1}\protected@file@percent }
\@writefile{lot}{\contentsline {table}{\numberline {2}{\ignorespaces Totale aantal bits van alle sensoren\relax }}{7}{table.caption.5}\protected@file@percent }
\newlabel{tab:bits}{{2}{7}{Totale aantal bits van alle sensoren\relax }{table.caption.5}{}}
\newlabel{form:3}{{1}{8}{Hoeveel data worden er opgeslagen?}{equation.3.1}{}}
\newlabel{form:4}{{2}{8}{Hoeveel data worden er opgeslagen?}{equation.3.2}{}}
\newlabel{form:1}{{3}{8}{Hoeveel data worden er opgeslagen?}{equation.3.3}{}}
\newlabel{form:2}{{4}{8}{Hoeveel data worden er opgeslagen?}{equation.3.4}{}}
\@writefile{toc}{\contentsline {subsection}{\numberline {3.2}Seriële verbinding}{8}{subsection.3.2}\protected@file@percent }
\newlabel{form:5}{{5}{8}{Seriële verbinding}{equation.3.5}{}}
\newlabel{form:6}{{6}{8}{Seriële verbinding}{equation.3.6}{}}
\@writefile{toc}{\contentsline {subsection}{\numberline {3.3}Conclusie}{8}{subsection.3.3}\protected@file@percent }
\@writefile{toc}{\contentsline {section}{\numberline {4}Hoe kan het systeem 24 uur blijven functioneren?}{8}{section.4}\protected@file@percent }
\@writefile{toc}{\contentsline {subsection}{\numberline {4.1}Wat is het stroomverbruik van alle sensoren?}{9}{subsection.4.1}\protected@file@percent }
\@writefile{lot}{\contentsline {table}{\numberline {3}{\ignorespaces Stroomverbruik per sensor in totaal\relax }}{9}{table.caption.6}\protected@file@percent }
\newlabel{tab:stroomverbruik}{{3}{9}{Stroomverbruik per sensor in totaal\relax }{table.caption.6}{}}
\@writefile{toc}{\contentsline {subsection}{\numberline {4.2}Welke type voeding is het meest efficënt?}{9}{subsection.4.2}\protected@file@percent }
\@writefile{toc}{\contentsline {subsubsection}{\numberline {4.2.1}Lineaire voltage regulator}{9}{subsubsection.4.2.1}\protected@file@percent }
\newlabel{form:7}{{7}{9}{Lineaire voltage regulator}{equation.4.7}{}}
\newlabel{form:8}{{8}{9}{Lineaire voltage regulator}{equation.4.8}{}}
\bibcite{}{1}
\bibcite{}{2}
\bibcite{}{3}
\bibcite{}{4}
\bibcite{}{5}
\bibcite{}{6}
\bibcite{}{7}
\bibcite{}{8}
\bibcite{}{9}
\bibcite{}{10}
\bibcite{}{11}
\bibcite{}{12}
\bibcite{}{13}
\bibcite{}{14}
\bibcite{}{15}
\bibcite{}{16}
\bibcite{}{17}
\bibcite{}{18}
\bibcite{}{19}
\@writefile{toc}{\contentsline {section}{\numberline {5}Bronvermelding}{10}{section.5}\protected@file@percent }
\newlabel{bib:1}{{1}{10}{\refname }{section*.7}{}}
\newlabel{bib:2}{{2}{10}{\refname }{section*.7}{}}
\newlabel{bib:3}{{3}{10}{\refname }{section*.7}{}}
\newlabel{bib:4}{{4}{10}{\refname }{section*.7}{}}
\newlabel{bib:5}{{5}{10}{\refname }{section*.7}{}}
\newlabel{bib:6}{{6}{10}{\refname }{section*.7}{}}
\newlabel{bib:7}{{7}{10}{\refname }{section*.7}{}}
\newlabel{bib:8}{{8}{10}{\refname }{section*.7}{}}
\newlabel{bib:9}{{9}{10}{\refname }{section*.7}{}}
\newlabel{bib:10}{{10}{10}{\refname }{section*.7}{}}
\newlabel{bib:11}{{11}{10}{\refname }{section*.7}{}}
\newlabel{bib:12}{{12}{10}{\refname }{section*.7}{}}
\newlabel{bib:13}{{13}{10}{\refname }{section*.7}{}}
\newlabel{bib:14}{{14}{10}{\refname }{section*.7}{}}
\newlabel{bib:15}{{15}{10}{\refname }{section*.7}{}}
\newlabel{bib:16}{{16}{10}{\refname }{section*.7}{}}
\newlabel{bib:16}{{17}{10}{\refname }{section*.7}{}}
\bibcite{}{20}
\bibcite{}{21}
\newlabel{bib:16}{{18}{11}{\refname }{section*.7}{}}
\newlabel{bib:16}{{19}{11}{\refname }{section*.7}{}}
\newlabel{bib:16}{{20}{11}{\refname }{section*.7}{}}
\newlabel{bib:16}{{21}{11}{\refname }{section*.7}{}}
\gdef \@abspage@last{11}
