# Fdb version 3
["pdflatex"] 1635432748 "c:/Users/User/Documents/afstudeeropdracht/Eindverslag/Eindverslag_v1/DefinitieFase/definitie_v1/Bijlage/onderzoek_fpga_vs_uc.tex" "onderzoek_fpga_vs_uc.pdf" "onderzoek_fpga_vs_uc" 1635449437
  "Afbeelding/FPGA-or-MCU.jpg" 1634649289 124416 d6d24f3e8347a0ad793f42ce3eb70c79 ""
  "C:/Users/User/AppData/Local/MiKTeX/fonts/pk/ljfour/jknappen/ec/dpi600/tcrm1000.pk" 1629634848 11548 c8f93f991e2c52fc9a01478027bc22fd ""
  "C:/Users/User/AppData/Local/MiKTeX/miktex/data/le/pdftex/pdflatex.fmt" 1626448052 9728190 7e28ead969c6d47a00da8fe40b9c45e3 ""
  "C:/Users/User/AppData/Local/MiKTeX/pdftex/config/pdftex.map" 1633635147 83480 bb7f614f442a6253ba6bc32911b0cec2 ""
  "C:/Users/User/AppData/Local/Programs/MiKTeX/fonts/tfm/jknappen/ec/tcrm1000.tfm" 993062508 1436 c7f957a372ef2fbe93c0982f96625e12 ""
  "C:/Users/User/AppData/Local/Programs/MiKTeX/fonts/tfm/public/cm/cmbx10.tfm" 1136768653 1328 c834bbb027764024c09d3d2bf908b5f0 ""
  "C:/Users/User/AppData/Local/Programs/MiKTeX/fonts/tfm/public/cm/cmbx12.tfm" 1136768653 1324 c910af8c371558dc20f2d7822f66fe64 ""
  "C:/Users/User/AppData/Local/Programs/MiKTeX/fonts/tfm/public/cm/cmmi12.tfm" 1136768653 1524 4414a8315f39513458b80dfc63bff03a ""
  "C:/Users/User/AppData/Local/Programs/MiKTeX/fonts/tfm/public/cm/cmmi6.tfm" 1136768653 1512 f21f83efb36853c0b70002322c1ab3ad ""
  "C:/Users/User/AppData/Local/Programs/MiKTeX/fonts/tfm/public/cm/cmmi8.tfm" 1136768653 1520 eccf95517727cb11801f4f1aee3a21b4 ""
  "C:/Users/User/AppData/Local/Programs/MiKTeX/fonts/tfm/public/cm/cmr12.tfm" 1136768653 1288 655e228510b4c2a1abe905c368440826 ""
  "C:/Users/User/AppData/Local/Programs/MiKTeX/fonts/tfm/public/cm/cmr17.tfm" 1136768653 1292 296a67155bdbfc32aa9c636f21e91433 ""
  "C:/Users/User/AppData/Local/Programs/MiKTeX/fonts/tfm/public/cm/cmr6.tfm" 1136768653 1300 b62933e007d01cfd073f79b963c01526 ""
  "C:/Users/User/AppData/Local/Programs/MiKTeX/fonts/tfm/public/cm/cmr8.tfm" 1136768653 1292 21c1c5bfeaebccffdb478fd231a0997d ""
  "C:/Users/User/AppData/Local/Programs/MiKTeX/fonts/tfm/public/cm/cmsy10.tfm" 1136768653 1124 6c73e740cf17375f03eec0ee63599741 ""
  "C:/Users/User/AppData/Local/Programs/MiKTeX/fonts/tfm/public/cm/cmsy6.tfm" 1136768653 1116 933a60c408fc0a863a92debe84b2d294 ""
  "C:/Users/User/AppData/Local/Programs/MiKTeX/fonts/tfm/public/cm/cmsy8.tfm" 1136768653 1120 8b7d695260f3cff42e636090a8002094 ""
  "C:/Users/User/AppData/Local/Programs/MiKTeX/fonts/tfm/public/cm/cmti10.tfm" 1136768653 1480 aa8e34af0eb6a2941b776984cf1dfdc4 ""
  "C:/Users/User/AppData/Local/Programs/MiKTeX/fonts/tfm/public/cm/cmtt10.tfm" 1136768653 768 1321e9409b4137d6fb428ac9dc956269 ""
  "C:/Users/User/AppData/Local/Programs/MiKTeX/fonts/type1/public/amsfonts/cm/cmbx10.pfb" 1247596666 34811 78b52f49e893bcba91bd7581cdc144c0 ""
  "C:/Users/User/AppData/Local/Programs/MiKTeX/fonts/type1/public/amsfonts/cm/cmbx12.pfb" 1247596666 32080 340ef9bf63678554ee606688e7b5339d ""
  "C:/Users/User/AppData/Local/Programs/MiKTeX/fonts/type1/public/amsfonts/cm/cmmi10.pfb" 1247596667 36299 5f9df58c2139e7edcf37c8fca4bd384d ""
  "C:/Users/User/AppData/Local/Programs/MiKTeX/fonts/type1/public/amsfonts/cm/cmr10.pfb" 1247596667 35752 024fb6c41858982481f6968b5fc26508 ""
  "C:/Users/User/AppData/Local/Programs/MiKTeX/fonts/type1/public/amsfonts/cm/cmr12.pfb" 1247596667 32722 d7379af29a190c3f453aba36302ff5a9 ""
  "C:/Users/User/AppData/Local/Programs/MiKTeX/fonts/type1/public/amsfonts/cm/cmr17.pfb" 1247596666 32362 bc3f3eec7ab7d65fe700963d4017d32c ""
  "C:/Users/User/AppData/Local/Programs/MiKTeX/fonts/type1/public/amsfonts/cm/cmsy10.pfb" 1247596667 32569 5e5ddc8df908dea60932f3c484a54c0d ""
  "C:/Users/User/AppData/Local/Programs/MiKTeX/fonts/type1/public/amsfonts/cm/cmti10.pfb" 1247596667 37944 359e864bd06cde3b1cf57bb20757fb06 ""
  "C:/Users/User/AppData/Local/Programs/MiKTeX/fonts/type1/public/amsfonts/cm/cmtt10.pfb" 1247596667 31099 342ef5a582aacbd3346f3cf4579679fa ""
  "C:/Users/User/AppData/Local/Programs/MiKTeX/tex/context/base/mkii/supp-pdf.mkii" 1580393758 71627 94eb9990bed73c364d7f53f960cc8c5b ""
  "C:/Users/User/AppData/Local/Programs/MiKTeX/tex/generic/atbegshi/atbegshi.sty" 1575574700 24708 5584a51a7101caf7e6bbf1fc27d8f7b1 ""
  "C:/Users/User/AppData/Local/Programs/MiKTeX/tex/generic/babel/babel.def" 1624892741 123026 b4d3dcb4c2dffde25d5d312c52d40091 ""
  "C:/Users/User/AppData/Local/Programs/MiKTeX/tex/generic/babel/babel.sty" 1624892741 38648 1f25916e2fc50ed043823f7f5f878516 ""
  "C:/Users/User/AppData/Local/Programs/MiKTeX/tex/generic/babel/txtbabel.def" 1624892741 5233 a89961f969f72563cb59411e9dc4ae8e ""
  "C:/Users/User/AppData/Local/Programs/MiKTeX/tex/generic/bigintcalc/bigintcalc.sty" 1576437202 40635 c40361e206be584d448876bba8a64a3b ""
  "C:/Users/User/AppData/Local/Programs/MiKTeX/tex/generic/bitset/bitset.sty" 1575930176 33961 6b5c75130e435b2bfdb9f480a09a39f9 ""
  "C:/Users/User/AppData/Local/Programs/MiKTeX/tex/generic/etexcmds/etexcmds.sty" 1576437238 7734 b98cbb34c81f667027c1e3ebdbfce34b ""
  "C:/Users/User/AppData/Local/Programs/MiKTeX/tex/generic/gettitlestring/gettitlestring.sty" 1576437266 8371 9d55b8bd010bc717624922fb3477d92e ""
  "C:/Users/User/AppData/Local/Programs/MiKTeX/tex/generic/iftex/iftex.sty" 1583527000 6501 4011d89d9621e0b0901138815ba5ff29 ""
  "C:/Users/User/AppData/Local/Programs/MiKTeX/tex/generic/iftex/ifvtex.sty" 1583527000 1057 525c2192b5febbd8c1f662c9468335bb ""
  "C:/Users/User/AppData/Local/Programs/MiKTeX/tex/generic/infwarerr/infwarerr.sty" 1575403108 8356 7bbb2c2373aa810be568c29e333da8ed ""
  "C:/Users/User/AppData/Local/Programs/MiKTeX/tex/generic/intcalc/intcalc.sty" 1576437364 31769 002a487f55041f8e805cfbf6385ffd97 ""
  "C:/Users/User/AppData/Local/Programs/MiKTeX/tex/generic/kvdefinekeys/kvdefinekeys.sty" 1576766904 5412 d5a2436094cd7be85769db90f29250a6 ""
  "C:/Users/User/AppData/Local/Programs/MiKTeX/tex/generic/kvsetkeys/kvsetkeys.sty" 1576437420 13807 952b0226d4efca026f0e19dd266dcc22 ""
  "C:/Users/User/AppData/Local/Programs/MiKTeX/tex/generic/ltxcmds/ltxcmds.sty" 1601735609 18568 4409f8f50cd365c68e684407e5350b1b ""
  "C:/Users/User/AppData/Local/Programs/MiKTeX/tex/generic/pdfescape/pdfescape.sty" 1575930300 19007 15924f7228aca6c6d184b115f4baa231 ""
  "C:/Users/User/AppData/Local/Programs/MiKTeX/tex/generic/pdftexcmds/pdftexcmds.sty" 1623005277 20089 80423eac55aa175305d35b49e04fe23b ""
  "C:/Users/User/AppData/Local/Programs/MiKTeX/tex/generic/uniquecounter/uniquecounter.sty" 1576437612 7008 f92eaa0a3872ed622bbf538217cd2ab7 ""
  "C:/Users/User/AppData/Local/Programs/MiKTeX/tex/generic/xkeyval/xkeyval.tex" 1623005690 19231 3cbf682090baecad8e17a66b7a271ed1 ""
  "C:/Users/User/AppData/Local/Programs/MiKTeX/tex/generic/xkeyval/xkvutils.tex" 1623005690 7677 cf3e6aa6a8d444f55327f61df80bfa0c ""
  "C:/Users/User/AppData/Local/Programs/MiKTeX/tex/latex/00miktex/epstopdf-sys.cfg" 1616070885 584 2a1075dd71571459f59146da9f7502ad ""
  "C:/Users/User/AppData/Local/Programs/MiKTeX/tex/latex/adjustbox/adjcalc.sty" 1598813920 5770 e823b3adfbc2ea70e453a21ea6e2ee12 ""
  "C:/Users/User/AppData/Local/Programs/MiKTeX/tex/latex/adjustbox/adjustbox.sty" 1598813920 58934 8e897e69259d91e3f48a398c5d3ba08f ""
  "C:/Users/User/AppData/Local/Programs/MiKTeX/tex/latex/adjustbox/tc-pdftex.def" 1598813920 4190 8581b1ee97fe4a61e6907d7106f85141 ""
  "C:/Users/User/AppData/Local/Programs/MiKTeX/tex/latex/adjustbox/trimclip.sty" 1598813920 7512 a32c09a7494ab7f6b44688804f84e5d6 ""
  "C:/Users/User/AppData/Local/Programs/MiKTeX/tex/latex/arabi/bblopts.cfg" 1139965200 902 c30e5c373bc58bde21f8f63a3091626f ""
  "C:/Users/User/AppData/Local/Programs/MiKTeX/tex/latex/atveryend/atveryend.sty" 1576104710 19336 ce7ae9438967282886b3b036cfad1e4d ""
  "C:/Users/User/AppData/Local/Programs/MiKTeX/tex/latex/auxhook/auxhook.sty" 1576542332 3935 57aa3c3e203a5c2effb4d2bd2efbc323 ""
  "C:/Users/User/AppData/Local/Programs/MiKTeX/tex/latex/babel-dutch/dutch.ldf" 1604167113 6989 27dc85caa6547a3f42fea68a92f545d5 ""
  "C:/Users/User/AppData/Local/Programs/MiKTeX/tex/latex/base/article.cls" 1623741700 20144 0fe9067680219956678b52f12bdce8ee ""
  "C:/Users/User/AppData/Local/Programs/MiKTeX/tex/latex/base/atbegshi-ltx.sty" 1623741700 3034 7076a43c47446700860d2aebb65ebed5 ""
  "C:/Users/User/AppData/Local/Programs/MiKTeX/tex/latex/base/atveryend-ltx.sty" 1623741700 2459 f9456a3cd988c2865f64e327cdb6f7a0 ""
  "C:/Users/User/AppData/Local/Programs/MiKTeX/tex/latex/base/ifthen.sty" 1623741700 5157 f308c7c04889e16c588e78aa42599fae ""
  "C:/Users/User/AppData/Local/Programs/MiKTeX/tex/latex/base/inputenc.sty" 1623741700 5049 969aec05d5f39c43f8005910498fcf90 ""
  "C:/Users/User/AppData/Local/Programs/MiKTeX/tex/latex/base/size10.clo" 1623741700 8448 05e1c6a8fc5db344ed9d7aeb299acbce ""
  "C:/Users/User/AppData/Local/Programs/MiKTeX/tex/latex/caption/caption.sty" 1603744196 51746 e89c4da670ba533e6ab38e045ce6d1d9 ""
  "C:/Users/User/AppData/Local/Programs/MiKTeX/tex/latex/caption/caption3.sty" 1603744196 67929 d50ae850e1d9604065e8337a75a41029 ""
  "C:/Users/User/AppData/Local/Programs/MiKTeX/tex/latex/collectbox/collectbox.sty" 1337615687 9116 495d44b5a3e7be0c46c5d1f053f457f0 ""
  "C:/Users/User/AppData/Local/Programs/MiKTeX/tex/latex/comment/comment.sty" 1468691282 10197 204f75d5d8d88aa345a8c402e879e63b ""
  "C:/Users/User/AppData/Local/Programs/MiKTeX/tex/latex/epstopdf-pkg/epstopdf-base.sty" 1623003186 13886 d1306dcf79a944f6988e688c1785f9ce ""
  "C:/Users/User/AppData/Local/Programs/MiKTeX/tex/latex/eso-pic/eso-pic.sty" 1607186570 11772 8d0db0794e6aeb45348f60bbe3a3e093 ""
  "C:/Users/User/AppData/Local/Programs/MiKTeX/tex/latex/float/float.sty" 1469023953 6916 16d2656a1984957e674b149555f1ea1d ""
  "C:/Users/User/AppData/Local/Programs/MiKTeX/tex/latex/floatrow/floatrow.sty" 1249380048 61485 31ae5968a4a3fc2e332dd6a87f8e924b ""
  "C:/Users/User/AppData/Local/Programs/MiKTeX/tex/latex/floatrow/fr-subfig.sty" 1249380048 8272 a013c30438046f8c886036b8961dfa63 ""
  "C:/Users/User/AppData/Local/Programs/MiKTeX/tex/latex/geometry/geometry.cfg" 1578057145 1104 7ac475a4e3466b0b43e138e9356bda83 ""
  "C:/Users/User/AppData/Local/Programs/MiKTeX/tex/latex/geometry/geometry.sty" 1578057145 42759 9cf6c5257b1bc7af01a58859749dd37a ""
  "C:/Users/User/AppData/Local/Programs/MiKTeX/tex/latex/graphics-cfg/color.cfg" 1465894292 1213 620bba36b25224fa9b7e1ccb4ecb76fd ""
  "C:/Users/User/AppData/Local/Programs/MiKTeX/tex/latex/graphics-cfg/graphics.cfg" 1465894292 1224 978390e9c2234eab29404bc21b268d1e ""
  "C:/Users/User/AppData/Local/Programs/MiKTeX/tex/latex/graphics-def/pdftex.def" 1622562294 19103 48d29b6e2a64cb717117ef65f107b404 ""
  "C:/Users/User/AppData/Local/Programs/MiKTeX/tex/latex/graphics/color.sty" 1623003325 7153 17c23e5e586ebbdf5d269e7867e53cef ""
  "C:/Users/User/AppData/Local/Programs/MiKTeX/tex/latex/graphics/graphics.sty" 1623003325 18399 7e40f80366dffb22c0e7b70517db5cb4 ""
  "C:/Users/User/AppData/Local/Programs/MiKTeX/tex/latex/graphics/graphicx.sty" 1623003325 7972 81ea1752666dc7c1e93f0b4c10665ca1 ""
  "C:/Users/User/AppData/Local/Programs/MiKTeX/tex/latex/graphics/keyval.sty" 1623003325 2671 4de6781a30211fe0ea4c672e4a2a8166 ""
  "C:/Users/User/AppData/Local/Programs/MiKTeX/tex/latex/graphics/lscape.sty" 1623003325 1808 e22d55a4f66156801447813626bd4159 ""
  "C:/Users/User/AppData/Local/Programs/MiKTeX/tex/latex/graphics/rotating.sty" 1623003325 7060 456d34a7dddb810e7885ac5d0fc74391 ""
  "C:/Users/User/AppData/Local/Programs/MiKTeX/tex/latex/graphics/trig.sty" 1623003325 4007 3bccccf8f35e1bc1ef0f7c55ceeb7713 ""
  "C:/Users/User/AppData/Local/Programs/MiKTeX/tex/latex/hycolor/hycolor.sty" 1580384392 18571 4c28a13fc3d975e6e81c9bea1d697276 ""
  "C:/Users/User/AppData/Local/Programs/MiKTeX/tex/latex/hyperref/hpdftex.def" 1623057842 49890 0bb76a5b745d92e86aed6f3f93e334f0 ""
  "C:/Users/User/AppData/Local/Programs/MiKTeX/tex/latex/hyperref/hyperref-langpatches.def" 1623057842 1777 940b1aa83773bc035eb882e8d6842769 ""
  "C:/Users/User/AppData/Local/Programs/MiKTeX/tex/latex/hyperref/hyperref.sty" 1623057842 230915 97a8817f13de4e61bbc3592cb2caa995 ""
  "C:/Users/User/AppData/Local/Programs/MiKTeX/tex/latex/hyperref/nameref.sty" 1623057842 13242 133e617c5eebffdd05e421624022b267 ""
  "C:/Users/User/AppData/Local/Programs/MiKTeX/tex/latex/hyperref/pd1enc.def" 1623057842 14132 c9404e8e78123ef0d1007c34d1d6da51 ""
  "C:/Users/User/AppData/Local/Programs/MiKTeX/tex/latex/hyperref/puenc.def" 1623057842 117004 86586f287ddfad919a0a4bd68934277a ""
  "C:/Users/User/AppData/Local/Programs/MiKTeX/tex/latex/ifoddpage/ifoddpage.sty" 1461436284 2148 0426cd8bb94163c1e23726d0c15e2c21 ""
  "C:/Users/User/AppData/Local/Programs/MiKTeX/tex/latex/kvoptions/kvoptions.sty" 1602228096 22521 d2fceb764a442a2001d257ef11db7618 ""
  "C:/Users/User/AppData/Local/Programs/MiKTeX/tex/latex/l3backend/l3backend-pdftex.def" 1626117980 27390 e56d07ec4c21b9dfc83acf3baec1b83c ""
  "C:/Users/User/AppData/Local/Programs/MiKTeX/tex/latex/letltxmacro/letltxmacro.sty" 1575403136 5766 13a9e8766c47f30327caf893ece86ac8 ""
  "C:/Users/User/AppData/Local/Programs/MiKTeX/tex/latex/pdflscape/pdflscape.sty" 1575574826 6575 25396d208d8f2b9395d06ef315d5886c ""
  "C:/Users/User/AppData/Local/Programs/MiKTeX/tex/latex/pdfpages/pdfpages.sty" 1615072872 54497 58ccf247b8e81d55ca6f10c5082d335f ""
  "C:/Users/User/AppData/Local/Programs/MiKTeX/tex/latex/pdfpages/pppdftex.def" 1615072872 6591 7d4f68a47a8f9dceeb2327354264a7a7 ""
  "C:/Users/User/AppData/Local/Programs/MiKTeX/tex/latex/refcount/refcount.sty" 1576437552 9878 9e94e8fa600d95f9c7731bb21dfb67a4 ""
  "C:/Users/User/AppData/Local/Programs/MiKTeX/tex/latex/rerunfilecheck/rerunfilecheck.sty" 1575574882 9715 b051d5b493d9fe5f4bc251462d039e5f ""
  "C:/Users/User/AppData/Local/Programs/MiKTeX/tex/latex/subfig/subfig.sty" 1121281010 22049 9ef165ca6df8815c92e693146a376c92 ""
  "C:/Users/User/AppData/Local/Programs/MiKTeX/tex/latex/tools/array.sty" 1622550326 12689 a1a7b2795918756dcb9c9cbfacc4d9c7 ""
  "C:/Users/User/AppData/Local/Programs/MiKTeX/tex/latex/tools/calc.sty" 1622550326 10214 00ce62e730d0cfe22b35e8f1c84949c7 ""
  "C:/Users/User/AppData/Local/Programs/MiKTeX/tex/latex/tools/tabularx.sty" 1622550326 7147 5ac8a9ef36411064b1a501137af0fa54 ""
  "C:/Users/User/AppData/Local/Programs/MiKTeX/tex/latex/url/url.sty" 1388494052 12796 8edb7d69a20b857904dd0ea757c14ec9 ""
  "C:/Users/User/AppData/Local/Programs/MiKTeX/tex/latex/varwidth/varwidth.sty" 1238469540 10894 d359a13923460b2a73d4312d613554c8 ""
  "C:/Users/User/AppData/Local/Programs/MiKTeX/tex/latex/xcolor/xcolor.sty" 1623005660 55589 34128738f682d033422ca125f82e5d62 ""
  "C:/Users/User/AppData/Local/Programs/MiKTeX/tex/latex/xkeyval/xkeyval.sty" 1623005690 4902 efb3d66683a2da2a232f71e3a571a899 ""
  "c:/Users/User/Documents/afstudeeropdracht/Eindverslag/Eindverslag_v1/DefinitieFase/definitie_v1/Bijlage/onderzoek_fpga_vs_uc.tex" 1635432745 26685 0fe61f5580d61c016ac4004f18478e36 ""
  "onderzoek_fpga_vs_uc.aux" 1635432751 6094 260b2a04bf674b658b90c28f744a5968 "pdflatex"
  "onderzoek_fpga_vs_uc.out" 1635432751 3714 eb38e9754d4d67e211b2f3f8dcdabfd9 "pdflatex"
  "onderzoek_fpga_vs_uc.tex" 1635432745 26685 0fe61f5580d61c016ac4004f18478e36 ""
  "onderzoek_fpga_vs_uc.toc" 1635432751 1717 e375fc68ea4cbfe28abb30d8e20fb3d5 "pdflatex"
  (generated)
  "onderzoek_fpga_vs_uc.log"
  "onderzoek_fpga_vs_uc.aux"
  "onderzoek_fpga_vs_uc.pdf"
  "onderzoek_fpga_vs_uc.toc"
  "onderzoek_fpga_vs_uc.out"
