stm32f1xx_hal_msp.c:64:6:HAL_MspInit	24	static
stm32f1xx_hal_msp.c:90:6:HAL_I2C_MspInit	48	static
stm32f1xx_hal_msp.c:146:6:HAL_I2C_MspDeInit	16	static
stm32f1xx_hal_msp.c:197:6:HAL_UART_MspInit	40	static
stm32f1xx_hal_msp.c:239:6:HAL_UART_MspDeInit	16	static
